15
3	1	12
3	2	12
3	4	0
3	7	0
3	8	0
3	11	12
3	14	0
6	0	12
6	1	12
6	2	12
6	3	12
6	4	12
6	5	12
6	7	12
6	14	12
9	2	12
9	4	13
9	7	12
9	8	12
9	14	12
11	1	13
11	2	12
11	4	13
11	7	12
11	8	12
11	14	12
14	8	0
14	9	0
14	11	0