0	1	2727.20973577
0	2	372.078773514
0	3	256.716114569
0	4	196.526901207
0	5	725.918391464
0	6	202.454626765
0	7	262.643840128
0	8	223.885634553
0	9	256.716114569
0	10	114.906680056
0	11	316.905327932
0	12	147.737160072
0	13	709.503151456
0	14	316.905327932
1	0	3252.04143714
1	2	1205.60818281
1	3	1020.93673272
1	4	344.264061279
1	5	2782.38318135
1	6	835.353324851
1	7	2247.97592332
1	8	115.362658945
1	9	890.070791544
1	10	344.264061279
1	11	497.016989131
1	12	256.716114569
1	13	191.055154537
1	14	845.8408393
2	0	445.491374661
2	1	1436.78947959
2	3	142.265413403
2	4	109.434933387
2	5	114.906680056
2	6	17.3271977862
2	7	523.919743588
2	8	38.7582055744
2	9	44.2299522437
2	10	44.2299522437
2	11	66.116938921
2	12	38.7582055744
2	13	16.8712188971
2	14	196.526901207
3	0	309.153686817
3	1	1219.74352837
3	2	168.712188971
3	4	447.771269107
3	5	420.41253576
3	6	32.830480016
3	7	72.0446644795
3	8	32.830480016
3	9	109.434933387
3	10	66.116938921
3	11	66.116938921
3	12	693.543890337
3	13	71.5886855904
3	14	87.5479467092
4	0	233.461191225
4	1	412.660894645
4	2	130.409962286
4	3	536.687152483
4	5	44.6859311328
4	6	16.8712188971
4	7	54.7174666933
4	8	27.8147122357
4	9	27.8147122357
4	10	16.8712188971
4	11	39.2141844635
4	12	38.7582055744
4	13	17.3271977862
4	14	39.2141844635
5	0	867.727825978
5	1	3317.24641828
5	2	135.881708955
5	3	504.312651356
5	4	55.1734455824
5	6	44.2299522437
5	7	398.525549083
5	8	39.2141844635
5	9	262.187861239
5	10	82.532178929
5	11	60.1892133626
5	12	72.0446644795
5	13	109.434933387
5	14	120.378426725
6	0	244.404684563
6	1	998.137788263
6	2	22.3429655664
6	3	38.3022266853
6	4	21.8869866773
6	5	54.7174666933
6	7	27.8147122357
6	8	120.834405614
6	9	88.0039255984
6	10	44.2299522437
6	11	27.3587333466
6	12	27.8147122357
6	13	33.2864589051
6	14	87.5479467092
7	0	315.081412375
7	1	2682.97978353
7	2	623.779120303
7	3	87.5479467092
7	4	65.2049811428
7	5	477.409896899
7	6	33.2864589051
7	8	93.0196933786
7	9	82.532178929
7	10	44.2299522437
7	11	66.116938921
7	12	71.5886855904
7	13	109.890912276
7	14	235.285106781
8	0	266.291671241
8	1	136.337687844
8	2	49.2457200239
8	3	38.3022266853
8	4	33.2864589051
8	5	49.2457200239
8	6	146.825202294
8	7	113.994722278
8	9	93.0196933786
8	10	33.2864589051
8	11	125.850173395
8	12	27.8147122357
8	13	54.7174666933
8	14	114.906680056
9	0	309.153686817
9	1	1062.88679052
9	2	54.7174666933
9	3	130.409962286
9	4	33.2864589051
9	5	314.625433486
9	6	103.963186717
9	7	98.0354611588
9	8	113.994722278
9	10	191.055154537
9	11	551.278476935
9	12	414.940789091
9	13	518.447996919
9	14	305.505855704
10	0	135.881708955
10	1	412.660894645
10	2	54.7174666933
10	3	82.0762000399
10	4	22.3429655664
10	5	98.0354611588
10	6	54.7174666933
10	7	54.7174666933
10	8	38.3022266853
10	9	227.989444555
10	11	109.434933387
10	12	279.059080136
10	13	175.095893418
10	14	71.5886855904
11	0	379.830414629
11	1	591.860598066
11	2	82.0762000399
11	3	81.6202211508
11	4	49.2457200239
11	5	71.1327067013
11	6	32.830480016
11	7	81.6202211508
11	8	152.296948963
11	9	656.15362143
11	10	130.409962286
11	12	44.2299522437
11	13	44.2299522437
11	14	425.884282429
12	0	179.19970342
12	1	309.153686817
12	2	48.7897411348
12	3	829.425599292
12	4	48.7897411348
12	5	87.5479467092
12	6	32.830480016
12	7	87.0919678201
12	8	32.830480016
12	9	493.369158018
12	10	331.496652383
12	11	55.1734455824
12	13	142.721392292
12	14	88.0039255984
13	0	845.8408393
13	1	227.989444555
13	2	21.8869866773
13	3	87.0919678201
13	4	22.3429655664
13	5	130.409962286
13	6	38.7582055744
13	7	130.865941175
13	8	65.2049811428
13	9	617.851394745
13	10	211.574204547
13	11	54.7174666933
13	12	168.712188971
13	14	44.2299522437
14	0	379.830414629
14	1	1008.62530271
14	2	233.461191225
14	3	103.507207828
14	4	49.2457200239
14	5	146.369223405
14	6	103.507207828
14	7	282.250932359
14	8	136.337687844
14	9	363.415174621
14	10	87.0919678201
14	11	509.784398026
14	12	103.963186717
14	13	54.7174666933
