15	15	15
0	5	180000.0
0	6	70000.0
0	7	53000.0
1	2	133000.0
1	4	38000.0
1	5	181000.0
2	1	134000.0
2	4	11000.0
2	7	140000.0
3	4	46000.0
3	5	38000.0
4	1	44000.0
4	2	17000.0
4	3	38000.0
5	0	159000.0
5	1	212000.0
5	3	50000.0
5	12	59000.0
6	0	108000.0
6	9	64000.0
6	13	53000.0
7	0	65000.0
7	2	134000.0
7	8	53000.0
7	14	47000.0
8	7	38000.0
8	9	39000.0
8	11	31000.0
8	14	19000.0
9	6	90000.0
9	8	19000.0
9	11	26000.0
10	12	27000.0
10	13	14000.0
11	9	32000.0
11	8	31000.0
12	5	69000.0
12	10	25000.0
12	13	25000.0
13	6	63000.0
13	12	25000.0
13	10	14000.0
14	7	56000.0
14	8	23000.0
