10	10	10
9	8	0.0
9	1	0.0
9	6	0.0
2	4	0.0
2	8	0.0
2	7	0.0
2	5	0.0
2	6	0.0
3	0	0.0
3	4	0.0
3	1	0.0
5	4	0.0
5	7	0.0
5	1	0.0
6	4	0.0
6	8	0.0
6	7	0.0
1	7	0.0
7	0	0.0
8	4	0.0
9	4	0.0
9	7	0.0
9	5	0.0
9	3	0.0
9	2	0.0
9	0	0.0
2	0	0.0
2	1	0.0
2	3	0.0
3	8	0.0
3	7	0.0
3	6	0.0
3	5	0.0
5	0	0.0
5	8	0.0
5	6	0.0
6	0	0.0
6	1	0.0
1	0	0.0
1	4	0.0
1	8	0.0
7	4	0.0
7	8	0.0
8	0	0.0
4	0	0.0
