50
31	6	32
40	22	41
21	28	5
4	36	35
43	3	3
7	25	6
46	12	0
29	44	28
33	41	24
16	47	18
36	34	48
44	34	19
9	0	16
48	37	14
34	8	37
15	30	27
37	13	49
24	14	42
13	20	31
3	2	31
25	49	18
28	10	44
31	15	32
1	40	34
40	29	41
21	37	43
4	35	35
8	38	13
7	22	6
46	23	28
29	37	28
33	34	24
16	38	28
36	41	48
41	34	34
22	12	4
44	25	10
34	3	37
24	21	23
0	14	48
38	31	39
3	11	11
28	1	16
1	33	49
40	4	41
21	46	5
4	42	44
8	45	13
7	15	15
46	30	42
16	29	28
41	43	37
22	7	6
44	16	19
47	5	1
12	41	14
34	26	26
24	28	23
45	47	47
10	19	44
13	6	25
0	5	48
38	22	39
25	3	13
28	24	23
40	11	41
4	17	44
26	34	34
7	4	6
46	33	42
16	20	19
19	1	18
41	44	37
22	30	5
44	15	4
47	2	1
12	32	14
34	21	37
17	43	24
45	40	30
10	26	25
49	45	45
0	28	29
38	9	48
25	4	5
28	23	23
14	38	48
21	48	22
4	24	44
26	45	30
46	40	28
29	48	0
16	11	19
19	6	44
41	21	37
22	17	4
5	39	22
44	6	4
47	11	1
30	49	45
34	44	37
17	44	24
37	33	49
45	33	24
10	5	25
49	38	18
35	23	10
0	19	29
38	0	48
25	13	13
14	41	10
4	7	22
29	9	28
16	2	18
19	15	25
2	45	37
41	30	34
22	40	5
5	32	32
9	37	16
47	16	1
34	39	37
17	37	24
37	42	49
42	39	46
23	11	24
45	26	30
10	12	14
13	49	49
35	28	10
25	22	5
14	48	48
1	13	49
39	24	35
4	14	35
29	2	28
19	20	25
2	36	31
41	7	37
22	35	4
5	41	32
9	46	16
47	25	1
30	35	45
17	30	30
42	46	46
23	0	28
45	19	49
32	8	31
13	42	49
35	5	4
25	31	13
11	28	13
1	6	49
39	17	35
26	6	30
29	27	28
19	29	16
41	8	37
5	18	25
27	45	43
47	38	45
30	42	17
17	23	24
20	4	3
42	41	24
23	25	9
45	12	24
32	15	43
13	35	25
35	10	10
18	46	16
11	21	3
14	2	10
1	31	49
39	14	35
26	1	34
48	30	0
29	20	28
15	33	27
19	34	18
5	27	21
27	34	43
30	45	45
34	48	37
17	8	24
20	3	3
42	16	46
23	22	28
6	42	38
45	5	49
32	6	5
18	41	49
38	44	48
11	10	13
14	5	10
36	18	48
1	16	49
39	7	38
26	8	34
48	21	38
15	46	7
19	43	25
2	49	37
5	4	4
30	20	45
17	1	24
20	10	3
42	27	46
23	47	24
6	45	22
10	32	25
32	29	5
18	32	25
38	39	39
43	40	32
8	22	13
11	3	3
14	12	12
36	25	48
26	19	30
48	12	14
19	48	44
2	8	8
24	37	45
5	13	25
27	48	15
30	31	45
20	17	3
42	2	24
23	36	28
6	36	38
10	43	25
32	20	3
31	36	32
35	33	10
18	27	25
43	33	32
8	29	13
33	11	24
14	23	12
36	0	48
48	3	14
12	25	14
2	3	31
24	44	23
27	9	21
30	6	45
20	24	3
3	32	32
42	13	24
6	31	22
28	40	16
32	43	43
31	45	13
35	38	39
21	7	27
43	38	21
8	4	13
11	49	13
33	12	9
14	30	10
36	15	38
12	16	29
15	5	27
2	26	37
27	14	21
49	29	18
30	9	17
0	44	29
20	39	43
3	41	31
6	22	22
28	39	44
32	34	31
31	42	13
35	47	10
18	13	25
40	34	34
21	0	22
43	31	32
8	11	11
7	45	6
33	5	9
39	43	22
48	49	14
12	15	14
15	2	27
37	17	49
2	21	31
27	7	15
49	22	18
0	35	48
20	46	3
3	46	32
6	9	22
31	19	13
18	4	19
40	41	41
21	9	5
43	20	20
7	42	6
46	3	28
11	47	13
33	30	24
39	32	22
44	45	19
9	21	16
48	40	14
12	6	14
15	11	27
37	26	34
24	1	45
27	28	21
49	15	18
3	23	32
25	38	10
6	0	38
32	48	5
31	24	13
40	16	41
21	18	5
43	13	32
7	35	6
46	10	28
11	36	13
33	23	9
16	41	18
44	36	10
9	30	33
48	47	0
34	14	37
15	16	27
37	3	2
24	8	45
27	21	21
49	0	18
13	26	49
0	49	29
3	28	32
25	47	18
28	12	29
31	1	13
40	23	41
21	27	27
4	37	44
43	2	32
8	32	11
7	24	6
46	13	28
29	43	28
33	40	24
16	32	19
36	35	38
22	10	4
44	35	10
9	7	16
48	38	38
34	9	37
15	25	27
37	12	49
24	15	42
13	19	25
0	8	48
3	5	32
25	48	10
28	11	16
31	14	13
1	47	47
40	30	34
21	36	22
4	44	44
8	39	13
7	17	6
46	20	28
29	36	0
16	39	19
36	42	48
41	33	37
22	13	5
44	26	19
9	8	16
34	0	37
24	22	23
13	12	25
0	15	48
38	28	48
3	10	32
28	2	16
1	32	49
40	5	41
21	45	5
4	43	5
8	46	13
7	14	6
46	31	28
16	30	18
41	42	37
22	4	4
44	17	28
9	49	16
47	4	1
12	42	29
34	27	37
17	49	24
24	29	23
45	46	24
10	16	44
49	43	13
13	5	25
0	6	48
38	23	48
25	2	13
28	25	16
40	12	41
4	18	44
26	35	30
46	38	0
16	21	19
19	0	16
41	19	37
22	31	5
44	8	10
47	13	1
12	33	29
34	18	37
17	42	24
37	39	2
45	39	49
10	27	25
49	44	18
35	17	10
0	29	29
38	14	48
25	11	13
28	16	16
14	39	10
4	25	5
26	42	30
46	41	28
29	15	0
16	12	28
19	9	16
41	20	37
5	38	22
44	7	4
9	35	16
47	10	1
34	45	37
17	35	24
37	32	2
23	13	24
45	32	49
10	2	25
49	37	37
35	22	4
0	20	48
38	1	48
25	12	10
14	46	48
1	11	49
4	0	44
46	48	0
29	8	12
16	3	19
19	14	44
2	42	37
41	29	37
22	41	5
5	47	25
9	36	16
47	19	1
34	36	37
17	36	24
37	41	41
42	36	46
23	10	28
45	25	49
10	13	25
13	48	25
35	31	10
25	21	5
14	49	10
1	12	49
39	27	22
4	15	5
29	1	28
19	23	16
2	37	37
41	6	37
22	32	5
5	40	32
9	45	33
47	24	45
30	32	45
17	29	24
42	47	24
23	3	28
45	18	49
32	9	5
13	41	49
35	4	4
25	30	18
11	31	31
1	5	49
39	16	35
26	7	30
48	24	0
29	26	28
19	28	16
41	15	37
5	17	25
27	44	21
47	33	45
30	43	45
17	22	24
20	5	3
42	22	46
23	24	24
6	48	38
45	11	49
32	0	5
13	34	49
35	13	10
18	47	49
38	42	48
11	20	3
14	3	10
36	20	38
1	30	49
39	9	35
26	14	30
48	31	14
29	19	28
15	32	27
19	37	18
5	26	32
27	37	43
47	46	45
30	18	45
34	49	37
17	15	24
20	12	3
42	17	24
23	17	24
6	43	22
45	4	24
10	38	14
32	7	43
31	49	13
18	38	25
38	45	48
8	16	13
11	13	13
14	10	10
36	19	48
1	23	49
39	6	38
26	9	30
48	22	38
15	41	27
19	42	16
2	14	31
5	3	32
30	21	45
17	0	24
20	11	3
42	24	24
23	46	28
6	34	22
10	33	44
32	30	31
18	33	16
38	36	36
8	23	13
11	2	31
14	13	10
36	26	48
26	16	30
48	13	14
2	9	37
24	38	42
5	12	25
30	28	17
20	18	3
42	3	24
23	39	28
6	37	22
10	40	25
32	21	43
31	39	32
35	32	4
18	24	49
43	32	32
8	30	13
33	10	9
14	20	10
36	1	48
26	27	34
48	4	14
12	26	29
2	0	37
24	45	45
27	8	43
49	27	18
30	7	45
20	25	3
3	35	32
42	10	46
6	28	22
28	41	16
32	44	5
31	44	32
35	41	10
18	19	19
21	6	22
43	25	32
8	5	13
11	48	13
33	3	24
14	31	10
36	8	48
39	45	35
12	17	29
15	4	7
37	23	49
2	27	31
27	1	43
49	28	18
30	14	45
0	45	46
20	32	3
3	40	31
6	23	22
28	32	44
32	35	5
31	21	32
35	46	10
18	10	25
40	35	41
21	15	27
43	30	32
8	12	13
7	44	6
11	41	31
33	4	9
39	42	38
9	19	16
12	8	14
15	13	27
37	16	49
2	18	37
27	6	15
49	21	18
0	36	48
20	47	3
3	17	31
6	14	38
31	18	13
18	5	25
40	42	41
21	8	43
4	48	35
43	23	32
7	37	15
46	0	0
11	46	13
33	29	9
39	35	35
44	46	28
9	20	16
48	41	14
12	7	14
15	10	27
37	25	49
24	2	45
27	31	43
49	14	18
3	22	32
25	37	18
6	1	22
32	49	31
31	27	32
40	17	34
21	17	5
43	12	32
7	34	15
46	11	28
11	39	31
33	22	9
16	42	9
36	37	48
44	37	19
9	29	16
48	32	14
34	15	37
15	19	27
37	2	2
24	9	33
27	20	43
49	7	18
13	25	25
3	31	31
25	46	10
28	13	16
31	0	13
40	24	41
21	26	43
4	38	35
43	5	32
8	33	13
7	27	15
46	18	28
29	42	0
33	47	24
16	33	9
36	44	48
22	11	21
44	28	28
9	6	16
48	39	38
34	6	37
15	24	7
37	11	2
24	16	33
13	18	25
0	9	29
38	26	48
3	4	32
28	4	44
31	9	13
1	46	49
40	31	41
21	35	5
4	45	44
8	40	2
7	16	6
46	21	28
29	35	12
33	32	9
16	24	9
36	43	38
41	32	37
22	2	5
44	27	4
9	15	16
12	44	14
34	1	1
24	23	23
10	22	35
13	11	11
38	29	48
3	13	31
28	3	44
1	39	49
40	6	41
21	44	5
4	20	5
8	47	13
7	9	6
46	28	28
16	31	19
22	5	5
44	18	19
9	48	16
47	7	1
12	43	14
34	24	37
17	48	24
24	30	17
10	17	44
49	42	45
13	4	25
0	7	48
38	20	39
25	1	18
28	26	23
40	13	41
4	19	44
26	32	34
7	6	6
46	39	0
16	22	19
19	3	25
41	18	37
22	28	4
44	9	19
47	12	45
12	34	14
34	19	37
17	41	30
37	38	2
45	38	24
10	24	44
49	35	18
35	16	10
0	30	46
38	15	6
25	10	10
28	17	23
14	36	48
1	49	49
4	26	44
26	43	34
29	14	12
16	13	19
19	8	25
41	27	37
22	23	4
5	37	32
44	0	28
9	34	16
47	21	1
34	42	37
17	34	30
37	47	49
23	12	28
45	31	49
10	3	25
49	36	18
35	25	10
0	21	48
38	6	6
25	19	19
14	47	10
1	10	49
39	29	38
4	1	44
46	49	28
29	7	0
16	4	19
19	17	16
2	43	31
41	28	37
22	46	4
5	46	4
9	43	16
47	18	1
34	37	37
17	27	24
37	40	41
42	37	24
23	5	28
45	24	24
13	47	49
35	30	10
25	20	13
11	25	13
1	3	49
39	26	35
4	8	5
29	0	0
19	22	44
2	34	37
41	5	37
22	33	4
5	23	4
9	44	16
47	27	1
30	33	17
17	28	24
42	44	46
23	2	24
45	17	24
32	10	5
13	40	49
35	7	4
38	48	48
25	29	10
11	30	13
1	4	49
39	19	35
26	4	30
48	25	14
29	25	12
19	31	25
41	14	37
5	16	25
27	47	43
47	32	1
30	40	26
17	21	24
20	6	43
42	23	23
23	27	28
6	49	22
45	10	49
32	1	31
13	33	49
35	12	10
18	44	19
38	43	39
11	23	13
14	0	48
36	21	38
1	29	49
39	8	35
26	15	34
48	16	0
29	18	28
15	35	7
19	36	44
5	25	25
27	36	15
47	41	1
30	19	45
17	14	24
20	13	3
42	30	24
23	16	9
6	40	22
45	3	49
10	39	35
32	24	31
31	48	13
18	39	25
38	34	48
8	17	13
11	12	13
14	11	10
36	28	48
1	22	49
39	1	35
26	22	30
48	23	0
15	40	27
19	45	18
2	15	31
24	32	45
5	2	32
30	26	26
17	7	24
42	25	24
23	41	24
6	35	38
10	46	44
32	31	31
18	30	49
38	37	48
43	42	32
8	24	13
11	5	31
14	18	10
36	27	38
26	17	30
48	14	14
12	28	29
15	49	27
2	6	31
24	39	42
5	11	32
30	29	17
20	19	3
42	0	46
23	38	28
6	26	22
10	41	25
32	22	5
31	38	32
18	25	25
43	35	32
8	31	11
33	9	9
14	21	10
36	2	48
26	24	30
48	5	14
12	27	14
2	1	37
24	46	42
27	11	43
49	26	37
30	4	17
20	26	3
3	34	31
42	11	24
6	29	38
28	42	46
32	45	31
31	47	13
35	40	10
18	16	16
21	5	5
43	24	32
8	6	13
33	2	24
14	28	12
36	9	48
39	44	35
12	18	14
15	7	7
37	22	2
2	24	37
27	0	15
49	19	18
30	15	45
0	46	46
20	33	3
3	43	43
6	20	22
28	33	16
32	36	5
31	20	3
18	11	25
40	36	41
21	14	5
43	17	32
8	13	13
7	47	6
11	40	31
33	27	9
36	48	48
39	37	35
44	48	10
9	18	16
12	9	29
15	12	7
37	31	2
2	19	37
27	25	21
49	20	13
0	37	29
20	40	3
3	16	32
25	35	10
6	15	7
31	29	32
18	2	49
40	43	41
21	23	5
4	49	44
43	22	21
7	36	6
46	1	28
11	33	13
33	28	9
39	34	35
44	47	19
9	27	16
48	42	0
12	0	29
15	21	27
37	24	49
24	3	45
27	30	43
49	13	13
13	31	31
3	25	32
25	36	10
31	26	2
40	18	41
21	16	5
43	15	27
7	29	6
46	8	28
11	38	31
33	21	9
16	43	19
36	38	38
44	38	10
9	28	16
48	33	0
34	12	37
15	18	27
37	1	49
24	10	23
27	23	21
49	6	18
13	24	49
3	30	31
25	45	18
28	14	29
31	3	3
40	25	41
21	25	5
4	39	35
43	4	32
8	34	2
7	26	15
46	19	28
29	41	28
33	46	24
16	34	18
36	45	48
22	8	5
44	29	28
9	5	16
34	7	37
15	27	27
37	10	49
24	17	17
13	17	49
0	10	48
38	27	39
3	7	43
28	5	44
31	8	11
1	45	49
40	0	41
21	34	43
4	46	44
8	41	2
7	19	6
46	26	42
29	34	28
33	39	9
16	25	19
41	39	37
22	3	21
44	20	4
9	14	16
12	45	29
34	30	26
10	23	44
49	48	18
13	10	25
0	1	29
38	18	48
3	12	32
1	38	49
40	7	41
21	43	43
4	21	5
26	38	30
7	8	15
46	29	0
41	40	40
22	26	5
44	19	19
47	6	1
12	36	14
34	25	37
24	31	45
45	44	24
10	30	25
49	41	37
13	3	31
0	24	46
38	21	39
25	0	10
28	27	44
14	34	10
40	14	41
4	28	44
26	33	30
7	1	6
46	36	0
33	49	24
16	23	9
19	2	18
41	17	34
22	29	4
44	10	10
47	15	1
12	35	14
34	16	37
17	40	30
42	48	46
45	37	49
10	25	25
49	34	37
35	19	10
0	31	48
38	12	48
25	9	19
28	18	16
14	37	10
1	48	49
4	27	5
26	40	34
46	47	42
29	13	12
16	14	19
19	11	25
41	26	34
22	20	21
5	36	22
44	1	19
9	33	33
47	20	1
34	43	37
17	33	24
37	46	49
23	15	28
45	30	30
10	0	14
35	24	10
0	22	48
38	7	6
25	18	18
14	44	10
1	9	49
39	28	35
4	2	5
29	6	0
16	5	19
19	16	16
2	40	37
41	3	37
22	47	5
5	45	25
9	42	23
47	29	45
17	26	30
42	34	24
23	4	28
45	23	24
10	11	25
13	46	25
35	1	10
25	27	5
11	24	13
1	2	49
39	21	22
4	9	44
29	31	12
19	25	25
2	35	31
41	4	37
22	38	39
5	22	22
27	41	43
47	26	1
30	38	17
17	19	24
42	45	24
23	29	28
45	16	49
32	11	31
13	39	25
35	6	4
38	49	48
25	28	10
11	17	13
1	27	49
39	18	35
26	5	30
48	26	0
29	24	28
15	37	27
19	30	18
41	13	37
5	31	32
27	46	21
47	35	1
30	41	26
17	20	24
20	7	43
42	20	24
23	26	24
45	9	24
32	2	31
13	32	31
35	15	4
18	45	49
38	40	48
11	22	31
14	1	10
36	22	38
1	28	49
39	11	35
26	12	30
48	17	0
29	17	28
15	34	27
19	39	44
22	48	39
5	24	25
27	39	21
47	40	1
30	16	45
17	13	24
20	14	3
42	31	24
23	19	9
6	41	22
45	2	49
10	36	14
32	25	5
18	36	25
38	35	39
8	18	13
11	15	3
14	8	10
36	29	48
1	21	49
39	0	38
26	23	30
48	8	14
15	43	27
19	44	44
2	12	31
24	33	33
5	1	25
47	49	1
30	27	45
17	6	24
20	21	43
42	6	46
23	40	24
6	32	22
10	47	25
32	16	5
18	31	25
40	48	41
43	45	32
8	25	13
11	4	31
14	19	10
36	4	38
26	30	30
48	15	38
12	29	29
15	48	7
2	7	31
24	40	17
5	10	25
30	2	26
20	28	3
42	1	24
23	33	9
6	27	7
28	44	44
32	23	5
31	33	13
35	34	10
18	22	25
43	34	32
8	0	13
33	8	24
14	26	10
36	3	38
26	25	30
48	6	38
12	20	14
2	30	37
24	47	45
27	10	21
49	25	18
30	5	45
0	40	29
20	27	43
3	37	31
42	8	24
6	18	22
28	43	44
32	46	5
31	46	32
35	43	4
18	17	49
21	4	5
43	27	27
8	7	11
7	49	6
33	1	24
14	29	12
36	10	48
39	47	35
12	19	14
15	6	7
37	21	2
2	25	31
27	3	43
49	18	18
30	12	17
0	47	46
20	34	3
3	42	31
6	21	22
28	34	16
32	37	31
31	23	13
18	8	25
40	37	41
21	13	5
43	16	32
8	14	13
7	46	6
11	43	3
33	26	24
36	49	48
39	36	38
44	49	19
9	17	33
12	10	14
37	30	49
2	16	37
27	24	43
49	11	13
0	38	48
20	41	3
3	19	32
25	34	18
6	12	38
31	28	32
18	3	25
40	44	41
21	22	22
43	9	32
7	39	6
46	6	0
11	32	31
33	19	9
44	40	19
9	26	33
48	43	38
12	1	14
15	20	27
37	7	2
24	4	23
27	17	43
49	12	18
13	30	49
20	48	43
3	24	31
25	43	5
6	7	7
28	48	29
31	5	32
40	19	41
21	31	43
43	14	32
7	28	6
46	9	28
29	47	28
33	20	24
16	44	19
36	39	38
44	39	10
9	3	16
48	34	14
34	13	37
15	29	7
37	0	49
24	11	45
27	22	21
49	5	18
13	23	49
3	1	31
25	44	10
28	15	44
31	2	2
1	43	49
40	26	34
21	24	5
4	32	5
43	7	27
8	35	13
7	21	15
46	16	28
29	40	28
33	45	24
16	35	19
36	46	48
22	9	4
44	30	19
9	4	16
34	4	37
15	26	27
37	9	49
24	18	45
13	16	25
0	11	48
38	24	48
3	6	32
28	6	44
31	11	11
1	44	49
40	1	34
21	33	5
4	47	44
8	42	13
7	18	6
46	27	28
29	33	28
33	38	24
16	26	18
41	38	37
22	0	39
44	21	4
9	13	16
12	46	29
34	31	37
24	25	45
10	20	25
13	9	25
0	2	48
38	19	48
3	15	43
28	29	29
1	37	49
40	8	41
21	42	5
4	22	22
26	39	30
7	11	15
46	34	28
16	17	9
41	47	34
22	27	21
5	49	25
44	12	10
47	1	1
12	37	14
34	22	37
45	43	49
10	31	25
49	40	37
13	2	31
0	25	48
38	10	48
25	7	5
28	20	44
14	35	10
40	15	41
4	29	44
26	46	30
7	0	6
46	37	28
33	48	24
16	8	19
19	5	25
41	16	37
22	18	5
44	11	10
47	14	1
34	17	26
17	47	24
37	36	49
42	49	24
45	36	24
10	6	14
49	33	45
35	18	10
0	16	29
38	13	48
25	8	13
28	19	16
14	42	48
26	41	34
46	44	28
29	12	12
16	15	19
19	10	44
2	46	37
41	25	37
22	21	21
5	35	4
44	2	10
9	32	16
47	23	45
34	40	40
17	32	24
37	45	49
23	14	28
45	29	24
10	1	25
35	27	4
0	23	29
38	4	39
25	17	18
14	45	10
1	8	49
39	31	22
4	3	5
26	48	30
29	5	28
16	6	19
2	41	37
41	2	37
22	44	4
5	44	4
9	41	16
47	28	45
34	35	37
17	25	24
42	35	46
23	7	28
45	22	49
10	8	25
13	45	49
35	0	10
25	26	18
11	27	3
39	20	22
4	10	35
29	30	28
19	24	16
2	32	31
41	11	37
22	39	39
5	21	21
27	40	43
47	37	1
30	39	45
17	18	24
23	28	28
45	15	49
32	12	5
13	38	25
35	9	10
11	16	13
1	26	34
39	13	35
26	2	34
48	27	38
29	23	28
15	36	7
19	33	16
41	12	37
5	30	25
27	33	21
47	34	1
30	46	17
17	11	24
20	0	43
42	21	46
23	21	28
45	8	49
32	3	3
35	14	10
18	42	16
38	41	48
11	9	13
14	6	48
36	23	48
1	19	49
39	10	35
26	13	30
48	18	14
29	16	28
15	45	27
19	38	44
22	49	5
5	7	22
27	38	15
47	43	1
30	17	17
17	12	24
20	15	43
3	49	31
42	28	46
23	18	9
6	46	38
45	1	49
10	37	25
32	26	31
18	37	49
38	32	39
8	19	13
11	14	13
14	9	12
36	30	48
1	20	49
39	3	22
26	20	34
48	9	0
15	42	7
19	47	18
2	13	31
24	34	17
5	0	25
47	48	45
30	24	17
17	5	24
20	22	43
42	7	46
23	43	28
6	33	38
10	44	44
32	17	31
18	28	16
40	49	41
43	44	32
8	26	2
11	7	3
14	16	12
36	5	38
26	31	34
48	0	0
12	30	29
2	4	31
24	41	45
5	9	25
30	3	45
20	29	3
42	14	46
23	32	28
6	24	38
28	45	23
32	40	31
31	32	32
35	37	10
18	23	16
43	37	32
8	1	13
33	15	9
14	27	10
36	12	48
39	49	35
48	7	38
12	21	14
2	31	31
24	48	42
27	13	43
49	24	45
30	10	45
0	41	29
20	36	43
3	36	32
42	9	23
6	19	22
28	36	29
32	47	31
31	41	2
35	42	10
18	14	25
21	3	43
43	26	32
7	48	6
33	0	24
36	11	48
39	46	38
15	1	27
37	20	2
2	22	31
27	2	43
49	17	45
30	13	45
0	32	48
20	35	3
3	45	31
6	10	38
28	35	44
32	38	5
31	22	32
18	9	16
40	38	41
21	12	5
43	19	32
8	15	11
7	41	15
11	42	13
33	25	9
9	16	16
12	11	14
15	14	7
37	29	49
2	17	37
49	10	18
0	39	48
20	42	3
3	18	32
25	33	19
6	13	22
18	0	16
40	45	41
43	8	3
7	38	6
46	7	0
11	35	13
33	18	9
44	41	19
9	25	16
48	44	14
12	2	14
15	23	7
37	6	2
24	5	23
27	16	21
49	3	13
13	29	25
20	49	3
3	27	43
25	42	10
6	4	22
28	49	16
31	4	32
40	20	41
21	30	5
43	1	32
7	31	15
46	14	0
29	46	0
33	43	9
16	45	18
36	32	38
44	32	4
9	2	16
48	35	14
34	10	37
15	28	7
37	15	2
24	12	23
49	4	18
13	22	25
3	0	32
28	8	16
31	13	13
1	42	49
40	27	41
21	39	22
4	33	44
43	6	21
8	36	13
7	20	15
46	17	42
29	39	0
33	44	9
16	36	28
36	47	48
22	14	4
44	31	10
9	11	16
12	48	14
34	5	37
37	8	2
24	19	33
13	15	31
0	12	29
38	25	48
3	9	32
28	7	44
31	10	13
1	35	49
40	2	41
21	32	43
4	40	44
8	43	11
7	13	6
46	24	42
29	32	28
33	37	24
16	27	19
41	37	37
22	1	5
44	22	4
9	12	16
12	47	29
34	28	37
37	49	49
24	26	17
45	49	49
10	21	25
13	8	8
0	3	48
38	16	48
3	14	32
28	30	23
1	36	49
40	9	41
21	41	43
4	23	44
26	36	30
7	10	6
46	35	28
16	18	18
41	46	37
22	24	4
5	48	25
44	13	10
47	0	45
12	38	14
34	23	37
45	42	24
10	28	44
49	47	1
13	1	49
0	26	46
38	11	48
25	6	5
28	21	44
14	32	10
4	30	44
26	47	30
7	3	15
46	42	42
16	9	9
19	4	44
41	23	37
22	19	4
44	4	4
47	9	45
34	46	37
17	46	24
37	35	49
45	35	49
10	7	14
49	32	13
35	21	4
0	17	46
38	2	39
25	15	5
14	43	10
4	5	5
46	45	42
29	11	12
16	0	28
19	13	25
2	47	37
41	24	37
22	42	4
5	34	32
44	3	4
9	39	16
47	22	1
34	41	41
17	39	24
37	44	49
23	9	9
45	28	24
10	14	14
35	26	10
38	5	39
25	16	19
1	15	49
39	30	35
4	12	35
26	49	30
29	4	28
16	7	19
19	18	18
2	38	31
41	1	34
22	45	5
5	43	32
9	40	16
47	31	1
34	32	37
17	24	24
42	32	24
23	6	28
45	21	49
10	9	44
13	44	25
35	3	4
11	26	31
1	0	49
39	23	35
4	11	5
19	27	25
2	33	37
41	10	37
22	36	39
5	20	32
27	43	43
47	36	45
30	36	17
42	43	24
23	31	24
45	14	49
10	48	14
32	13	31
13	37	49
35	8	10
18	48	25
11	19	13
1	25	49
39	12	35
26	3	34
48	28	0
29	22	28
15	39	7
19	32	25
5	29	4
27	32	43
47	45	45
30	47	45
17	10	24
20	1	3
42	18	24
23	20	28
45	7	49
32	4	5
35	49	10
18	43	25
38	46	48
43	49	32
11	8	8
14	7	48
36	16	48
1	18	49
39	5	22
26	10	30
48	19	14
15	44	7
19	41	18
5	6	22
47	42	45
30	22	45
17	3	24
20	8	3
3	48	32
42	29	46
23	45	24
6	47	22
45	0	24
10	34	25
32	27	43
18	34	49
38	33	48
8	20	11
11	1	13
36	31	48
39	2	22
26	21	30
48	10	14
19	46	16
2	10	31
24	35	23
5	15	21
30	25	45
17	4	24
20	23	3
42	4	46
23	42	42
6	38	38
10	45	25
32	18	5
18	29	16
43	47	32
8	27	11
11	6	31
14	17	12
36	6	38
26	28	30
48	1	14
12	31	14
2	5	31
24	42	42
5	8	25
30	0	17
20	30	3
42	15	46
23	35	28
6	25	22
28	46	46
32	41	31
31	35	32
35	36	39
18	20	25
43	36	21
8	2	2
33	14	9
14	24	12
36	13	48
39	48	38
12	22	14
2	28	37
24	49	45
27	12	21
49	31	13
30	11	45
0	42	46
20	37	3
3	39	32
6	16	22
28	37	16
31	40	2
35	45	10
18	15	25
40	32	41
21	2	43
43	29	32
8	9	13
33	7	9
39	41	35
12	13	14
15	0	7
37	19	49
2	23	37
27	5	21
49	16	18
0	33	46
20	44	3
3	44	32
23	49	24
6	11	22
32	39	5
31	17	13
18	6	25
40	39	41
21	11	43
43	18	32
8	48	13
7	40	15
11	45	13
33	24	24
16	48	28
39	38	38
9	23	23
12	4	14
15	9	27
37	28	49
27	26	43
49	9	18
20	43	43
3	21	43
25	32	5
6	2	22
31	30	13
18	1	49
40	46	41
21	20	43
43	11	3
7	33	6
46	4	28
11	34	31
33	17	24
41	49	37
44	42	28
9	24	33
48	45	0
12	3	14
15	22	7
37	5	2
24	6	42
27	19	21
49	2	37
13	28	25
3	26	31
25	41	18
6	5	22
31	7	32
40	21	41
21	29	5
43	0	21
7	30	6
46	15	0
29	45	28
33	42	24
16	46	28
36	33	48
44	33	19
9	1	16
48	36	36
34	11	37
15	31	27
37	14	49
24	13	45
13	21	25
28	9	16
31	12	13
1	41	34
40	28	41
21	38	22
4	34	44
8	37	2
7	23	6
46	22	28
29	38	0
33	35	9
16	37	18
36	40	48
41	35	37
22	15	21
44	24	28
9	10	16
12	49	14
34	2	37
24	20	45
13	14	25
0	13	48
38	30	48
3	8	11
28	0	29
1	34	34
40	3	41
21	47	5
4	41	44
8	44	13
7	12	6
46	25	28
33	36	24
16	28	28
41	36	37
22	6	6
44	23	28
12	40	14
34	29	37
37	48	49
24	27	23
45	48	24
10	18	25
13	7	25
0	4	29
38	17	48
28	31	16
40	10	41
21	40	43
4	16	44
26	37	34
7	5	6
46	32	28
16	19	19
41	45	37
22	25	5
44	14	10
47	3	1
12	39	14
34	20	37
45	41	49
10	29	14
49	46	18
13	0	25
0	27	48
38	8	48
25	5	5
28	22	44
14	33	12
21	49	5
4	31	5
26	44	30
7	2	15
46	43	28
29	49	28
16	10	19
19	7	44
41	22	37
22	16	4
44	5	4
47	8	1
30	48	17
34	47	1
17	45	24
37	34	34
45	34	30
10	4	35
49	39	18
35	20	4
0	18	29
38	3	39
25	14	10
14	40	10
4	6	22
29	10	12
16	1	18
19	12	16
2	44	37
41	31	37
22	43	21
5	33	25
9	38	16
47	17	45
34	38	37
17	38	24
37	43	2
42	38	46
23	8	24
45	27	49
10	15	25
35	29	10
25	23	10
1	14	49
39	25	35
4	13	5
29	3	28
19	21	25
2	39	31
41	0	37
22	34	5
5	42	4
9	47	33
47	30	45
30	34	26
34	33	37
17	31	24
42	33	24
23	1	24
45	20	49
13	43	31
35	2	10
25	24	18
11	29	13
1	7	49
39	22	22
29	28	28
19	26	18
41	9	37
22	37	5
5	19	25
27	42	21
47	39	1
30	37	26
17	16	24
42	40	24
23	30	24
45	13	49
10	49	25
32	14	5
13	36	25
35	11	10
18	49	49
11	18	13
1	24	49
39	15	38
26	0	30
48	29	0
29	21	28
15	38	7
19	35	44
5	28	4
27	35	21
47	44	1
30	44	17
17	9	24
20	2	3
42	19	46
45	6	49
32	5	5
35	48	10
18	40	49
38	47	48
43	48	21
14	4	10
36	17	48
1	17	49
39	4	35
26	11	30
48	20	38
15	47	27
19	40	18
2	48	31
30	23	17
17	2	24
20	9	3
42	26	24
23	44	28
6	44	22
10	35	35
32	28	5
18	35	25
43	41	32
8	21	11
11	0	13
14	15	48
36	24	48
26	18	30
48	11	14
19	49	18
2	11	31
24	36	42
5	14	25
27	49	43
20	16	3
42	5	46
23	37	24
6	39	38
10	42	44
32	19	5
31	37	2
18	26	49
43	46	32
8	28	13
14	22	10
36	7	38
26	29	30
48	2	14
12	24	29
24	43	45
30	1	26
20	31	3
3	33	31
42	12	46
23	34	24
6	30	22
28	47	23
32	42	31
31	34	2
35	39	39
18	21	25
43	39	21
8	3	11
33	13	24
14	25	10
36	14	48
12	23	29
2	29	37
27	15	15
49	30	45
30	8	45
0	43	48
20	38	43
3	38	32
6	17	38
28	38	29
32	33	31
31	43	32
35	44	10
18	12	16
40	33	41
21	1	5
43	28	32
8	10	13
33	6	9
39	40	35
12	14	14
15	3	27
37	18	49
2	20	31
27	4	21
49	23	45
0	34	29
20	45	3
3	47	31
23	48	28
6	8	22
31	16	13
18	7	25
21	10	5
43	21	21
8	49	13
7	43	15
46	2	28
11	44	13
33	31	24
16	49	18
39	33	35
9	22	16
12	5	14
15	8	27
37	27	2
24	0	42
27	29	21
49	8	13
3	20	20
25	39	10
6	3	22
31	25	13
40	47	34
21	19	5
43	10	32
7	32	15
46	5	28
11	37	31
33	16	9
16	40	18
41	48	37
44	43	4
9	31	16
48	46	0
15	17	7
37	4	2
24	7	42
27	18	21
49	1	1
13	27	31
0	48	48
3	29	32
25	40	18
