65

29
27	29
27	29	58
12	27	29	58
12	27	29	54	58
12	27	29	44	54	58
12	27	29	32	44	54	58
9	12	27	29	44	54	58	62
12	23	24	27	29	32	44	54	58
9	12	13	23	24	27	29	44	54	58
12	13	15	23	24	27	29	32	44	54	58
9	12	23	27	29	30	44	45	48	54	58	62
9	12	13	23	24	27	29	30	34	44	45	54	58
9	12	13	15	16	23	24	27	29	32	38	44	54	58
9	12	13	16	23	24	27	29	32	34	38	44	48	54	58
9	12	13	15	16	23	24	27	29	34	38	44	48	54	58	62
9	12	16	21	23	24	27	29	30	32	34	39	44	45	48	54	58
1	12	13	16	21	23	24	27	29	30	32	34	39	44	45	48	54	58
1	12	16	21	23	24	27	29	30	32	34	39	40	41	44	45	48	54	58
1	12	13	16	23	24	27	29	30	32	34	39	40	44	45	48	54	58	59	63
0	9	12	15	16	21	23	24	27	29	30	32	34	39	40	44	45	48	54	58	59
1	8	9	12	13	15	16	23	24	27	29	30	34	40	44	45	48	52	54	58	59	62
1	12	13	15	16	19	21	23	24	27	29	30	32	34	42	44	45	46	48	54	58	59	63
1	8	9	12	13	16	17	21	23	24	27	29	30	34	35	37	39	42	44	45	48	54	58	62
1	12	13	15	16	19	21	23	24	27	29	30	32	34	39	42	43	44	45	46	48	54	58	59	63
0	1	9	12	15	16	19	20	21	23	24	27	29	30	32	34	35	39	40	43	44	45	48	54	58	63
0	4	8	9	12	15	16	21	23	27	29	30	34	35	37	39	43	44	45	48	54	57	58	59	60	62	63
1	8	9	12	13	15	16	21	23	24	27	29	30	34	35	37	39	42	43	44	45	48	54	57	58	59	62	63
0	1	4	8	9	12	15	16	21	23	27	29	30	34	35	37	39	40	43	44	45	48	54	57	58	59	60	62	63
0	4	8	9	12	15	16	21	23	27	29	30	34	35	37	39	40	43	44	45	48	53	54	57	58	59	60	62	63	64
0	1	4	8	9	12	15	16	21	23	27	29	30	34	35	36	37	39	40	43	44	45	48	54	57	58	59	60	62	63	64
1	4	8	9	12	14	15	16	21	23	27	29	30	34	35	36	37	39	40	42	43	44	45	46	48	54	57	58	59	60	62	63
2	4	8	9	12	15	16	21	23	25	27	29	30	34	35	37	38	39	40	42	43	44	45	46	48	53	54	57	58	59	60	62	63
1	2	4	6	8	9	12	13	15	16	23	25	27	29	30	34	36	37	40	41	42	43	44	45	48	49	52	54	57	58	59	60	62	63
1	2	4	12	13	15	16	19	20	21	22	23	24	25	27	29	30	32	34	35	39	41	42	43	44	45	46	47	48	53	54	58	59	62	63
1	6	8	9	10	12	13	14	15	16	17	23	24	27	29	30	33	34	36	37	40	42	44	45	46	47	48	49	50	51	52	55	57	58	59	62
5	9	12	13	14	15	16	19	20	21	24	25	27	28	29	30	32	34	35	38	39	40	41	42	43	44	45	47	48	50	51	53	54	58	59	62	63
0	1	3	12	14	15	16	17	19	20	21	23	24	25	26	27	29	30	32	33	34	35	36	39	40	41	44	45	46	47	49	50	51	55	56	59	62	64
0	1	2	3	6	11	12	14	15	16	17	19	20	21	23	24	27	29	30	32	33	34	35	36	38	40	41	44	46	48	49	50	51	55	56	59	60	62	64
0	1	2	3	4	6	8	12	14	15	16	17	21	23	27	28	29	30	32	33	34	35	36	37	38	40	41	44	46	48	49	50	51	55	56	57	59	60	62	64
0	1	2	3	4	6	8	12	13	14	15	16	17	23	27	28	29	30	32	33	34	35	36	37	40	41	44	45	46	48	49	51	52	54	55	56	57	59	60	62	64
0	1	2	3	4	5	6	7	12	15	17	18	19	20	21	23	24	25	26	27	28	29	30	32	33	34	35	36	40	41	45	46	48	49	51	54	55	56	58	59	60	64
0	1	2	3	4	5	6	7	12	13	15	17	18	19	20	23	24	25	26	27	29	31	32	33	34	35	36	38	40	41	45	46	48	49	51	52	54	55	56	58	59	60	64
0	1	2	3	4	5	6	7	12	13	14	15	17	18	19	20	21	23	24	26	27	28	29	31	32	33	34	35	36	38	40	41	42	45	46	48	49	51	54	55	56	58	59	60
0	1	2	3	4	5	6	7	11	12	13	15	17	18	19	20	23	24	25	26	27	28	29	31	32	33	34	35	36	38	40	41	42	45	46	48	49	51	52	54	55	56	58	59	60
0	1	2	3	4	5	6	7	11	12	13	15	17	18	19	20	23	24	25	26	27	28	29	30	31	32	33	34	35	36	40	41	42	45	46	48	49	51	52	54	55	56	58	59	60	64
0	1	2	3	4	5	6	7	11	12	13	14	15	17	18	19	20	21	23	24	26	27	28	29	30	31	32	33	34	35	36	40	41	42	45	46	48	49	51	53	54	55	56	58	59	60	61
0	1	2	3	4	5	6	7	8	9	11	12	13	14	15	16	17	19	20	21	22	23	24	27	29	30	32	34	35	38	39	42	43	44	45	46	47	48	50	51	52	53	54	58	59	62	63	64
0	1	2	3	4	5	6	7	8	9	11	12	13	14	15	16	17	19	20	21	22	23	24	27	29	30	32	34	35	38	39	42	43	44	45	46	47	48	50	51	52	53	54	56	58	59	62	63	64
0	1	2	3	4	5	6	7	8	9	11	12	13	14	15	16	17	19	20	21	22	23	24	27	29	30	32	34	35	38	39	42	43	44	45	46	47	48	50	51	52	53	54	55	56	58	59	62	63	64
0	1	2	3	4	5	6	7	8	9	11	12	13	14	15	16	17	19	20	21	22	23	24	27	29	30	32	34	35	36	38	39	42	43	44	45	46	47	48	50	51	52	53	54	55	56	58	59	62	63	64
0	1	2	3	4	5	6	7	8	9	11	12	13	14	15	16	17	19	20	21	22	23	24	27	29	30	32	34	35	36	38	39	42	43	44	45	46	47	48	49	50	51	52	53	54	55	56	58	59	62	63	64
0	1	2	3	4	5	6	7	8	9	11	12	13	14	15	16	17	19	20	21	22	23	24	27	29	30	32	33	34	35	36	38	39	42	43	44	45	46	47	48	49	50	51	52	53	54	55	56	58	59	62	63	64
0	1	2	3	4	5	6	7	8	9	11	12	13	14	15	16	17	19	20	21	22	23	24	27	28	29	30	32	33	34	35	36	38	39	42	43	44	45	46	47	48	49	50	51	52	53	54	55	56	58	59	62	63	64
0	1	2	3	4	5	6	7	8	9	11	12	13	14	15	16	17	19	20	21	22	23	24	27	28	29	30	31	32	33	34	35	36	38	39	42	43	44	45	46	47	48	49	50	51	52	53	54	55	56	58	59	62	63	64
0	1	2	3	4	5	6	7	8	9	11	12	13	14	15	16	17	19	20	21	22	23	24	27	28	29	30	31	32	33	34	35	36	38	39	42	43	44	45	46	47	48	49	50	51	52	53	54	55	56	58	59	60	62	63	64
0	1	2	3	4	5	6	7	8	9	11	12	13	14	15	16	17	19	20	21	22	23	24	27	28	29	30	31	32	33	34	35	36	38	39	42	43	44	45	46	47	48	49	50	51	52	53	54	55	56	57	58	59	60	62	63	64
0	1	2	3	4	5	6	7	8	9	11	12	13	14	15	16	17	19	20	21	22	23	24	27	28	29	30	31	32	33	34	35	36	37	38	39	42	43	44	45	46	47	48	49	50	51	52	53	54	55	56	57	58	59	60	62	63	64
0	1	2	3	4	5	6	7	8	9	11	12	13	14	15	16	17	18	19	20	21	22	23	24	27	28	29	30	31	32	33	34	35	36	37	38	39	42	43	44	45	46	47	48	49	50	51	52	53	54	55	56	57	58	59	60	62	63	64
0	1	2	3	4	5	6	7	8	9	11	12	13	14	15	16	17	18	19	20	21	22	23	24	26	27	28	29	30	31	32	33	34	35	36	37	38	39	42	43	44	45	46	47	48	49	50	51	52	53	54	55	56	57	58	59	60	62	63	64
0	1	2	3	4	5	6	7	8	9	10	11	12	13	14	15	16	17	18	19	20	21	22	23	24	25	26	27	28	29	30	31	32	33	34	35	37	38	39	40	41	42	43	44	45	46	47	48	50	51	52	53	54	57	58	59	60	61	62	63	64
0	1	2	3	4	5	6	7	8	9	10	11	12	13	14	15	16	17	18	19	20	21	22	23	24	25	26	27	28	29	30	31	32	33	34	35	37	38	39	40	41	42	43	44	45	46	47	48	49	50	51	52	53	54	57	58	59	60	61	62	63	64
0	1	2	3	4	5	6	7	8	9	10	11	12	13	14	15	16	17	18	19	20	21	22	23	24	25	26	27	28	29	30	31	32	33	34	35	36	37	38	39	40	41	42	43	44	45	46	47	48	49	50	51	52	53	54	57	58	59	60	61	62	63	64
0	1	2	3	4	5	6	7	8	9	10	11	12	13	14	15	16	17	18	19	20	21	22	23	24	25	26	27	28	29	30	31	32	33	34	35	36	37	38	39	40	41	42	43	44	45	46	47	48	49	50	51	52	53	54	55	57	58	59	60	61	62	63	64
0	1	2	3	4	5	6	7	8	9	10	11	12	13	14	15	16	17	18	19	20	21	22	23	24	25	26	27	28	29	30	31	32	33	34	35	36	37	38	39	40	41	42	43	44	45	46	47	48	49	50	51	52	53	54	55	56	57	58	59	60	61	62	63	64
