0	1	1.0
0	2	1.0
0	3	1.0
0	4	1.0
0	5	1.0
0	6	1.0
0	7	1.0
0	8	1.0
0	9	1.0
0	10	1.0
0	11	1.0
0	12	1.0
0	13	1.0
0	14	1.0
0	15	1.0
0	16	1.0
0	17	1.0
0	18	1.0
0	19	1.0
0	20	1.0
0	21	1.0
0	22	1.0
0	23	1.0
0	24	1.0
0	25	1.0
0	26	1.0
0	27	1.0
0	28	1.0
0	29	1.0
0	30	1.0
0	31	1.0
0	32	1.0
0	33	1.0
0	34	1.0
0	35	1.0
0	36	1.0
0	37	1.0
0	38	1.0
0	39	1.0
0	40	1.0
0	41	1.0
0	42	1.0
0	43	1.0
0	44	1.0
0	45	1.0
0	46	1.0
0	47	1.0
0	48	1.0
0	49	1.0
0	50	1.0
0	51	1.0
0	52	1.0
0	53	1.0
0	54	1.0
0	55	1.0
0	56	1.0
0	57	1.0
0	58	1.0
0	59	1.0
0	60	1.0
0	61	1.0
0	62	1.0
0	63	1.0
0	64	1.0
1	0	1.0
1	2	1.0
1	3	1.0
1	4	1.0
1	5	1.0
1	6	1.0
1	7	1.0
1	8	1.0
1	9	1.0
1	10	1.0
1	11	1.0
1	12	1.0
1	13	1.0
1	14	1.0
1	15	1.0
1	16	1.0
1	17	1.0
1	18	1.0
1	19	1.0
1	20	1.0
1	21	1.0
1	22	1.0
1	23	1.0
1	24	1.0
1	25	1.0
1	26	1.0
1	27	1.0
1	28	1.0
1	29	1.0
1	30	1.0
1	31	1.0
1	32	1.0
1	33	1.0
1	34	1.0
1	35	1.0
1	36	1.0
1	37	1.0
1	38	1.0
1	39	1.0
1	40	1.0
1	41	1.0
1	42	1.0
1	43	1.0
1	44	1.0
1	45	1.0
1	46	1.0
1	47	1.0
1	48	1.0
1	49	1.0
1	50	1.0
1	51	1.0
1	52	1.0
1	53	1.0
1	54	1.0
1	55	1.0
1	56	1.0
1	57	1.0
1	58	1.0
1	59	1.0
1	60	1.0
1	61	1.0
1	62	1.0
1	63	1.0
1	64	1.0
2	0	1.0
2	1	1.0
2	3	1.0
2	4	1.0
2	5	1.0
2	6	1.0
2	7	1.0
2	8	1.0
2	9	1.0
2	10	1.0
2	11	1.0
2	12	1.0
2	13	1.0
2	14	1.0
2	15	1.0
2	16	1.0
2	17	1.0
2	18	1.0
2	19	1.0
2	20	1.0
2	21	1.0
2	22	1.0
2	23	1.0
2	24	1.0
2	25	1.0
2	26	1.0
2	27	1.0
2	28	1.0
2	29	1.0
2	30	1.0
2	31	1.0
2	32	1.0
2	33	1.0
2	34	1.0
2	35	1.0
2	36	1.0
2	37	1.0
2	38	1.0
2	39	1.0
2	40	1.0
2	41	1.0
2	42	1.0
2	43	1.0
2	44	1.0
2	45	1.0
2	46	1.0
2	47	1.0
2	48	1.0
2	49	1.0
2	50	1.0
2	51	1.0
2	52	1.0
2	53	1.0
2	54	1.0
2	55	1.0
2	56	1.0
2	57	1.0
2	58	1.0
2	59	1.0
2	60	1.0
2	61	1.0
2	62	1.0
2	63	1.0
2	64	1.0
3	0	1.0
3	1	1.0
3	2	1.0
3	4	240.0
3	5	720.0
3	6	1.0
3	7	880.0
3	8	1.0
3	9	1520.0
3	10	80.0
3	11	1.0
3	12	880.0
3	13	320.0
3	14	3680.0
3	15	480.0
3	16	720.0
3	17	1.0
3	18	1200.0
3	19	1.0
3	20	1.0
3	21	1.0
3	22	1.0
3	23	1200.0
3	24	320.0
3	25	1.0
3	26	1360.0
3	27	83369.0
3	28	240.0
3	29	9441.0
3	30	880.0
3	31	320.0
3	32	880.0
3	33	1.0
3	34	1200.0
3	35	1.0
3	36	1.0
3	37	80.0
3	38	240.0
3	39	1120.0
3	40	320.0
3	41	720.0
3	42	1.0
3	43	1.0
3	44	2640.0
3	45	1040.0
3	46	1280.0
3	47	400.0
3	48	3823.0
3	49	1.0
3	50	560.0
3	51	80.0
3	52	1.0
3	53	1.0
3	54	1600.0
3	55	1.0
3	56	1.0
3	57	1.0
3	58	26760.0
3	59	1.0
3	60	480.0
3	61	1.0
3	62	3823.0
3	63	1.0
3	64	560.0
4	0	1.0
4	1	1.0
4	2	1.0
4	3	240.0
4	5	640.0
4	6	1.0
4	7	1200.0
4	8	1.0
4	9	1920.0
4	10	1.0
4	11	1.0
4	12	1440.0
4	13	480.0
4	14	1920.0
4	15	400.0
4	16	640.0
4	17	1.0
4	18	480.0
4	19	1.0
4	20	1.0
4	21	1.0
4	22	240.0
4	23	3040.0
4	24	3905.0
4	25	1.0
4	26	1040.0
4	27	11889.0
4	28	240.0
4	29	73147.0
4	30	1680.0
4	31	480.0
4	32	1600.0
4	33	1.0
4	34	1440.0
4	35	1.0
4	36	1.0
4	37	320.0
4	38	480.0
4	39	1440.0
4	40	240.0
4	41	800.0
4	42	1.0
4	43	1.0
4	44	1600.0
4	45	1200.0
4	46	1120.0
4	47	800.0
4	48	320.0
4	49	1.0
4	50	1760.0
4	51	320.0
4	52	1.0
4	53	1.0
4	54	15292.0
4	55	160.0
4	56	1.0
4	57	1.0
4	58	2720.0
4	59	1.0
4	60	800.0
4	61	1.0
4	62	3823.0
4	63	1.0
4	64	1120.0
5	0	1.0
5	1	1.0
5	2	1.0
5	3	720.0
5	4	640.0
5	6	1.0
5	7	1440.0
5	8	1.0
5	9	3823.0
5	10	80.0
5	11	1.0
5	12	2240.0
5	13	1200.0
5	14	3840.0
5	15	480.0
5	16	3823.0
5	17	1.0
5	18	3120.0
5	19	1.0
5	20	1.0
5	21	1.0
5	22	80.0
5	23	3120.0
5	24	480.0
5	25	1.0
5	26	2880.0
5	27	15798.0
5	28	320.0
5	29	109654.0
5	30	3360.0
5	31	640.0
5	32	3120.0
5	33	1.0
5	34	1200.0
5	35	1.0
5	36	320.0
5	37	1.0
5	38	1360.0
5	39	3200.0
5	40	800.0
5	41	3200.0
5	42	1.0
5	43	1.0
5	44	5200.0
5	45	2960.0
5	46	3920.0
5	47	400.0
5	48	800.0
5	49	1.0
5	50	1520.0
5	51	240.0
5	52	1.0
5	53	1.0
5	54	3440.0
5	55	1.0
5	56	1.0
5	57	1.0
5	58	5120.0
5	59	1.0
5	60	1040.0
5	61	1.0
5	62	24854.0
5	63	1.0
5	64	2240.0
6	0	1.0
6	1	1.0
6	2	1.0
6	3	1.0
6	4	1.0
6	5	1.0
6	7	1.0
6	8	1.0
6	9	1.0
6	10	1.0
6	11	1.0
6	12	1.0
6	13	1.0
6	14	1.0
6	15	1.0
6	16	1.0
6	17	1.0
6	18	1.0
6	19	1.0
6	20	1.0
6	21	1.0
6	22	1.0
6	23	1.0
6	24	1.0
6	25	1.0
6	26	1.0
6	27	1.0
6	28	1.0
6	29	1.0
6	30	1.0
6	31	1.0
6	32	1.0
6	33	1.0
6	34	1.0
6	35	1.0
6	36	1.0
6	37	1.0
6	38	1.0
6	39	1.0
6	40	1.0
6	41	1.0
6	42	1.0
6	43	1.0
6	44	1.0
6	45	1.0
6	46	1.0
6	47	1.0
6	48	1.0
6	49	1.0
6	50	1.0
6	51	1.0
6	52	1.0
6	53	1.0
6	54	1.0
6	55	1.0
6	56	1.0
6	57	1.0
6	58	1.0
6	59	1.0
6	60	1.0
6	61	1.0
6	62	1.0
6	63	1.0
6	64	1.0
7	0	1.0
7	1	1.0
7	2	1.0
7	3	880.0
7	4	1200.0
7	5	1440.0
7	6	1.0
7	8	1.0
7	9	4000.0
7	10	4720.0
7	11	1.0
7	12	2720.0
7	13	880.0
7	14	4320.0
7	15	640.0
7	16	2800.0
7	17	1.0
7	18	4000.0
7	19	1.0
7	20	1.0
7	21	1.0
7	22	640.0
7	23	2880.0
7	24	800.0
7	25	1.0
7	26	2320.0
7	27	57264.0
7	28	320.0
7	29	30583.0
7	30	4160.0
7	31	1760.0
7	32	2960.0
7	33	1.0
7	34	68811.0
7	35	1.0
7	36	1.0
7	37	240.0
7	38	1040.0
7	39	3280.0
7	40	960.0
7	41	4000.0
7	42	1.0
7	43	1.0
7	44	108454.0
7	45	3760.0
7	46	3823.0
7	47	160.0
7	48	1040.0
7	49	1.0
7	50	1360.0
7	51	240.0
7	52	1.0
7	53	1.0
7	54	4080.0
7	55	80.0
7	56	1.0
7	57	1.0
7	58	3823.0
7	59	1.0
7	60	800.0
7	61	1.0
7	62	5520.0
7	63	1.0
7	64	2240.0
8	0	1.0
8	1	1.0
8	2	1.0
8	3	1.0
8	4	1.0
8	5	1.0
8	6	1.0
8	7	1.0
8	9	1.0
8	10	1.0
8	11	1.0
8	12	1.0
8	13	1.0
8	14	1.0
8	15	1.0
8	16	1.0
8	17	1.0
8	18	1.0
8	19	1.0
8	20	1.0
8	21	1.0
8	22	1.0
8	23	1.0
8	24	1.0
8	25	1.0
8	26	1.0
8	27	1.0
8	28	1.0
8	29	1.0
8	30	1.0
8	31	1.0
8	32	1.0
8	33	1.0
8	34	1.0
8	35	1.0
8	36	1.0
8	37	1.0
8	38	1.0
8	39	1.0
8	40	1.0
8	41	1.0
8	42	1.0
8	43	1.0
8	44	1.0
8	45	1.0
8	46	1.0
8	47	1.0
8	48	1.0
8	49	1.0
8	50	1.0
8	51	1.0
8	52	1.0
8	53	1.0
8	54	1.0
8	55	1.0
8	56	1.0
8	57	1.0
8	58	1.0
8	59	1.0
8	60	1.0
8	61	1.0
8	62	1.0
8	63	1.0
8	64	1.0
9	0	1.0
9	1	1.0
9	2	1.0
9	3	1520.0
9	4	1920.0
9	5	3823.0
9	6	1.0
9	7	4000.0
9	8	1.0
9	10	320.0
9	11	1.0
9	12	7280.0
9	13	4880.0
9	14	7680.0
9	15	2400.0
9	16	3823.0
9	17	1.0
9	18	6800.0
9	19	1.0
9	20	1.0
9	21	1.0
9	22	1120.0
9	23	6000.0
9	24	1280.0
9	25	1.0
9	26	4800.0
9	27	341480.0
9	28	1280.0
9	29	43787.0
9	30	24735.0
9	31	3200.0
9	32	6880.0
9	33	1.0
9	34	4000.0
9	35	1.0
9	36	880.0
9	37	800.0
9	38	3823.0
9	39	7280.0
9	40	1920.0
9	41	16074.0
9	42	1.0
9	43	1.0
9	44	3823.0
9	45	15292.0
9	46	15760.0
9	47	1040.0
9	48	1360.0
9	49	1.0
9	50	2480.0
9	51	800.0
9	52	1.0
9	53	1.0
9	54	8400.0
9	55	480.0
9	56	1.0
9	57	1.0
9	58	11200.0
9	59	1.0
9	60	1520.0
9	61	1.0
9	62	53163.0
9	63	1.0
9	64	12640.0
10	0	1.0
10	1	1.0
10	2	1.0
10	3	80.0
10	4	1.0
10	5	80.0
10	6	1.0
10	7	4720.0
10	8	1.0
10	9	320.0
10	11	1.0
10	12	160.0
10	13	80.0
10	14	160.0
10	15	1.0
10	16	160.0
10	17	1.0
10	18	240.0
10	19	1.0
10	20	1.0
10	21	1.0
10	22	1.0
10	23	240.0
10	24	80.0
10	25	1.0
10	26	80.0
10	27	23280.0
10	28	1.0
10	29	3227.0
10	30	320.0
10	31	1.0
10	32	240.0
10	33	1.0
10	34	4160.0
10	35	1.0
10	36	1.0
10	37	1.0
10	38	1.0
10	39	240.0
10	40	80.0
10	41	80.0
10	42	1.0
10	43	1.0
10	44	4267.0
10	45	1.0
10	46	160.0
10	47	1.0
10	48	160.0
10	49	1.0
10	50	1.0
10	51	1.0
10	52	1.0
10	53	1.0
10	54	240.0
10	55	1.0
10	56	1.0
10	57	1.0
10	58	640.0
10	59	1.0
10	60	1.0
10	61	1.0
10	62	320.0
10	63	1.0
10	64	1.0
11	0	1.0
11	1	1.0
11	2	1.0
11	3	1.0
11	4	1.0
11	5	1.0
11	6	1.0
11	7	1.0
11	8	1.0
11	9	1.0
11	10	1.0
11	12	1.0
11	13	1.0
11	14	1.0
11	15	1.0
11	16	1.0
11	17	1.0
11	18	1.0
11	19	1.0
11	20	1.0
11	21	1.0
11	22	1.0
11	23	1.0
11	24	1.0
11	25	1.0
11	26	1.0
11	27	1.0
11	28	1.0
11	29	1.0
11	30	1.0
11	31	1.0
11	32	1.0
11	33	1.0
11	34	1.0
11	35	1.0
11	36	1.0
11	37	1.0
11	38	1.0
11	39	1.0
11	40	1.0
11	41	1.0
11	42	1.0
11	43	1.0
11	44	1.0
11	45	1.0
11	46	1.0
11	47	1.0
11	48	1.0
11	49	1.0
11	50	1.0
11	51	1.0
11	52	1.0
11	53	1.0
11	54	1.0
11	55	1.0
11	56	1.0
11	57	1.0
11	58	1.0
11	59	1.0
11	60	1.0
11	61	1.0
11	62	1.0
11	63	1.0
11	64	1.0
12	0	1.0
12	1	1.0
12	2	1.0
12	3	880.0
12	4	1440.0
12	5	2240.0
12	6	1.0
12	7	2720.0
12	8	1.0
12	9	7280.0
12	10	160.0
12	11	1.0
12	13	3823.0
12	14	19530.0
12	15	10080.0
12	16	1920.0
12	17	1.0
12	18	1760.0
12	19	1.0
12	20	1.0
12	21	1.0
12	22	13585.0
12	23	19451.0
12	24	1600.0
12	25	1.0
12	26	1760.0
12	27	30583.0
12	28	1360.0
12	29	58490.0
12	30	15680.0
12	31	4240.0
12	32	4080.0
12	33	1.0
12	34	2320.0
12	35	1.0
12	36	400.0
12	37	960.0
12	38	4080.0
12	39	21200.0
12	40	3823.0
12	41	1680.0
12	42	1.0
12	43	1.0
12	44	4480.0
12	45	24650.0
12	46	18250.0
12	47	640.0
12	48	640.0
12	49	1.0
12	50	1760.0
12	51	800.0
12	52	1.0
12	53	1.0
12	54	21371.0
12	55	80.0
12	56	1.0
12	57	1.0
12	58	21051.0
12	59	1.0
12	60	640.0
12	61	1.0
12	62	3823.0
12	63	1.0
12	64	18960.0
13	0	1.0
13	1	1.0
13	2	1.0
13	3	320.0
13	4	480.0
13	5	1200.0
13	6	1.0
13	7	880.0
13	8	1.0
13	9	4880.0
13	10	80.0
13	11	1.0
13	12	3823.0
13	14	3760.0
13	15	2640.0
13	16	960.0
13	17	1.0
13	18	880.0
13	19	1.0
13	20	1.0
13	21	1.0
13	22	1520.0
13	23	3040.0
13	24	640.0
13	25	1.0
13	26	1040.0
13	27	115156.0
13	28	1040.0
13	29	3823.0
13	30	3823.0
13	31	2080.0
13	32	2240.0
13	33	1.0
13	34	800.0
13	35	1.0
13	36	240.0
13	37	160.0
13	38	2080.0
13	39	8000.0
13	40	3823.0
13	41	1280.0
13	42	1.0
13	43	1.0
13	44	1920.0
13	45	5120.0
13	46	1600.0
13	47	240.0
13	48	480.0
13	49	1.0
13	50	1040.0
13	51	160.0
13	52	1.0
13	53	1.0
13	54	3920.0
13	55	1.0
13	56	1.0
13	57	1.0
13	58	4720.0
13	59	1.0
13	60	320.0
13	61	1.0
13	62	3200.0
13	63	1.0
13	64	3823.0
14	0	1.0
14	1	1.0
14	2	1.0
14	3	3680.0
14	4	1920.0
14	5	3840.0
14	6	1.0
14	7	4320.0
14	8	1.0
14	9	7680.0
14	10	160.0
14	11	1.0
14	12	19530.0
14	13	3760.0
14	15	2240.0
14	16	4880.0
14	17	1.0
14	18	5360.0
14	19	1.0
14	20	1.0
14	21	1.0
14	22	720.0
14	23	11469.0
14	24	2080.0
14	25	1.0
14	26	10480.0
14	27	143150.0
14	28	560.0
14	29	462790.0
14	30	7360.0
14	31	2640.0
14	32	3823.0
14	33	1.0
14	34	6240.0
14	35	1.0
14	36	80.0
14	37	640.0
14	38	3040.0
14	39	6560.0
14	40	1360.0
14	41	3840.0
14	42	1.0
14	43	1.0
14	44	11520.0
14	45	19770.0
14	46	20250.0
14	47	3040.0
14	48	3760.0
14	49	1.0
14	50	4000.0
14	51	480.0
14	52	1.0
14	53	1.0
14	54	24490.0
14	55	560.0
14	56	1.0
14	57	1.0
14	58	129975.0
14	59	1.0
14	60	4240.0
14	61	1.0
14	62	11469.0
14	63	1.0
14	64	5120.0
15	0	1.0
15	1	1.0
15	2	1.0
15	3	480.0
15	4	400.0
15	5	480.0
15	6	1.0
15	7	640.0
15	8	1.0
15	9	2400.0
15	10	1.0
15	11	1.0
15	12	10080.0
15	13	2640.0
15	14	2240.0
15	16	880.0
15	17	1.0
15	18	480.0
15	19	1.0
15	20	1.0
15	21	1.0
15	22	800.0
15	23	1360.0
15	24	640.0
15	25	1.0
15	26	480.0
15	27	7646.0
15	28	720.0
15	29	11469.0
15	30	5360.0
15	31	1680.0
15	32	1920.0
15	33	1.0
15	34	800.0
15	35	1.0
15	36	160.0
15	37	1.0
15	38	1120.0
15	39	22937.0
15	40	1760.0
15	41	880.0
15	42	1.0
15	43	1.0
15	44	2480.0
15	45	2400.0
15	46	800.0
15	47	480.0
15	48	400.0
15	49	1.0
15	50	480.0
15	51	320.0
15	52	1.0
15	53	1.0
15	54	3920.0
15	55	1.0
15	56	1.0
15	57	1.0
15	58	2240.0
15	59	1.0
15	60	160.0
15	61	1.0
15	62	2480.0
15	63	1.0
15	64	2000.0
16	0	1.0
16	1	1.0
16	2	1.0
16	3	720.0
16	4	640.0
16	5	3823.0
16	6	1.0
16	7	2800.0
16	8	1.0
16	9	3823.0
16	10	160.0
16	11	1.0
16	12	1920.0
16	13	960.0
16	14	4880.0
16	15	880.0
16	17	1.0
16	18	3823.0
16	19	1.0
16	20	1.0
16	21	1.0
16	22	160.0
16	23	3520.0
16	24	720.0
16	25	1.0
16	26	4240.0
16	27	23765.0
16	28	400.0
16	29	111094.0
16	30	2960.0
16	31	800.0
16	32	3280.0
16	33	1.0
16	34	2000.0
16	35	1.0
16	36	240.0
16	37	560.0
16	38	1280.0
16	39	1600.0
16	40	480.0
16	41	3040.0
16	42	1.0
16	43	1.0
16	44	7646.0
16	45	3040.0
16	46	3823.0
16	47	640.0
16	48	880.0
16	49	1.0
16	50	1040.0
16	51	80.0
16	52	1.0
16	53	1.0
16	54	2480.0
16	55	160.0
16	56	1.0
16	57	1.0
16	58	3823.0
16	59	1.0
16	60	960.0
16	61	1.0
16	62	68811.0
16	63	1.0
16	64	2560.0
17	0	1.0
17	1	1.0
17	2	1.0
17	3	1.0
17	4	1.0
17	5	1.0
17	6	1.0
17	7	1.0
17	8	1.0
17	9	1.0
17	10	1.0
17	11	1.0
17	12	1.0
17	13	1.0
17	14	1.0
17	15	1.0
17	16	1.0
17	18	1.0
17	19	1.0
17	20	1.0
17	21	1.0
17	22	1.0
17	23	1.0
17	24	1.0
17	25	1.0
17	26	1.0
17	27	1.0
17	28	1.0
17	29	1.0
17	30	1.0
17	31	1.0
17	32	1.0
17	33	1.0
17	34	1.0
17	35	1.0
17	36	1.0
17	37	1.0
17	38	1.0
17	39	1.0
17	40	1.0
17	41	1.0
17	42	1.0
17	43	1.0
17	44	1.0
17	45	1.0
17	46	1.0
17	47	1.0
17	48	1.0
17	49	1.0
17	50	1.0
17	51	1.0
17	52	1.0
17	53	1.0
17	54	1.0
17	55	1.0
17	56	1.0
17	57	1.0
17	58	1.0
17	59	1.0
17	60	1.0
17	61	1.0
17	62	1.0
17	63	1.0
17	64	1.0
18	0	1.0
18	1	1.0
18	2	1.0
18	3	1200.0
18	4	480.0
18	5	3120.0
18	6	1.0
18	7	4000.0
18	8	1.0
18	9	6800.0
18	10	240.0
18	11	1.0
18	12	1760.0
18	13	880.0
18	14	5360.0
18	15	480.0
18	16	3823.0
18	17	1.0
18	19	1.0
18	20	1.0
18	21	1.0
18	22	80.0
18	23	2720.0
18	24	720.0
18	25	1.0
18	26	3823.0
18	27	15964.0
18	28	240.0
18	29	136081.0
18	30	2880.0
18	31	960.0
18	32	2560.0
18	33	1.0
18	34	3120.0
18	35	1.0
18	36	160.0
18	37	1.0
18	38	1040.0
18	39	1840.0
18	40	640.0
18	41	4400.0
18	42	1.0
18	43	1.0
18	44	33361.0
18	45	3120.0
18	46	8480.0
18	47	640.0
18	48	1280.0
18	49	1.0
18	50	880.0
18	51	160.0
18	52	1.0
18	53	1.0
18	54	3680.0
18	55	1.0
18	56	1.0
18	57	1.0
18	58	3823.0
18	59	1.0
18	60	880.0
18	61	1.0
18	62	5120.0
18	63	1.0
18	64	1840.0
19	0	1.0
19	1	1.0
19	2	1.0
19	3	1.0
19	4	1.0
19	5	1.0
19	6	1.0
19	7	1.0
19	8	1.0
19	9	1.0
19	10	1.0
19	11	1.0
19	12	1.0
19	13	1.0
19	14	1.0
19	15	1.0
19	16	1.0
19	17	1.0
19	18	1.0
19	20	1.0
19	21	1.0
19	22	1.0
19	23	1.0
19	24	1.0
19	25	1.0
19	26	1.0
19	27	1.0
19	28	1.0
19	29	1.0
19	30	1.0
19	31	1.0
19	32	1.0
19	33	1.0
19	34	1.0
19	35	1.0
19	36	1.0
19	37	1.0
19	38	1.0
19	39	1.0
19	40	1.0
19	41	1.0
19	42	1.0
19	43	1.0
19	44	1.0
19	45	1.0
19	46	1.0
19	47	1.0
19	48	1.0
19	49	1.0
19	50	1.0
19	51	1.0
19	52	1.0
19	53	1.0
19	54	1.0
19	55	1.0
19	56	1.0
19	57	1.0
19	58	1.0
19	59	1.0
19	60	1.0
19	61	1.0
19	62	1.0
19	63	1.0
19	64	1.0
20	0	1.0
20	1	1.0
20	2	1.0
20	3	1.0
20	4	1.0
20	5	1.0
20	6	1.0
20	7	1.0
20	8	1.0
20	9	1.0
20	10	1.0
20	11	1.0
20	12	1.0
20	13	1.0
20	14	1.0
20	15	1.0
20	16	1.0
20	17	1.0
20	18	1.0
20	19	1.0
20	21	1.0
20	22	1.0
20	23	1.0
20	24	1.0
20	25	1.0
20	26	1.0
20	27	1.0
20	28	1.0
20	29	1.0
20	30	1.0
20	31	1.0
20	32	1.0
20	33	1.0
20	34	1.0
20	35	1.0
20	36	1.0
20	37	1.0
20	38	1.0
20	39	1.0
20	40	1.0
20	41	1.0
20	42	1.0
20	43	1.0
20	44	1.0
20	45	1.0
20	46	1.0
20	47	1.0
20	48	1.0
20	49	1.0
20	50	1.0
20	51	1.0
20	52	1.0
20	53	1.0
20	54	1.0
20	55	1.0
20	56	1.0
20	57	1.0
20	58	1.0
20	59	1.0
20	60	1.0
20	61	1.0
20	62	1.0
20	63	1.0
20	64	1.0
21	0	1.0
21	1	1.0
21	2	1.0
21	3	1.0
21	4	1.0
21	5	1.0
21	6	1.0
21	7	1.0
21	8	1.0
21	9	1.0
21	10	1.0
21	11	1.0
21	12	1.0
21	13	1.0
21	14	1.0
21	15	1.0
21	16	1.0
21	17	1.0
21	18	1.0
21	19	1.0
21	20	1.0
21	22	1.0
21	23	1.0
21	24	1.0
21	25	1.0
21	26	1.0
21	27	1.0
21	28	1.0
21	29	1.0
21	30	1.0
21	31	1.0
21	32	1.0
21	33	1.0
21	34	1.0
21	35	1.0
21	36	1.0
21	37	1.0
21	38	1.0
21	39	1.0
21	40	1.0
21	41	1.0
21	42	1.0
21	43	1.0
21	44	1.0
21	45	1.0
21	46	1.0
21	47	1.0
21	48	1.0
21	49	1.0
21	50	1.0
21	51	1.0
21	52	1.0
21	53	1.0
21	54	1.0
21	55	1.0
21	56	1.0
21	57	1.0
21	58	1.0
21	59	1.0
21	60	1.0
21	61	1.0
21	62	1.0
21	63	1.0
21	64	1.0
22	0	1.0
22	1	1.0
22	2	1.0
22	3	1.0
22	4	240.0
22	5	80.0
22	6	1.0
22	7	640.0
22	8	1.0
22	9	1120.0
22	10	1.0
22	11	1.0
22	12	13585.0
22	13	1520.0
22	14	720.0
22	15	800.0
22	16	160.0
22	17	1.0
22	18	80.0
22	19	1.0
22	20	1.0
22	21	1.0
22	23	720.0
22	24	320.0
22	25	1.0
22	26	160.0
22	27	11654.0
22	28	320.0
22	29	27974.0
22	30	2720.0
22	31	640.0
22	32	1120.0
22	33	1.0
22	34	80.0
22	35	1.0
22	36	1.0
22	37	80.0
22	38	480.0
22	39	4240.0
22	40	4145.0
22	41	480.0
22	42	1.0
22	43	1.0
22	44	480.0
22	45	1440.0
22	46	400.0
22	47	80.0
22	48	240.0
22	49	1.0
22	50	160.0
22	51	1.0
22	52	1.0
22	53	1.0
22	54	1200.0
22	55	1.0
22	56	1.0
22	57	1.0
22	58	880.0
22	59	1.0
22	60	160.0
22	61	1.0
22	62	1200.0
22	63	1.0
22	64	3200.0
23	0	1.0
23	1	1.0
23	2	1.0
23	3	1200.0
23	4	3040.0
23	5	3120.0
23	6	1.0
23	7	2880.0
23	8	1.0
23	9	6000.0
23	10	240.0
23	11	1.0
23	12	19451.0
23	13	3040.0
23	14	11469.0
23	15	1360.0
23	16	3520.0
23	17	1.0
23	18	2720.0
23	19	1.0
23	20	1.0
23	21	1.0
23	22	720.0
23	24	3440.0
23	25	1.0
23	26	4960.0
23	27	49697.0
23	28	480.0
23	29	42051.0
23	30	6640.0
23	31	2560.0
23	32	3823.0
23	33	1.0
23	34	2080.0
23	35	1.0
23	36	1.0
23	37	880.0
23	38	1920.0
23	39	5440.0
23	40	960.0
23	41	2560.0
23	42	1.0
23	43	1.0
23	44	5280.0
23	45	19290.0
23	46	17530.0
23	47	8400.0
23	48	1200.0
23	49	1.0
23	50	5840.0
23	51	720.0
23	52	1.0
23	53	1.0
23	54	79012.0
23	55	640.0
23	56	1.0
23	57	1.0
23	58	3823.0
23	59	1.0
23	60	13505.0
23	61	1.0
23	62	74760.0
23	63	1.0
23	64	3200.0
24	0	1.0
24	1	1.0
24	2	1.0
24	3	320.0
24	4	3905.0
24	5	480.0
24	6	1.0
24	7	800.0
24	8	1.0
24	9	1280.0
24	10	80.0
24	11	1.0
24	12	1600.0
24	13	640.0
24	14	2080.0
24	15	640.0
24	16	720.0
24	17	1.0
24	18	720.0
24	19	1.0
24	20	1.0
24	21	1.0
24	22	320.0
24	23	3440.0
24	25	1.0
24	26	3823.0
24	27	15304.0
24	28	160.0
24	29	3823.0
24	30	1120.0
24	31	320.0
24	32	4465.0
24	33	1.0
24	34	1040.0
24	35	1.0
24	36	1.0
24	37	240.0
24	38	560.0
24	39	800.0
24	40	240.0
24	41	560.0
24	42	1.0
24	43	1.0
24	44	1600.0
24	45	1680.0
24	46	960.0
24	47	800.0
24	48	240.0
24	49	1.0
24	50	1040.0
24	51	160.0
24	52	1.0
24	53	1.0
24	54	3823.0
24	55	240.0
24	56	1.0
24	57	1.0
24	58	2480.0
24	59	1.0
24	60	4305.0
24	61	1.0
24	62	3932.0
24	63	1.0
24	64	1120.0
25	0	1.0
25	1	1.0
25	2	1.0
25	3	1.0
25	4	1.0
25	5	1.0
25	6	1.0
25	7	1.0
25	8	1.0
25	9	1.0
25	10	1.0
25	11	1.0
25	12	1.0
25	13	1.0
25	14	1.0
25	15	1.0
25	16	1.0
25	17	1.0
25	18	1.0
25	19	1.0
25	20	1.0
25	21	1.0
25	22	1.0
25	23	1.0
25	24	1.0
25	26	1.0
25	27	1.0
25	28	1.0
25	29	1.0
25	30	1.0
25	31	1.0
25	32	1.0
25	33	1.0
25	34	1.0
25	35	1.0
25	36	1.0
25	37	1.0
25	38	1.0
25	39	1.0
25	40	1.0
25	41	1.0
25	42	1.0
25	43	1.0
25	44	1.0
25	45	1.0
25	46	1.0
25	47	1.0
25	48	1.0
25	49	1.0
25	50	1.0
25	51	1.0
25	52	1.0
25	53	1.0
25	54	1.0
25	55	1.0
25	56	1.0
25	57	1.0
25	58	1.0
25	59	1.0
25	60	1.0
25	61	1.0
25	62	1.0
25	63	1.0
25	64	1.0
26	0	1.0
26	1	1.0
26	2	1.0
26	3	1360.0
26	4	1040.0
26	5	2880.0
26	6	1.0
26	7	2320.0
26	8	1.0
26	9	4800.0
26	10	80.0
26	11	1.0
26	12	1760.0
26	13	1040.0
26	14	10480.0
26	15	480.0
26	16	4240.0
26	17	1.0
26	18	3823.0
26	19	1.0
26	20	1.0
26	21	1.0
26	22	160.0
26	23	4960.0
26	24	3823.0
26	25	1.0
26	27	30066.0
26	28	80.0
26	29	123814.0
26	30	2400.0
26	31	880.0
26	32	4400.0
26	33	1.0
26	34	1520.0
26	35	1.0
26	36	240.0
26	37	240.0
26	38	560.0
26	39	2720.0
26	40	640.0
26	41	2000.0
26	42	1.0
26	43	1.0
26	44	5760.0
26	45	2400.0
26	46	2320.0
26	47	880.0
26	48	3823.0
26	49	1.0
26	50	1360.0
26	51	240.0
26	52	1.0
26	53	1.0
26	54	4560.0
26	55	240.0
26	56	1.0
26	57	1.0
26	58	3823.0
26	59	1.0
26	60	1920.0
26	61	1.0
26	62	38228.0
26	63	1.0
26	64	2240.0
27	0	1.0
27	1	1.0
27	2	1.0
27	3	17369.0
27	4	11889.0
27	5	15798.0
27	6	1.0
27	7	57264.0
27	8	1.0
27	9	57342.0
27	10	2400.0
27	11	1.0
27	12	147568.0
27	13	30583.0
27	14	143150.0
27	15	7646.0
27	16	23765.0
27	17	1.0
27	18	15964.0
27	19	1.0
27	20	1.0
27	21	1.0
27	22	11654.0
27	23	97219.0
27	24	15304.0
27	25	1.0
27	26	30066.0
27	28	16782.0
27	29	719877.0
27	30	151569.0
27	31	80279.0
27	32	15292.0
27	33	1.0
27	34	7646.0
27	35	1.0
27	36	2400.0
27	37	5280.0
27	38	22937.0
27	39	91740.0
27	40	22937.0
27	41	22861.0
27	42	1.0
27	43	1.0
27	44	93558.0
27	45	122346.0
27	46	3823.0
27	47	5120.0
27	48	30084.0
27	49	1.0
27	50	24281.0
27	51	3760.0
27	52	1.0
27	53	1.0
27	54	176432.0
27	55	1840.0
27	56	1.0
27	57	1.0
27	58	149614.0
27	59	1.0
27	60	8757.0
27	61	1.0
27	62	87925.0
27	63	1.0
27	64	34406.0
28	0	1.0
28	1	1.0
28	2	1.0
28	3	240.0
28	4	240.0
28	5	320.0
28	6	1.0
28	7	320.0
28	8	1.0
28	9	1280.0
28	10	1.0
28	11	1.0
28	12	1360.0
28	13	1040.0
28	14	560.0
28	15	720.0
28	16	400.0
28	17	1.0
28	18	240.0
28	19	1.0
28	20	1.0
28	21	1.0
28	22	320.0
28	23	480.0
28	24	160.0
28	25	1.0
28	26	80.0
28	27	37102.0
28	29	9334.0
28	30	1680.0
28	31	400.0
28	32	880.0
28	33	1.0
28	34	320.0
28	35	1.0
28	36	1.0
28	37	240.0
28	38	720.0
28	39	1120.0
28	40	320.0
28	41	320.0
28	42	1.0
28	43	1.0
28	44	800.0
28	45	1360.0
28	46	560.0
28	47	1.0
28	48	80.0
28	49	1.0
28	50	480.0
28	51	80.0
28	52	1.0
28	53	1.0
28	54	800.0
28	55	1.0
28	56	1.0
28	57	1.0
28	58	720.0
28	59	1.0
28	60	80.0
28	61	1.0
28	62	960.0
28	63	1.0
28	64	1760.0
29	0	1.0
29	1	1.0
29	2	1.0
29	3	9441.0
29	4	7646.0
29	5	15014.0
29	6	1.0
29	7	42774.0
29	8	1.0
29	9	43787.0
29	10	3227.0
29	11	1.0
29	12	58490.0
29	13	3823.0
29	14	76597.0
29	15	7646.0
29	16	18854.0
29	17	1.0
29	18	19281.0
29	19	1.0
29	20	1.0
29	21	1.0
29	22	7174.0
29	23	42051.0
29	24	3823.0
29	25	1.0
29	26	20054.0
29	27	719877.0
29	28	9334.0
29	30	84156.0
29	31	34667.0
29	32	3823.0
29	33	1.0
29	34	36267.0
29	35	1.0
29	36	1734.0
29	37	6347.0
29	38	3823.0
29	39	104374.0
29	40	8801.0
29	41	3823.0
29	42	1.0
29	43	1.0
29	44	166507.0
29	45	26760.0
29	46	15292.0
29	47	6347.0
29	48	9281.0
29	49	1.0
29	50	16241.0
29	51	6027.0
29	52	1.0
29	53	1.0
29	54	97214.0
29	55	1867.0
29	56	1.0
29	57	1.0
29	58	105077.0
29	59	1.0
29	60	8134.0
29	61	1.0
29	62	88464.0
29	63	1.0
29	64	22937.0
30	0	1.0
30	1	1.0
30	2	1.0
30	3	880.0
30	4	1680.0
30	5	3360.0
30	6	1.0
30	7	4160.0
30	8	1.0
30	9	24735.0
30	10	320.0
30	11	1.0
30	12	15680.0
30	13	3823.0
30	14	7360.0
30	15	5360.0
30	16	2960.0
30	17	1.0
30	18	2880.0
30	19	1.0
30	20	1.0
30	21	1.0
30	22	2720.0
30	23	6640.0
30	24	1120.0
30	25	1.0
30	26	2400.0
30	27	477263.0
30	28	1680.0
30	29	84156.0
30	31	5360.0
30	32	6080.0
30	33	1.0
30	34	3200.0
30	35	1.0
30	36	1574.0
30	37	1280.0
30	38	11469.0
30	39	7646.0
30	40	17281.0
30	41	2640.0
30	42	1.0
30	43	1.0
30	44	6800.0
30	45	54187.0
30	46	6123.0
30	47	1120.0
30	48	1040.0
30	49	1.0
30	50	2400.0
30	51	880.0
30	52	1.0
30	53	1.0
30	54	3823.0
30	55	240.0
30	56	1.0
30	57	1.0
30	58	16894.0
30	59	1.0
30	60	1280.0
30	61	1.0
30	62	11469.0
30	63	1.0
30	64	49787.0
31	0	1.0
31	1	1.0
31	2	1.0
31	3	320.0
31	4	480.0
31	5	640.0
31	6	1.0
31	7	1760.0
31	8	1.0
31	9	3200.0
31	10	1.0
31	11	1.0
31	12	4240.0
31	13	2080.0
31	14	2640.0
31	15	1680.0
31	16	800.0
31	17	1.0
31	18	960.0
31	19	1.0
31	20	1.0
31	21	1.0
31	22	640.0
31	23	2560.0
31	24	320.0
31	25	1.0
31	26	880.0
31	27	80279.0
31	28	400.0
31	29	34667.0
31	30	5360.0
31	32	1440.0
31	33	1.0
31	34	1280.0
31	35	1.0
31	36	160.0
31	37	320.0
31	38	3823.0
31	39	2960.0
31	40	640.0
31	41	1280.0
31	42	1.0
31	43	1.0
31	44	2320.0
31	45	3840.0
31	46	2560.0
31	47	480.0
31	48	320.0
31	49	1.0
31	50	800.0
31	51	320.0
31	52	1.0
31	53	1.0
31	54	9029.0
31	55	80.0
31	56	1.0
31	57	1.0
31	58	4000.0
31	59	1.0
31	60	480.0
31	61	1.0
31	62	7589.0
31	63	1.0
31	64	4240.0
32	0	1.0
32	1	1.0
32	2	1.0
32	3	880.0
32	4	1600.0
32	5	3120.0
32	6	1.0
32	7	2960.0
32	8	1.0
32	9	6880.0
32	10	240.0
32	11	1.0
32	12	4080.0
32	13	2240.0
32	14	3823.0
32	15	1920.0
32	16	3280.0
32	17	1.0
32	18	2560.0
32	19	1.0
32	20	1.0
32	21	1.0
32	22	1120.0
32	23	3823.0
32	24	4465.0
32	25	1.0
32	26	4400.0
32	27	15292.0
32	28	880.0
32	29	3823.0
32	30	6080.0
32	31	1440.0
32	33	1.0
32	34	2400.0
32	35	1.0
32	36	160.0
32	37	1520.0
32	38	2080.0
32	39	6000.0
32	40	1200.0
32	41	2320.0
32	42	1.0
32	43	1.0
32	44	7440.0
32	45	5520.0
32	46	4960.0
32	47	1600.0
32	48	1040.0
32	49	1.0
32	50	3440.0
32	51	480.0
32	52	1.0
32	53	1.0
32	54	8640.0
32	55	560.0
32	56	1.0
32	57	1.0
32	58	7200.0
32	59	1.0
32	60	2160.0
32	61	1.0
32	62	37490.0
32	63	1.0
32	64	4800.0
33	0	1.0
33	1	1.0
33	2	1.0
33	3	1.0
33	4	1.0
33	5	1.0
33	6	1.0
33	7	1.0
33	8	1.0
33	9	1.0
33	10	1.0
33	11	1.0
33	12	1.0
33	13	1.0
33	14	1.0
33	15	1.0
33	16	1.0
33	17	1.0
33	18	1.0
33	19	1.0
33	20	1.0
33	21	1.0
33	22	1.0
33	23	1.0
33	24	1.0
33	25	1.0
33	26	1.0
33	27	1.0
33	28	1.0
33	29	1.0
33	30	1.0
33	31	1.0
33	32	1.0
33	34	1.0
33	35	1.0
33	36	1.0
33	37	1.0
33	38	1.0
33	39	1.0
33	40	1.0
33	41	1.0
33	42	1.0
33	43	1.0
33	44	1.0
33	45	1.0
33	46	1.0
33	47	1.0
33	48	1.0
33	49	1.0
33	50	1.0
33	51	1.0
33	52	1.0
33	53	1.0
33	54	1.0
33	55	1.0
33	56	1.0
33	57	1.0
33	58	1.0
33	59	1.0
33	60	1.0
33	61	1.0
33	62	1.0
33	63	1.0
33	64	1.0
34	0	1.0
34	1	1.0
34	2	1.0
34	3	1200.0
34	4	1440.0
34	5	1200.0
34	6	1.0
34	7	68811.0
34	8	1.0
34	9	4000.0
34	10	4160.0
34	11	1.0
34	12	2320.0
34	13	800.0
34	14	6240.0
34	15	800.0
34	16	2000.0
34	17	1.0
34	18	3120.0
34	19	1.0
34	20	1.0
34	21	1.0
34	22	80.0
34	23	2080.0
34	24	1040.0
34	25	1.0
34	26	1520.0
34	27	30583.0
34	28	320.0
34	29	36267.0
34	30	3200.0
34	31	1280.0
34	32	2400.0
34	33	1.0
34	35	1.0
34	36	1.0
34	37	1.0
34	38	1280.0
34	39	2000.0
34	40	720.0
34	41	2000.0
34	42	1.0
34	43	1.0
34	44	49697.0
34	45	3120.0
34	46	6400.0
34	47	560.0
34	48	1040.0
34	49	1.0
34	50	1040.0
34	51	1.0
34	52	1.0
34	53	1.0
34	54	4000.0
34	55	80.0
34	56	1.0
34	57	1.0
34	58	15440.0
34	59	1.0
34	60	480.0
34	61	1.0
34	62	5040.0
34	63	1.0
34	64	2240.0
35	0	1.0
35	1	1.0
35	2	1.0
35	3	1.0
35	4	1.0
35	5	1.0
35	6	1.0
35	7	1.0
35	8	1.0
35	9	1.0
35	10	1.0
35	11	1.0
35	12	1.0
35	13	1.0
35	14	1.0
35	15	1.0
35	16	1.0
35	17	1.0
35	18	1.0
35	19	1.0
35	20	1.0
35	21	1.0
35	22	1.0
35	23	1.0
35	24	1.0
35	25	1.0
35	26	1.0
35	27	1.0
35	28	1.0
35	29	1.0
35	30	1.0
35	31	1.0
35	32	1.0
35	33	1.0
35	34	1.0
35	36	1.0
35	37	1.0
35	38	1.0
35	39	1.0
35	40	1.0
35	41	1.0
35	42	1.0
35	43	1.0
35	44	1.0
35	45	1.0
35	46	1.0
35	47	1.0
35	48	1.0
35	49	1.0
35	50	1.0
35	51	1.0
35	52	1.0
35	53	1.0
35	54	1.0
35	55	1.0
35	56	1.0
35	57	1.0
35	58	1.0
35	59	1.0
35	60	1.0
35	61	1.0
35	62	1.0
35	63	1.0
35	64	1.0
36	0	1.0
36	1	1.0
36	2	1.0
36	3	1.0
36	4	1.0
36	5	320.0
36	6	1.0
36	7	1.0
36	8	1.0
36	9	880.0
36	10	1.0
36	11	1.0
36	12	400.0
36	13	240.0
36	14	80.0
36	15	160.0
36	16	240.0
36	17	1.0
36	18	160.0
36	19	1.0
36	20	1.0
36	21	1.0
36	22	1.0
36	23	1.0
36	24	1.0
36	25	1.0
36	26	240.0
36	27	2400.0
36	28	1.0
36	29	6534.0
36	30	1574.0
36	31	160.0
36	32	160.0
36	33	1.0
36	34	1.0
36	35	1.0
36	37	1.0
36	38	720.0
36	39	400.0
36	40	1.0
36	41	160.0
36	42	1.0
36	43	1.0
36	44	80.0
36	45	3760.0
36	46	320.0
36	47	1.0
36	48	80.0
36	49	1.0
36	50	1.0
36	51	1.0
36	52	1.0
36	53	1.0
36	54	80.0
36	55	1.0
36	56	1.0
36	57	1.0
36	58	240.0
36	59	1.0
36	60	1.0
36	61	1.0
36	62	400.0
36	63	1.0
36	64	1040.0
37	0	1.0
37	1	1.0
37	2	1.0
37	3	80.0
37	4	320.0
37	5	1.0
37	6	1.0
37	7	240.0
37	8	1.0
37	9	800.0
37	10	1.0
37	11	1.0
37	12	960.0
37	13	160.0
37	14	640.0
37	15	1.0
37	16	560.0
37	17	1.0
37	18	1.0
37	19	1.0
37	20	1.0
37	21	1.0
37	22	80.0
37	23	880.0
37	24	240.0
37	25	1.0
37	26	240.0
37	27	20080.0
37	28	240.0
37	29	6347.0
37	30	1280.0
37	31	320.0
37	32	1520.0
37	33	1.0
37	34	1.0
37	35	1.0
37	36	1.0
37	38	480.0
37	39	800.0
37	40	240.0
37	41	80.0
37	42	1.0
37	43	1.0
37	44	240.0
37	45	560.0
37	46	160.0
37	47	160.0
37	48	1.0
37	49	1.0
37	50	880.0
37	51	240.0
37	52	1.0
37	53	1.0
37	54	1760.0
37	55	1.0
37	56	1.0
37	57	1.0
37	58	960.0
37	59	1.0
37	60	400.0
37	61	1.0
37	62	1040.0
37	63	1.0
37	64	720.0
38	0	1.0
38	1	1.0
38	2	1.0
38	3	240.0
38	4	480.0
38	5	1360.0
38	6	1.0
38	7	1040.0
38	8	1.0
38	9	3823.0
38	10	1.0
38	11	1.0
38	12	4080.0
38	13	2080.0
38	14	3040.0
38	15	1120.0
38	16	1280.0
38	17	1.0
38	18	1040.0
38	19	1.0
38	20	1.0
38	21	1.0
38	22	480.0
38	23	1920.0
38	24	560.0
38	25	1.0
38	26	560.0
38	27	100915.0
38	28	720.0
38	29	3823.0
38	30	11469.0
38	31	3823.0
38	32	2080.0
38	33	1.0
38	34	1280.0
38	35	1.0
38	36	720.0
38	37	480.0
38	39	2400.0
38	40	960.0
38	41	1760.0
38	42	1.0
38	43	1.0
38	44	2480.0
38	45	9600.0
38	46	2000.0
38	47	400.0
38	48	480.0
38	49	1.0
38	50	960.0
38	51	80.0
38	52	1.0
38	53	1.0
38	54	3040.0
38	55	80.0
38	56	1.0
38	57	1.0
38	58	2880.0
38	59	1.0
38	60	240.0
38	61	1.0
38	62	2480.0
38	63	1.0
38	64	7840.0
39	0	1.0
39	1	1.0
39	2	1.0
39	3	1120.0
39	4	1440.0
39	5	3200.0
39	6	1.0
39	7	3280.0
39	8	1.0
39	9	7280.0
39	10	240.0
39	11	1.0
39	12	21200.0
39	13	8000.0
39	14	6560.0
39	15	22937.0
39	16	1600.0
39	17	1.0
39	18	1840.0
39	19	1.0
39	20	1.0
39	21	1.0
39	22	4240.0
39	23	5440.0
39	24	800.0
39	25	1.0
39	26	2720.0
39	27	91740.0
39	28	1120.0
39	29	341254.0
39	30	7646.0
39	31	2960.0
39	32	6000.0
39	33	1.0
39	34	2000.0
39	35	1.0
39	36	400.0
39	37	800.0
39	38	2400.0
39	40	3823.0
39	41	2000.0
39	42	1.0
39	43	1.0
39	44	5600.0
39	45	7840.0
39	46	3360.0
39	47	880.0
39	48	800.0
39	49	1.0
39	50	3440.0
39	51	1280.0
39	52	1.0
39	53	1.0
39	54	3823.0
39	55	320.0
39	56	1.0
39	57	1.0
39	58	7760.0
39	59	1.0
39	60	1120.0
39	61	1.0
39	62	5760.0
39	63	1.0
39	64	8320.0
40	0	1.0
40	1	1.0
40	2	1.0
40	3	320.0
40	4	240.0
40	5	800.0
40	6	1.0
40	7	960.0
40	8	1.0
40	9	1920.0
40	10	80.0
40	11	1.0
40	12	3823.0
40	13	3823.0
40	14	1360.0
40	15	1760.0
40	16	480.0
40	17	1.0
40	18	640.0
40	19	1.0
40	20	1.0
40	21	1.0
40	22	4145.0
40	23	960.0
40	24	240.0
40	25	1.0
40	26	640.0
40	27	90267.0
40	28	320.0
40	29	8801.0
40	30	17281.0
40	31	640.0
40	32	1200.0
40	33	1.0
40	34	720.0
40	35	1.0
40	36	1.0
40	37	240.0
40	38	960.0
40	39	3823.0
40	41	640.0
40	42	1.0
40	43	1.0
40	44	1280.0
40	45	2160.0
40	46	1360.0
40	47	320.0
40	48	160.0
40	49	1.0
40	50	240.0
40	51	240.0
40	52	1.0
40	53	1.0
40	54	2160.0
40	55	1.0
40	56	1.0
40	57	1.0
40	58	2320.0
40	59	1.0
40	60	480.0
40	61	1.0
40	62	720.0
40	63	1.0
40	64	2640.0
41	0	1.0
41	1	1.0
41	2	1.0
41	3	720.0
41	4	800.0
41	5	3200.0
41	6	1.0
41	7	4000.0
41	8	1.0
41	9	16074.0
41	10	80.0
41	11	1.0
41	12	1680.0
41	13	1280.0
41	14	3840.0
41	15	880.0
41	16	3040.0
41	17	1.0
41	18	4400.0
41	19	1.0
41	20	1.0
41	21	1.0
41	22	480.0
41	23	2560.0
41	24	560.0
41	25	1.0
41	26	2000.0
41	27	109501.0
41	28	320.0
41	29	3823.0
41	30	2640.0
41	31	1280.0
41	32	2320.0
41	33	1.0
41	34	2000.0
41	35	1.0
41	36	160.0
41	37	80.0
41	38	1760.0
41	39	2000.0
41	40	640.0
41	42	1.0
41	43	1.0
41	44	24213.0
41	45	4320.0
41	46	7646.0
41	47	720.0
41	48	880.0
41	49	1.0
41	50	1120.0
41	51	160.0
41	52	1.0
41	53	1.0
41	54	2240.0
41	55	160.0
41	56	1.0
41	57	1.0
41	58	3823.0
41	59	1.0
41	60	560.0
41	61	1.0
41	62	12001.0
41	63	1.0
41	64	2080.0
42	0	1.0
42	1	1.0
42	2	1.0
42	3	1.0
42	4	1.0
42	5	1.0
42	6	1.0
42	7	1.0
42	8	1.0
42	9	1.0
42	10	1.0
42	11	1.0
42	12	1.0
42	13	1.0
42	14	1.0
42	15	1.0
42	16	1.0
42	17	1.0
42	18	1.0
42	19	1.0
42	20	1.0
42	21	1.0
42	22	1.0
42	23	1.0
42	24	1.0
42	25	1.0
42	26	1.0
42	27	1.0
42	28	1.0
42	29	1.0
42	30	1.0
42	31	1.0
42	32	1.0
42	33	1.0
42	34	1.0
42	35	1.0
42	36	1.0
42	37	1.0
42	38	1.0
42	39	1.0
42	40	1.0
42	41	1.0
42	43	1.0
42	44	1.0
42	45	1.0
42	46	1.0
42	47	1.0
42	48	1.0
42	49	1.0
42	50	1.0
42	51	1.0
42	52	1.0
42	53	1.0
42	54	1.0
42	55	1.0
42	56	1.0
42	57	1.0
42	58	1.0
42	59	1.0
42	60	1.0
42	61	1.0
42	62	1.0
42	63	1.0
42	64	1.0
43	0	1.0
43	1	1.0
43	2	1.0
43	3	1.0
43	4	1.0
43	5	1.0
43	6	1.0
43	7	1.0
43	8	1.0
43	9	1.0
43	10	1.0
43	11	1.0
43	12	1.0
43	13	1.0
43	14	1.0
43	15	1.0
43	16	1.0
43	17	1.0
43	18	1.0
43	19	1.0
43	20	1.0
43	21	1.0
43	22	1.0
43	23	1.0
43	24	1.0
43	25	1.0
43	26	1.0
43	27	1.0
43	28	1.0
43	29	1.0
43	30	1.0
43	31	1.0
43	32	1.0
43	33	1.0
43	34	1.0
43	35	1.0
43	36	1.0
43	37	1.0
43	38	1.0
43	39	1.0
43	40	1.0
43	41	1.0
43	42	1.0
43	44	1.0
43	45	1.0
43	46	1.0
43	47	1.0
43	48	1.0
43	49	1.0
43	50	1.0
43	51	1.0
43	52	1.0
43	53	1.0
43	54	1.0
43	55	1.0
43	56	1.0
43	57	1.0
43	58	1.0
43	59	1.0
43	60	1.0
43	61	1.0
43	62	1.0
43	63	1.0
43	64	1.0
44	0	1.0
44	1	1.0
44	2	1.0
44	3	2640.0
44	4	1600.0
44	5	5200.0
44	6	1.0
44	7	108454.0
44	8	1.0
44	9	3823.0
44	10	4267.0
44	11	1.0
44	12	4480.0
44	13	1920.0
44	14	11520.0
44	15	2480.0
44	16	7646.0
44	17	1.0
44	18	33361.0
44	19	1.0
44	20	1.0
44	21	1.0
44	22	480.0
44	23	5280.0
44	24	1600.0
44	25	1.0
44	26	5760.0
44	27	93558.0
44	28	800.0
44	29	197090.0
44	30	6800.0
44	31	2320.0
44	32	7440.0
44	33	1.0
44	34	49697.0
44	35	1.0
44	36	80.0
44	37	240.0
44	38	2480.0
44	39	5600.0
44	40	1280.0
44	41	24213.0
44	42	1.0
44	43	1.0
44	45	7520.0
44	46	72634.0
44	47	800.0
44	48	2320.0
44	49	1.0
44	50	1840.0
44	51	400.0
44	52	1.0
44	53	1.0
44	54	8160.0
44	55	320.0
44	56	1.0
44	57	1.0
44	58	82406.0
44	59	1.0
44	60	1600.0
44	61	1.0
44	62	11282.0
44	63	1.0
44	64	4160.0
45	0	1.0
45	1	1.0
45	2	1.0
45	3	1040.0
45	4	1200.0
45	5	2960.0
45	6	1.0
45	7	3760.0
45	8	1.0
45	9	15292.0
45	10	1.0
45	11	1.0
45	12	24650.0
45	13	5120.0
45	14	19770.0
45	15	2400.0
45	16	3040.0
45	17	1.0
45	18	3120.0
45	19	1.0
45	20	1.0
45	21	1.0
45	22	1440.0
45	23	19290.0
45	24	1680.0
45	25	1.0
45	26	2400.0
45	27	122346.0
45	28	1360.0
45	29	26760.0
45	30	54187.0
45	31	3840.0
45	32	5520.0
45	33	1.0
45	34	3120.0
45	35	1.0
45	36	3760.0
45	37	560.0
45	38	9600.0
45	39	7840.0
45	40	2160.0
45	41	4320.0
45	42	1.0
45	43	1.0
45	44	7520.0
45	46	11469.0
45	47	880.0
45	48	1200.0
45	49	1.0
45	50	2080.0
45	51	320.0
45	52	1.0
45	53	1.0
45	54	22570.0
45	55	80.0
45	56	1.0
45	57	1.0
45	58	21210.0
45	59	1.0
45	60	1760.0
45	61	1.0
45	62	22730.0
45	63	1.0
45	64	19114.0
46	0	1.0
46	1	1.0
46	2	1.0
46	3	1280.0
46	4	1120.0
46	5	3920.0
46	6	1.0
46	7	3823.0
46	8	1.0
46	9	15760.0
46	10	160.0
46	11	1.0
46	12	18250.0
46	13	1600.0
46	14	20250.0
46	15	800.0
46	16	3823.0
46	17	1.0
46	18	8480.0
46	19	1.0
46	20	1.0
46	21	1.0
46	22	400.0
46	23	17530.0
46	24	960.0
46	25	1.0
46	26	2320.0
46	27	3823.0
46	28	560.0
46	29	15292.0
46	30	6123.0
46	31	2560.0
46	32	4960.0
46	33	1.0
46	34	6400.0
46	35	1.0
46	36	320.0
46	37	160.0
46	38	2000.0
46	39	3360.0
46	40	1360.0
46	41	7646.0
46	42	1.0
46	43	1.0
46	44	72634.0
46	45	11469.0
46	47	720.0
46	48	1200.0
46	49	1.0
46	50	720.0
46	51	400.0
46	52	1.0
46	53	1.0
46	54	19370.0
46	55	160.0
46	56	1.0
46	57	1.0
46	58	25130.0
46	59	1.0
46	60	1120.0
46	61	1.0
46	62	7646.0
46	63	1.0
46	64	3760.0
47	0	1.0
47	1	1.0
47	2	1.0
47	3	400.0
47	4	800.0
47	5	400.0
47	6	1.0
47	7	160.0
47	8	1.0
47	9	1040.0
47	10	1.0
47	11	1.0
47	12	640.0
47	13	240.0
47	14	3040.0
47	15	480.0
47	16	640.0
47	17	1.0
47	18	640.0
47	19	1.0
47	20	1.0
47	21	1.0
47	22	80.0
47	23	8400.0
47	24	800.0
47	25	1.0
47	26	880.0
47	27	32640.0
47	28	1.0
47	29	6347.0
47	30	1120.0
47	31	480.0
47	32	1600.0
47	33	1.0
47	34	560.0
47	35	1.0
47	36	1.0
47	37	160.0
47	38	400.0
47	39	880.0
47	40	320.0
47	41	720.0
47	42	1.0
47	43	1.0
47	44	800.0
47	45	880.0
47	46	720.0
47	48	160.0
47	49	1.0
47	50	1440.0
47	51	1.0
47	52	1.0
47	53	1.0
47	54	7147.0
47	55	1.0
47	56	1.0
47	57	1.0
47	58	2000.0
47	59	1.0
47	60	1520.0
47	61	1.0
47	62	3040.0
47	63	1.0
47	64	320.0
48	0	1.0
48	1	1.0
48	2	1.0
48	3	3823.0
48	4	320.0
48	5	800.0
48	6	1.0
48	7	1040.0
48	8	1.0
48	9	1360.0
48	10	160.0
48	11	1.0
48	12	640.0
48	13	480.0
48	14	3760.0
48	15	400.0
48	16	880.0
48	17	1.0
48	18	1280.0
48	19	1.0
48	20	1.0
48	21	1.0
48	22	240.0
48	23	1200.0
48	24	240.0
48	25	1.0
48	26	3823.0
48	27	87764.0
48	28	80.0
48	29	9281.0
48	30	1040.0
48	31	320.0
48	32	1040.0
48	33	1.0
48	34	1040.0
48	35	1.0
48	36	80.0
48	37	1.0
48	38	480.0
48	39	800.0
48	40	160.0
48	41	880.0
48	42	1.0
48	43	1.0
48	44	2320.0
48	45	1200.0
48	46	1200.0
48	47	160.0
48	49	1.0
48	50	320.0
48	51	80.0
48	52	1.0
48	53	1.0
48	54	1440.0
48	55	1.0
48	56	1.0
48	57	1.0
48	58	23410.0
48	59	1.0
48	60	320.0
48	61	1.0
48	62	2160.0
48	63	1.0
48	64	1280.0
49	0	1.0
49	1	1.0
49	2	1.0
49	3	1.0
49	4	1.0
49	5	1.0
49	6	1.0
49	7	1.0
49	8	1.0
49	9	1.0
49	10	1.0
49	11	1.0
49	12	1.0
49	13	1.0
49	14	1.0
49	15	1.0
49	16	1.0
49	17	1.0
49	18	1.0
49	19	1.0
49	20	1.0
49	21	1.0
49	22	1.0
49	23	1.0
49	24	1.0
49	25	1.0
49	26	1.0
49	27	1.0
49	28	1.0
49	29	1.0
49	30	1.0
49	31	1.0
49	32	1.0
49	33	1.0
49	34	1.0
49	35	1.0
49	36	1.0
49	37	1.0
49	38	1.0
49	39	1.0
49	40	1.0
49	41	1.0
49	42	1.0
49	43	1.0
49	44	1.0
49	45	1.0
49	46	1.0
49	47	1.0
49	48	1.0
49	50	1.0
49	51	1.0
49	52	1.0
49	53	1.0
49	54	1.0
49	55	1.0
49	56	1.0
49	57	1.0
49	58	1.0
49	59	1.0
49	60	1.0
49	61	1.0
49	62	1.0
49	63	1.0
49	64	1.0
50	0	1.0
50	1	1.0
50	2	1.0
50	3	560.0
50	4	1760.0
50	5	1520.0
50	6	1.0
50	7	1360.0
50	8	1.0
50	9	2480.0
50	10	1.0
50	11	1.0
50	12	1760.0
50	13	1040.0
50	14	4000.0
50	15	480.0
50	16	1040.0
50	17	1.0
50	18	880.0
50	19	1.0
50	20	1.0
50	21	1.0
50	22	160.0
50	23	5840.0
50	24	1040.0
50	25	1.0
50	26	1360.0
50	27	24281.0
50	28	480.0
50	29	103121.0
50	30	2400.0
50	31	800.0
50	32	3440.0
50	33	1.0
50	34	1040.0
50	35	1.0
50	36	1.0
50	37	880.0
50	38	960.0
50	39	3440.0
50	40	240.0
50	41	1120.0
50	42	1.0
50	43	1.0
50	44	1840.0
50	45	2080.0
50	46	720.0
50	47	1440.0
50	48	320.0
50	49	1.0
50	51	640.0
50	52	1.0
50	53	1.0
50	54	36354.0
50	55	640.0
50	56	1.0
50	57	1.0
50	58	3600.0
50	59	1.0
50	60	1760.0
50	61	1.0
50	62	3280.0
50	63	1.0
50	64	1200.0
51	0	1.0
51	1	1.0
51	2	1.0
51	3	80.0
51	4	320.0
51	5	240.0
51	6	1.0
51	7	240.0
51	8	1.0
51	9	800.0
51	10	1.0
51	11	1.0
51	12	800.0
51	13	160.0
51	14	480.0
51	15	320.0
51	16	80.0
51	17	1.0
51	18	160.0
51	19	1.0
51	20	1.0
51	21	1.0
51	22	1.0
51	23	720.0
51	24	160.0
51	25	1.0
51	26	240.0
51	27	20240.0
51	28	80.0
51	29	6027.0
51	30	880.0
51	31	320.0
51	32	480.0
51	33	1.0
51	34	1.0
51	35	1.0
51	36	1.0
51	37	240.0
51	38	80.0
51	39	1280.0
51	40	240.0
51	41	160.0
51	42	1.0
51	43	1.0
51	44	400.0
51	45	320.0
51	46	400.0
51	47	1.0
51	48	80.0
51	49	1.0
51	50	640.0
51	52	1.0
51	53	1.0
51	54	2640.0
51	55	160.0
51	56	1.0
51	57	1.0
51	58	480.0
51	59	1.0
51	60	1.0
51	61	1.0
51	62	560.0
51	63	1.0
51	64	640.0
52	0	1.0
52	1	1.0
52	2	1.0
52	3	1.0
52	4	1.0
52	5	1.0
52	6	1.0
52	7	1.0
52	8	1.0
52	9	1.0
52	10	1.0
52	11	1.0
52	12	1.0
52	13	1.0
52	14	1.0
52	15	1.0
52	16	1.0
52	17	1.0
52	18	1.0
52	19	1.0
52	20	1.0
52	21	1.0
52	22	1.0
52	23	1.0
52	24	1.0
52	25	1.0
52	26	1.0
52	27	1.0
52	28	1.0
52	29	1.0
52	30	1.0
52	31	1.0
52	32	1.0
52	33	1.0
52	34	1.0
52	35	1.0
52	36	1.0
52	37	1.0
52	38	1.0
52	39	1.0
52	40	1.0
52	41	1.0
52	42	1.0
52	43	1.0
52	44	1.0
52	45	1.0
52	46	1.0
52	47	1.0
52	48	1.0
52	49	1.0
52	50	1.0
52	51	1.0
52	53	1.0
52	54	1.0
52	55	1.0
52	56	1.0
52	57	1.0
52	58	1.0
52	59	1.0
52	60	1.0
52	61	1.0
52	62	1.0
52	63	1.0
52	64	1.0
53	0	1.0
53	1	1.0
53	2	1.0
53	3	1.0
53	4	1.0
53	5	1.0
53	6	1.0
53	7	1.0
53	8	1.0
53	9	1.0
53	10	1.0
53	11	1.0
53	12	1.0
53	13	1.0
53	14	1.0
53	15	1.0
53	16	1.0
53	17	1.0
53	18	1.0
53	19	1.0
53	20	1.0
53	21	1.0
53	22	1.0
53	23	1.0
53	24	1.0
53	25	1.0
53	26	1.0
53	27	1.0
53	28	1.0
53	29	1.0
53	30	1.0
53	31	1.0
53	32	1.0
53	33	1.0
53	34	1.0
53	35	1.0
53	36	1.0
53	37	1.0
53	38	1.0
53	39	1.0
53	40	1.0
53	41	1.0
53	42	1.0
53	43	1.0
53	44	1.0
53	45	1.0
53	46	1.0
53	47	1.0
53	48	1.0
53	49	1.0
53	50	1.0
53	51	1.0
53	52	1.0
53	54	1.0
53	55	1.0
53	56	1.0
53	57	1.0
53	58	1.0
53	59	1.0
53	60	1.0
53	61	1.0
53	62	1.0
53	63	1.0
53	64	1.0
54	0	1.0
54	1	1.0
54	2	1.0
54	3	1600.0
54	4	15292.0
54	5	3440.0
54	6	1.0
54	7	4080.0
54	8	1.0
54	9	8400.0
54	10	240.0
54	11	1.0
54	12	21371.0
54	13	3920.0
54	14	24490.0
54	15	3920.0
54	16	2480.0
54	17	1.0
54	18	3680.0
54	19	1.0
54	20	1.0
54	21	1.0
54	22	1200.0
54	23	79012.0
54	24	3823.0
54	25	1.0
54	26	4560.0
54	27	176432.0
54	28	800.0
54	29	583598.0
54	30	3823.0
54	31	9029.0
54	32	8640.0
54	33	1.0
54	34	4000.0
54	35	1.0
54	36	80.0
54	37	1760.0
54	38	3040.0
54	39	3823.0
54	40	2160.0
54	41	2240.0
54	42	1.0
54	43	1.0
54	44	8160.0
54	45	22570.0
54	46	19370.0
54	47	7147.0
54	48	1440.0
54	49	1.0
54	50	36354.0
54	51	2640.0
54	52	1.0
54	53	1.0
54	55	5867.0
54	56	1.0
54	57	1.0
54	58	7646.0
54	59	1.0
54	60	9014.0
54	61	1.0
54	62	15292.0
54	63	1.0
54	64	6400.0
55	0	1.0
55	1	1.0
55	2	1.0
55	3	1.0
55	4	160.0
55	5	1.0
55	6	1.0
55	7	80.0
55	8	1.0
55	9	480.0
55	10	1.0
55	11	1.0
55	12	80.0
55	13	1.0
55	14	560.0
55	15	1.0
55	16	160.0
55	17	1.0
55	18	1.0
55	19	1.0
55	20	1.0
55	21	1.0
55	22	1.0
55	23	640.0
55	24	240.0
55	25	1.0
55	26	240.0
55	27	1840.0
55	28	1.0
55	29	9307.0
55	30	240.0
55	31	80.0
55	32	560.0
55	33	1.0
55	34	80.0
55	35	1.0
55	36	1.0
55	37	1.0
55	38	80.0
55	39	320.0
55	40	1.0
55	41	160.0
55	42	1.0
55	43	1.0
55	44	320.0
55	45	80.0
55	46	160.0
55	47	1.0
55	48	1.0
55	49	1.0
55	50	640.0
55	51	160.0
55	52	1.0
55	53	1.0
55	54	5867.0
55	56	1.0
55	57	1.0
55	58	240.0
55	59	1.0
55	60	1.0
55	61	1.0
55	62	480.0
55	63	1.0
55	64	1.0
56	0	1.0
56	1	1.0
56	2	1.0
56	3	1.0
56	4	1.0
56	5	1.0
56	6	1.0
56	7	1.0
56	8	1.0
56	9	1.0
56	10	1.0
56	11	1.0
56	12	1.0
56	13	1.0
56	14	1.0
56	15	1.0
56	16	1.0
56	17	1.0
56	18	1.0
56	19	1.0
56	20	1.0
56	21	1.0
56	22	1.0
56	23	1.0
56	24	1.0
56	25	1.0
56	26	1.0
56	27	1.0
56	28	1.0
56	29	1.0
56	30	1.0
56	31	1.0
56	32	1.0
56	33	1.0
56	34	1.0
56	35	1.0
56	36	1.0
56	37	1.0
56	38	1.0
56	39	1.0
56	40	1.0
56	41	1.0
56	42	1.0
56	43	1.0
56	44	1.0
56	45	1.0
56	46	1.0
56	47	1.0
56	48	1.0
56	49	1.0
56	50	1.0
56	51	1.0
56	52	1.0
56	53	1.0
56	54	1.0
56	55	1.0
56	57	1.0
56	58	1.0
56	59	1.0
56	60	1.0
56	61	1.0
56	62	1.0
56	63	1.0
56	64	1.0
57	0	1.0
57	1	1.0
57	2	1.0
57	3	1.0
57	4	1.0
57	5	1.0
57	6	1.0
57	7	1.0
57	8	1.0
57	9	1.0
57	10	1.0
57	11	1.0
57	12	1.0
57	13	1.0
57	14	1.0
57	15	1.0
57	16	1.0
57	17	1.0
57	18	1.0
57	19	1.0
57	20	1.0
57	21	1.0
57	22	1.0
57	23	1.0
57	24	1.0
57	25	1.0
57	26	1.0
57	27	1.0
57	28	1.0
57	29	1.0
57	30	1.0
57	31	1.0
57	32	1.0
57	33	1.0
57	34	1.0
57	35	1.0
57	36	1.0
57	37	1.0
57	38	1.0
57	39	1.0
57	40	1.0
57	41	1.0
57	42	1.0
57	43	1.0
57	44	1.0
57	45	1.0
57	46	1.0
57	47	1.0
57	48	1.0
57	49	1.0
57	50	1.0
57	51	1.0
57	52	1.0
57	53	1.0
57	54	1.0
57	55	1.0
57	56	1.0
57	58	1.0
57	59	1.0
57	60	1.0
57	61	1.0
57	62	1.0
57	63	1.0
57	64	1.0
58	0	1.0
58	1	1.0
58	2	1.0
58	3	26760.0
58	4	2720.0
58	5	5120.0
58	6	1.0
58	7	3823.0
58	8	1.0
58	9	11200.0
58	10	640.0
58	11	1.0
58	12	21051.0
58	13	4720.0
58	14	129975.0
58	15	2240.0
58	16	3823.0
58	17	1.0
58	18	3823.0
58	19	1.0
58	20	1.0
58	21	1.0
58	22	880.0
58	23	3823.0
58	24	2480.0
58	25	1.0
58	26	3823.0
58	27	152912.0
58	28	720.0
58	29	105077.0
58	30	16894.0
58	31	4000.0
58	32	7200.0
58	33	1.0
58	34	15440.0
58	35	1.0
58	36	240.0
58	37	960.0
58	38	2880.0
58	39	7760.0
58	40	2320.0
58	41	3823.0
58	42	1.0
58	43	1.0
58	44	82406.0
58	45	21210.0
58	46	25130.0
58	47	2000.0
58	48	23410.0
58	49	1.0
58	50	3600.0
58	51	480.0
58	52	1.0
58	53	1.0
58	54	7646.0
58	55	240.0
58	56	1.0
58	57	1.0
58	59	1.0
58	60	2480.0
58	61	1.0
58	62	87925.0
58	63	1.0
58	64	5200.0
59	0	1.0
59	1	1.0
59	2	1.0
59	3	1.0
59	4	1.0
59	5	1.0
59	6	1.0
59	7	1.0
59	8	1.0
59	9	1.0
59	10	1.0
59	11	1.0
59	12	1.0
59	13	1.0
59	14	1.0
59	15	1.0
59	16	1.0
59	17	1.0
59	18	1.0
59	19	1.0
59	20	1.0
59	21	1.0
59	22	1.0
59	23	1.0
59	24	1.0
59	25	1.0
59	26	1.0
59	27	1.0
59	28	1.0
59	29	1.0
59	30	1.0
59	31	1.0
59	32	1.0
59	33	1.0
59	34	1.0
59	35	1.0
59	36	1.0
59	37	1.0
59	38	1.0
59	39	1.0
59	40	1.0
59	41	1.0
59	42	1.0
59	43	1.0
59	44	1.0
59	45	1.0
59	46	1.0
59	47	1.0
59	48	1.0
59	49	1.0
59	50	1.0
59	51	1.0
59	52	1.0
59	53	1.0
59	54	1.0
59	55	1.0
59	56	1.0
59	57	1.0
59	58	1.0
59	60	1.0
59	61	1.0
59	62	1.0
59	63	1.0
59	64	1.0
60	0	1.0
60	1	1.0
60	2	1.0
60	3	480.0
60	4	800.0
60	5	1040.0
60	6	1.0
60	7	800.0
60	8	1.0
60	9	1520.0
60	10	1.0
60	11	1.0
60	12	640.0
60	13	320.0
60	14	4240.0
60	15	160.0
60	16	960.0
60	17	1.0
60	18	880.0
60	19	1.0
60	20	1.0
60	21	1.0
60	22	160.0
60	23	13505.0
60	24	4305.0
60	25	1.0
60	26	1920.0
60	27	8757.0
60	28	80.0
60	29	63574.0
60	30	1280.0
60	31	480.0
60	32	2160.0
60	33	1.0
60	34	480.0
60	35	1.0
60	36	1.0
60	37	400.0
60	38	240.0
60	39	1120.0
60	40	480.0
60	41	560.0
60	42	1.0
60	43	1.0
60	44	1600.0
60	45	1760.0
60	46	1120.0
60	47	1520.0
60	48	320.0
60	49	1.0
60	50	1760.0
60	51	1.0
60	52	1.0
60	53	1.0
60	54	9014.0
60	55	1.0
60	56	1.0
60	57	1.0
60	58	2480.0
60	59	1.0
60	61	1.0
60	62	4160.0
60	63	1.0
60	64	640.0
61	0	1.0
61	1	1.0
61	2	1.0
61	3	1.0
61	4	1.0
61	5	1.0
61	6	1.0
61	7	1.0
61	8	1.0
61	9	1.0
61	10	1.0
61	11	1.0
61	12	1.0
61	13	1.0
61	14	1.0
61	15	1.0
61	16	1.0
61	17	1.0
61	18	1.0
61	19	1.0
61	20	1.0
61	21	1.0
61	22	1.0
61	23	1.0
61	24	1.0
61	25	1.0
61	26	1.0
61	27	1.0
61	28	1.0
61	29	1.0
61	30	1.0
61	31	1.0
61	32	1.0
61	33	1.0
61	34	1.0
61	35	1.0
61	36	1.0
61	37	1.0
61	38	1.0
61	39	1.0
61	40	1.0
61	41	1.0
61	42	1.0
61	43	1.0
61	44	1.0
61	45	1.0
61	46	1.0
61	47	1.0
61	48	1.0
61	49	1.0
61	50	1.0
61	51	1.0
61	52	1.0
61	53	1.0
61	54	1.0
61	55	1.0
61	56	1.0
61	57	1.0
61	58	1.0
61	59	1.0
61	60	1.0
61	62	1.0
61	63	1.0
61	64	1.0
62	0	1.0
62	1	1.0
62	2	1.0
62	3	3823.0
62	4	3823.0
62	5	24854.0
62	6	1.0
62	7	5520.0
62	8	1.0
62	9	53163.0
62	10	320.0
62	11	1.0
62	12	3823.0
62	13	3200.0
62	14	11469.0
62	15	2480.0
62	16	68811.0
62	17	1.0
62	18	5120.0
62	19	1.0
62	20	1.0
62	21	1.0
62	22	1200.0
62	23	74760.0
62	24	3932.0
62	25	1.0
62	26	38228.0
62	27	530853.0
62	28	960.0
62	29	88464.0
62	30	11469.0
62	31	7589.0
62	32	37490.0
62	33	1.0
62	34	5040.0
62	35	1.0
62	36	400.0
62	37	1040.0
62	38	2480.0
62	39	5760.0
62	40	720.0
62	41	12001.0
62	42	1.0
62	43	1.0
62	44	11282.0
62	45	22730.0
62	46	7646.0
62	47	3040.0
62	48	2160.0
62	49	1.0
62	50	3280.0
62	51	560.0
62	52	1.0
62	53	1.0
62	54	15292.0
62	55	480.0
62	56	1.0
62	57	1.0
62	58	87925.0
62	59	1.0
62	60	4160.0
62	61	1.0
62	63	1.0
62	64	5840.0
63	0	1.0
63	1	1.0
63	2	1.0
63	3	1.0
63	4	1.0
63	5	1.0
63	6	1.0
63	7	1.0
63	8	1.0
63	9	1.0
63	10	1.0
63	11	1.0
63	12	1.0
63	13	1.0
63	14	1.0
63	15	1.0
63	16	1.0
63	17	1.0
63	18	1.0
63	19	1.0
63	20	1.0
63	21	1.0
63	22	1.0
63	23	1.0
63	24	1.0
63	25	1.0
63	26	1.0
63	27	1.0
63	28	1.0
63	29	1.0
63	30	1.0
63	31	1.0
63	32	1.0
63	33	1.0
63	34	1.0
63	35	1.0
63	36	1.0
63	37	1.0
63	38	1.0
63	39	1.0
63	40	1.0
63	41	1.0
63	42	1.0
63	43	1.0
63	44	1.0
63	45	1.0
63	46	1.0
63	47	1.0
63	48	1.0
63	49	1.0
63	50	1.0
63	51	1.0
63	52	1.0
63	53	1.0
63	54	1.0
63	55	1.0
63	56	1.0
63	57	1.0
63	58	1.0
63	59	1.0
63	60	1.0
63	61	1.0
63	62	1.0
63	64	1.0
64	0	1.0
64	1	1.0
64	2	1.0
64	3	560.0
64	4	1120.0
64	5	2240.0
64	6	1.0
64	7	2240.0
64	8	1.0
64	9	12640.0
64	10	1.0
64	11	1.0
64	12	18960.0
64	13	3823.0
64	14	5120.0
64	15	2000.0
64	16	2560.0
64	17	1.0
64	18	1840.0
64	19	1.0
64	20	1.0
64	21	1.0
64	22	3200.0
64	23	3200.0
64	24	1120.0
64	25	1.0
64	26	2240.0
64	27	189681.0
64	28	1760.0
64	29	22937.0
64	30	49787.0
64	31	4240.0
64	32	4800.0
64	33	1.0
64	34	2240.0
64	35	1.0
64	36	1040.0
64	37	720.0
64	38	7840.0
64	39	8320.0
64	40	2640.0
64	41	2080.0
64	42	1.0
64	43	1.0
64	44	4160.0
64	45	19114.0
64	46	3760.0
64	47	320.0
64	48	1280.0
64	49	1.0
64	50	1200.0
64	51	640.0
64	52	1.0
64	53	1.0
64	54	6400.0
64	55	1.0
64	56	1.0
64	57	1.0
64	58	5200.0
64	59	1.0
64	60	640.0
64	61	1.0
64	62	5840.0
64	63	1.0
