0	0	1	5
0	0	2	7
0	0	3	5
0	0	4	5
0	0	5	5
0	0	6	6
0	0	7	7
0	0	8	7
0	0	9	6
0	0	10	6
0	0	11	6
0	0	12	5
0	0	13	6
0	0	14	7
0	1	6	6
0	1	9	6
0	1	11	6
0	2	6	6
0	2	9	6
0	2	11	6
0	3	0	3
0	3	4	5
0	3	6	6
0	3	7	7
0	3	8	7
0	3	9	6
0	3	11	6
0	3	14	7
0	4	6	6
0	4	9	6
0	4	11	6
0	5	6	6
0	5	7	7
0	5	8	7
0	5	9	6
0	5	11	6
0	5	14	7
0	6	1	5
0	6	2	7
0	6	3	5
0	6	4	5
0	6	5	5
0	6	7	7
0	6	8	7
0	6	14	7
0	7	3	5
0	7	5	5
0	7	6	6
0	7	9	6
0	7	10	6
0	7	11	6
0	7	12	5
0	7	13	6
0	8	3	5
0	8	5	5
0	8	6	6
0	8	9	6
0	8	10	5
0	8	11	6
0	8	12	5
0	8	13	6
0	9	0	3
0	9	1	5
0	9	2	7
0	9	3	5
0	9	4	5
0	9	5	5
0	9	7	7
0	9	8	7
0	9	14	7
0	10	7	7
0	10	8	7
0	10	14	7
0	11	1	5
0	11	2	7
0	11	3	5
0	11	4	5
0	11	5	5
0	11	7	7
0	11	8	7
0	11	14	7
0	12	7	7
0	12	8	7
0	12	14	7
0	13	2	7
0	13	7	7
0	13	8	7
0	13	14	7
0	14	0	3
0	14	3	5
0	14	5	5
0	14	6	6
0	14	8	7
0	14	9	6
0	14	10	5
0	14	11	6
0	14	12	5
0	14	13	6
1	0	4	4
1	1	0	5
1	1	2	2
1	1	3	5
1	1	4	4
1	1	5	5
1	1	6	5
1	1	7	2
1	1	8	2
1	1	9	5
1	1	10	5
1	1	11	5
1	1	12	5
1	1	13	5
1	1	14	2
1	2	3	5
1	2	4	4
1	2	5	5
1	2	10	5
1	2	12	5
1	2	13	5
1	3	2	2
1	3	4	4
1	4	0	5
1	4	2	2
1	4	3	5
1	4	5	5
1	4	6	5
1	4	7	2
1	4	8	2
1	4	9	5
1	4	10	5
1	4	11	5
1	4	12	5
1	4	13	5
1	4	14	2
1	5	2	2
1	5	4	4
1	6	4	4
1	7	4	4
1	8	4	4
1	9	4	4
1	10	2	2
1	10	4	4
1	11	4	4
1	12	2	2
1	12	4	4
1	13	4	4
1	14	4	4
2	1	7	7
2	1	8	7
2	1	14	7
2	2	0	7
2	2	1	1
2	2	3	1
2	2	4	1
2	2	5	1
2	2	6	7
2	2	7	7
2	2	8	7
2	2	9	7
2	2	10	1
2	2	11	7
2	2	12	1
2	2	13	1
2	2	14	7
2	4	7	7
2	4	8	7
2	4	14	7
2	7	1	1
2	7	4	1
2	8	1	1
2	8	4	1
2	14	1	1
2	14	4	1
4	4	0	1
4	4	1	1
4	4	2	1
4	4	3	1
4	4	5	1
4	4	6	1
4	4	7	1
4	4	8	1
4	4	9	1
4	4	10	1
4	4	11	1
4	4	12	1
4	4	13	1
4	4	14	1
5	0	1	1
5	0	3	3
5	0	4	1
5	0	12	12
5	1	0	0
5	1	3	3
5	1	6	0
5	1	9	0
5	1	10	12
5	1	11	0
5	1	12	12
5	1	13	12
5	2	3	3
5	2	10	12
5	2	12	12
5	2	13	12
5	3	0	0
5	3	1	1
5	3	2	1
5	3	4	1
5	3	6	0
5	3	7	0
5	3	8	0
5	3	9	0
5	3	10	12
5	3	11	0
5	3	12	12
5	3	13	12
5	3	14	0
5	4	0	0
5	4	3	3
5	4	6	0
5	4	9	0
5	4	10	12
5	4	11	0
5	4	12	12
5	4	13	12
5	5	0	0
5	5	1	1
5	5	2	1
5	5	3	3
5	5	4	1
5	5	6	0
5	5	7	0
5	5	8	0
5	5	9	0
5	5	10	12
5	5	11	0
5	5	12	12
5	5	13	12
5	5	14	0
5	6	1	1
5	6	3	3
5	6	4	1
5	7	3	3
5	7	12	12
5	8	3	3
5	8	10	12
5	8	12	12
5	9	1	1
5	9	3	3
5	9	4	1
5	10	0	0
5	10	1	1
5	10	2	1
5	10	3	3
5	10	4	1
5	10	7	0
5	10	14	0
5	11	1	1
5	11	3	3
5	11	4	1
5	11	14	0
5	12	0	0
5	12	1	1
5	12	2	1
5	12	3	3
5	12	4	1
5	12	7	0
5	12	14	0
5	13	1	1
5	13	3	3
5	13	4	1
5	14	3	3
5	14	10	12
5	14	12	12
7	0	2	2
7	0	8	8
7	0	14	14
7	1	8	8
7	1	14	14
7	2	0	0
7	2	6	0
7	2	8	8
7	2	9	0
7	2	11	0
7	2	14	14
7	3	8	8
7	3	14	14
7	4	8	8
7	4	14	14
7	5	8	8
7	5	14	14
7	6	2	2
7	6	8	8
7	6	14	14
7	7	0	0
7	7	1	2
7	7	2	2
7	7	3	0
7	7	4	2
7	7	5	0
7	7	6	0
7	7	8	8
7	7	9	0
7	7	10	0
7	7	11	0
7	7	12	0
7	7	13	0
7	7	14	14
7	8	0	0
7	8	1	2
7	8	2	2
7	8	3	0
7	8	4	2
7	8	5	0
7	8	6	0
7	8	9	0
7	8	10	0
7	8	11	0
7	8	12	0
7	8	13	0
7	8	14	14
7	9	2	2
7	9	8	8
7	9	14	14
7	10	8	8
7	10	14	14
7	11	2	2
7	11	8	8
7	11	14	14
7	12	8	8
7	12	14	14
7	13	2	2
7	13	8	8
7	13	14	14
7	14	0	0
7	14	1	2
7	14	2	2
7	14	3	0
7	14	4	2
7	14	5	0
7	14	6	0
7	14	8	8
7	14	10	0
7	14	12	0
7	14	13	0
8	8	0	7
8	8	1	7
8	8	2	7
8	8	3	7
8	8	4	7
8	8	5	7
8	8	6	7
8	8	7	7
8	8	9	7
8	8	10	7
8	8	11	7
8	8	12	7
8	8	13	7
8	8	14	7
