9779.36
-1
0.00375856
0	1	2	4	5	6	7	8	9	12
32
0	5	12232
0	7	15977
1	4	32521
2	4	16957
2	7	16634
3	4	21862
3	5	19165
4	1	36283
4	2	16541
4	3	18818
5	0	8703
5	3	22519
5	12	13332
6	9	10750
6	13	11152
7	0	22430
7	2	16980
7	14	8896
8	11	6250
8	14	11189
9	6	7141
9	11	7995
10	13	3984
11	8	10446
11	9	4409
12	5	11948
12	13	12465
13	6	14452
13	10	3821
13	12	10246
14	7	14485
14	8	6878
210
0	1	0	7	2	4	1
0	2	0	7	2
0	3	0	5	3
0	4	0	7	2	4
0	5	0	5
0	6	0	5	12	13	6
0	7	0	7
0	8	0	7	14	8
0	9	0	7	14	8	11	9
0	10	0	5	12	13	10
0	11	0	7	14	8	11
0	12	0	5	12
0	13	0	5	12	13
0	14	0	7	14
1	0	1	4	2	7	0
1	2	1	4	2
1	3	1	4	3
1	4	1	4
1	5	1	4	3	5
1	6	1	4	3	5	12	13	6
1	7	1	4	2	7
1	8	1	4	2	7	14	8
1	9	1	4	3	5	12	13	6	9
1	10	1	4	3	5	12	13	10
1	11	1	4	3	5	0	7	14	8	11
1	12	1	4	3	5	12
1	13	1	4	3	5	12	13
1	14	1	4	3	5	0	7	14
2	0	2	7	0
2	1	2	4	1
2	3	2	4	3
2	4	2	4
2	5	2	7	0	5
2	6	2	7	0	5	12	13	6
2	7	2	7
2	8	2	7	14	8
2	9	2	7	14	8	11	9
2	10	2	7	0	5	12	13	10
2	11	2	7	14	8	11
2	12	2	7	0	5	12
2	13	2	7	0	5	12	13
2	14	2	7	14
3	0	3	5	0
3	1	3	4	1
3	2	3	4	2
3	4	3	4
3	5	3	5
3	6	3	5	12	13	6
3	7	3	5	0	7
3	8	3	5	0	7	14	8
3	9	3	5	12	13	6	9
3	10	3	5	12	13	10
3	11	3	5	0	7	14	8	11
3	12	3	5	12
3	13	3	5	12	13
3	14	3	5	0	7	14
4	0	4	2	7	0
4	1	4	1
4	2	4	2
4	3	4	3
4	5	4	3	5
4	6	4	3	5	12	13	6
4	7	4	2	7
4	8	4	2	7	14	8
4	9	4	2	7	14	8	11	9
4	10	4	3	5	12	13	10
4	11	4	2	7	14	8	11
4	12	4	3	5	12
4	13	4	3	5	12	13
4	14	4	2	7	14
5	0	5	0
5	1	5	3	4	1
5	2	5	0	7	2
5	3	5	3
5	4	5	3	4
5	6	5	12	13	6
5	7	5	0	7
5	8	5	0	7	14	8
5	9	5	12	13	6	9
5	10	5	12	13	10
5	11	5	0	7	14	8	11
5	12	5	12
5	13	5	12	13
5	14	5	0	7	14
6	0	6	9	11	8	14	7	0
6	1	6	13	12	5	3	4	1
6	2	6	9	11	8	14	7	2
6	3	6	13	12	5	3
6	4	6	13	12	5	3	4
6	5	6	13	12	5
6	7	6	9	11	8	14	7
6	8	6	9	11	8
6	9	6	9
6	10	6	13	10
6	11	6	9	11
6	12	6	13	12
6	13	6	13
6	14	6	9	11	8	14
7	0	7	0
7	1	7	2	4	1
7	2	7	2
7	3	7	0	5	3
7	4	7	2	4
7	5	7	0	5
7	6	7	0	5	12	13	6
7	8	7	14	8
7	9	7	14	8	11	9
7	10	7	0	5	12	13	10
7	11	7	14	8	11
7	12	7	0	5	12
7	13	7	0	5	12	13
7	14	7	14
8	0	8	14	7	0
8	1	8	14	7	2	4	1
8	2	8	14	7	2
8	3	8	14	7	0	5	3
8	4	8	14	7	2	4
8	5	8	14	7	0	5
8	6	8	11	9	6
8	7	8	14	7
8	9	8	11	9
8	10	8	11	9	6	13	10
8	11	8	11
8	12	8	14	7	0	5	12
8	13	8	11	9	6	13
8	14	8	14
9	0	9	11	8	14	7	0
9	1	9	6	13	12	5	3	4	1
9	2	9	11	8	14	7	2
9	3	9	6	13	12	5	3
9	4	9	6	13	12	5	3	4
9	5	9	6	13	12	5
9	6	9	6
9	7	9	11	8	14	7
9	8	9	11	8
9	10	9	6	13	10
9	11	9	11
9	12	9	6	13	12
9	13	9	6	13
9	14	9	11	8	14
10	0	10	13	6	9	11	8	14	7	0
10	1	10	13	6	13	12	5	3	4	1
10	2	10	13	6	9	11	8	14	7	2
10	3	10	13	6	13	12	5	3
10	4	10	13	6	13	12	5	3	4
10	5	10	13	6	13	12	5
10	6	10	13	6
10	7	10	13	6	9	11	8	14	7
10	8	10	13	6	9	11	8
10	9	10	13	6	9
10	11	10	13	6	9	11
10	12	10	13	6	13	12
10	13	10	13
10	14	10	13	6	9	11	8	14
11	0	11	8	14	7	0
11	1	11	8	14	7	0	5	3	4	1
11	2	11	8	14	7	2
11	3	11	8	14	7	0	5	3
11	4	11	8	14	7	2	4
11	5	11	8	14	7	0	5
11	6	11	9	6
11	7	11	8	14	7
11	8	11	8
11	9	11	9
11	10	11	9	6	13	10
11	12	11	9	6	13	12
11	13	11	9	6	13
11	14	11	8	14
12	0	12	5	0
12	1	12	5	3	4	1
12	2	12	5	0	7	2
12	3	12	5	3
12	4	12	5	3	4
12	5	12	5
12	6	12	13	6
12	7	12	5	0	7
12	8	12	5	0	7	14	8
12	9	12	13	6	9
12	10	12	13	10
12	11	12	13	6	9	11
12	13	12	13
12	14	12	5	0	7	14
13	0	13	6	9	11	8	14	7	0
13	1	13	12	5	3	4	1
13	2	13	6	9	11	8	14	7	2
13	3	13	12	5	3
13	4	13	12	5	3	4
13	5	13	12	5
13	6	13	6
13	7	13	6	9	11	8	14	7
13	8	13	6	9	11	8
13	9	13	6	9
13	10	13	10
13	11	13	6	9	11
13	12	13	12
13	14	13	6	9	11	8	14
14	0	14	7	0
14	1	14	7	0	5	3	4	1
14	2	14	7	2
14	3	14	7	2	4	3
14	4	14	7	2	4
14	5	14	7	0	5
14	6	14	7	0	5	12	13	6
14	7	14	7
14	8	14	8
14	9	14	8	11	9
14	10	14	7	0	5	12	13	10
14	11	14	8	11
14	12	14	7	0	5	12
14	13	14	7	0	5	12	13
9
10	0	6
10	1	6
10	2	6
10	3	6
10	4	6
10	5	6
10	7	6
10	12	6
10	14	6
