9862.02
-1
0.00440738
0	1	2	3	4	5	6	7	8	9	10	11	12	13	14
32
0	7	14979
1	4	32521
2	7	7096
3	4	37910
3	5	35706
4	1	36283
4	3	34450
5	3	39476
5	12	33392
6	9	35994
6	13	37598
7	0	17903
7	2	7026
7	8	27437
8	7	29081
8	9	18950
8	11	13234
8	14	6534
9	6	36330
9	8	18977
9	11	14201
10	12	11097
10	13	9542
11	8	13458
11	9	14587
12	5	35953
12	10	9364
12	13	24972
13	6	36953
13	10	11112
13	12	24965
14	8	7812
210
0	1	0	7	8	9	6	13	12	5	3	4	1
0	2	0	7	2
0	3	0	7	8	9	6	13	12	5	3
0	4	0	7	8	9	6	13	12	5	3	4
0	5	0	7	8	9	6	13	12	5
0	6	0	7	8	9	6
0	7	0	7
0	8	0	7	8
0	9	0	7	8	9
0	10	0	7	8	9	6	13	10
0	11	0	7	8	11
0	12	0	7	8	9	6	13	12
0	13	0	7	8	9	6	13
0	14	0	7	8	14
1	0	1	4	3	5	12	13	6	9	8	7	0
1	2	1	4	3	5	12	13	6	9	8	7	2
1	3	1	4	3
1	4	1	4
1	5	1	4	3	5
1	6	1	4	3	5	12	13	6
1	7	1	4	3	5	12	13	6	9	8	7
1	8	1	4	3	5	12	13	6	9	8
1	9	1	4	3	5	12	13	6	9
1	10	1	4	3	5	12	10
1	11	1	4	3	5	12	13	6	9	11
1	12	1	4	3	5	12
1	13	1	4	3	5	12	13
1	14	1	4	3	5	12	10	13	6	9	11	8	14
2	0	2	7	0
2	1	2	7	8	9	6	13	12	5	3	4	1
2	3	2	7	8	9	6	13	12	5	3
2	4	2	7	8	9	6	13	12	5	3	4
2	5	2	7	8	9	6	13	12	5
2	6	2	7	8	9	6
2	7	2	7
2	8	2	7	8
2	9	2	7	8	9
2	10	2	7	8	9	6	13	10
2	11	2	7	8	11
2	12	2	7	8	9	6	13	12
2	13	2	7	8	9	6	13
2	14	2	7	8	14
3	0	3	5	12	13	6	9	8	7	0
3	1	3	4	1
3	2	3	5	12	13	6	9	11	8	7	2
3	4	3	4
3	5	3	5
3	6	3	5	12	13	6
3	7	3	5	12	13	6	9	11	8	7
3	8	3	5	12	13	6	9	11	8
3	9	3	5	12	13	6	9
3	10	3	5	12	10
3	11	3	5	12	13	6	9	11
3	12	3	5	12
3	13	3	5	12	13
3	14	3	5	12	10	13	6	9	11	8	14
4	0	4	3	5	12	10	13	6	9	11	8	7	0
4	1	4	1
4	2	4	3	5	12	10	13	6	9	11	8	7	2
4	3	4	3
4	5	4	3	5
4	6	4	3	5	12	13	6
4	7	4	3	5	12	13	6	9	11	8	7
4	8	4	3	5	12	10	13	6	9	11	8
4	9	4	3	5	12	13	6	9
4	10	4	3	5	12	10
4	11	4	3	5	12	10	13	6	9	11
4	12	4	3	5	12
4	13	4	3	5	12	13
4	14	4	3	5	12	10	13	6	9	11	8	14
5	0	5	12	10	13	6	9	11	8	7	0
5	1	5	3	4	1
5	2	5	12	10	13	6	9	11	8	7	2
5	3	5	3
5	4	5	3	4
5	6	5	12	13	6
5	7	5	12	10	13	6	9	11	8	7
5	8	5	12	10	13	6	9	11	8
5	9	5	12	13	6	9
5	10	5	12	10
5	11	5	12	10	13	6	9	11
5	12	5	12
5	13	5	12	13
5	14	5	12	10	13	6	9	11	8	14
6	0	6	9	11	8	7	0
6	1	6	13	12	5	3	4	1
6	2	6	9	8	7	2
6	3	6	13	12	5	3
6	4	6	13	12	5	3	4
6	5	6	13	12	5
6	7	6	9	8	7
6	8	6	9	8
6	9	6	9
6	10	6	13	10
6	11	6	9	11
6	12	6	13	12
6	13	6	13
6	14	6	9	8	14
7	0	7	0
7	1	7	8	11	9	6	13	10	12	5	3	4	1
7	2	7	2
7	3	7	8	9	6	13	12	5	3
7	4	7	8	9	6	13	12	5	3	4
7	5	7	8	11	9	6	13	12	5
7	6	7	8	9	6
7	8	7	8
7	9	7	8	9
7	10	7	8	9	6	13	10
7	11	7	8	11
7	12	7	8	11	9	6	13	12
7	13	7	8	9	6	13
7	14	7	8	14
8	0	8	7	0
8	1	8	11	9	6	13	12	5	3	4	1
8	2	8	7	2
8	3	8	9	6	13	12	5	3
8	4	8	11	9	6	13	12	5	3	4
8	5	8	11	9	6	13	12	5
8	6	8	9	6
8	7	8	7
8	9	8	9
8	10	8	9	6	13	10
8	11	8	11
8	12	8	9	6	13	12
8	13	8	9	6	13
8	14	8	14
9	0	9	8	7	0
9	1	9	6	13	12	5	3	4	1
9	2	9	8	7	2
9	3	9	6	13	12	5	3
9	4	9	6	13	12	5	3	4
9	5	9	6	13	12	5
9	6	9	6
9	7	9	8	7
9	8	9	8
9	10	9	6	13	10
9	11	9	11
9	12	9	6	13	12
9	13	9	6	13
9	14	9	8	14
10	0	10	13	6	9	11	8	7	0
10	1	10	12	5	3	4	1
10	2	10	13	6	9	11	8	7	2
10	3	10	12	5	3
10	4	10	12	5	3	4
10	5	10	12	5
10	6	10	13	6
10	7	10	13	6	9	11	8	7
10	8	10	13	6	9	8
10	9	10	13	6	9
10	11	10	13	6	9	11
10	12	10	12
10	13	10	13
10	14	10	13	6	9	8	14
11	0	11	8	7	0
11	1	11	9	6	13	12	5	3	4	1
11	2	11	8	7	2
11	3	11	9	6	13	12	5	3
11	4	11	9	6	13	12	5	3	4
11	5	11	9	6	13	10	12	5
11	6	11	9	6
11	7	11	8	7
11	8	11	8
11	9	11	9
11	10	11	9	6	13	10
11	12	11	9	6	13	12
11	13	11	9	6	13
11	14	11	8	14
12	0	12	10	13	6	9	11	8	7	0
12	1	12	5	3	4	1
12	2	12	10	13	6	9	11	8	7	2
12	3	12	5	3
12	4	12	5	3	4
12	5	12	5
12	6	12	13	6
12	7	12	10	13	6	9	11	8	7
12	8	12	13	6	9	8
12	9	12	13	6	9
12	10	12	10
12	11	12	13	6	9	11
12	13	12	13
12	14	12	10	13	6	9	11	8	14
13	0	13	6	9	11	8	7	0
13	1	13	12	5	3	4	1
13	2	13	6	9	11	8	7	2
13	3	13	12	5	3
13	4	13	12	5	3	4
13	5	13	12	5
13	6	13	6
13	7	13	6	9	8	7
13	8	13	6	9	8
13	9	13	6	9
13	10	13	10
13	11	13	6	9	11
13	12	13	12
13	14	13	6	9	8	14
14	0	14	8	7	0
14	1	14	8	11	9	6	13	10	12	5	3	4	1
14	2	14	8	7	2
14	3	14	8	11	9	6	13	10	12	5	3
14	4	14	8	11	9	6	13	10	12	5	3	4
14	5	14	8	11	9	6	13	10	12	5
14	6	14	8	9	6
14	7	14	8	7
14	8	14	8
14	9	14	8	9
14	10	14	8	11	9	6	13	10
14	11	14	8	11
14	12	14	8	11	9	6	13	10	12
14	13	14	8	9	6	13
0
