8119.59
-1
0.00125493
5
44
0	5	85210.2
0	6	38318.2
0	7	29934.5
1	2	53660.8
1	4	15998
1	5	95156.8
2	1	63246.2
2	4	5020.75
2	7	54454
3	4	21175.5
3	5	20434.5
4	1	20838.2
4	2	5082.5
4	3	17708
5	0	86948.8
5	1	98600.5
5	3	25374.5
5	12	27683
6	0	43994.5
6	9	37306.5
6	13	25113.2
7	0	36408.8
7	2	63645.2
7	8	19137.8
7	14	20847.8
8	7	23313
8	9	8811.25
8	11	18202
8	14	10188.8
9	6	36793.5
9	8	10359.8
9	11	8312.5
10	12	12616
10	13	6308
11	8	19954.8
11	9	9457.25
12	5	32062.5
12	10	11789.5
12	13	12117.2
13	6	29834.8
13	10	6360.25
13	12	11704
14	7	26590.5
14	8	10516.5
210
0	1	0	5	1
0	2	0	7	2
0	3	0	5	3
0	4	0	5	3	4
0	5	0	5
0	6	0	6
0	7	0	7
0	8	0	7	8
0	9	0	6	9
0	10	0	5	12	10
0	11	0	7	8	11
0	12	0	5	12
0	13	0	6	13
0	14	0	7	14
1	0	1	5	0
1	2	1	2
1	3	1	4	3
1	4	1	4
1	5	1	5
1	6	1	5	0	6
1	7	1	2	7
1	8	1	2	7	8
1	9	1	5	0	6	9
1	10	1	5	12	10
1	11	1	2	7	8	11
1	12	1	5	12
1	13	1	5	12	13
1	14	1	2	7	14
2	0	2	7	0
2	1	2	1
2	3	2	4	3
2	4	2	4
2	5	2	1	5
2	6	2	7	0	6
2	7	2	7
2	8	2	7	8
2	9	2	7	8	9
2	10	2	1	5	12	10
2	11	2	7	8	11
2	12	2	1	5	12
2	13	2	1	5	12	13
2	14	2	7	14
3	0	3	5	0
3	1	3	4	1
3	2	3	4	2
3	4	3	4
3	5	3	5
3	6	3	5	0	6
3	7	3	5	0	7
3	8	3	5	0	7	8
3	9	3	5	0	6	9
3	10	3	5	12	10
3	11	3	5	0	7	8	11
3	12	3	5	12
3	13	3	5	12	13
3	14	3	5	0	7	14
4	0	4	1	5	0
4	1	4	1
4	2	4	2
4	3	4	3
4	5	4	1	5
4	6	4	1	5	0	6
4	7	4	2	7
4	8	4	2	7	8
4	9	4	2	7	8	9
4	10	4	1	5	12	10
4	11	4	2	7	8	11
4	12	4	1	5	12
4	13	4	1	5	12	13
4	14	4	2	7	14
5	0	5	0
5	1	5	1
5	2	5	1	2
5	3	5	3
5	4	5	1	4
5	6	5	0	6
5	7	5	0	7
5	8	5	0	7	8
5	9	5	0	6	9
5	10	5	12	10
5	11	5	0	7	8	11
5	12	5	12
5	13	5	12	13
5	14	5	0	7	14
6	0	6	0
6	1	6	0	5	1
6	2	6	0	7	2
6	3	6	0	5	3
6	4	6	0	5	1	4
6	5	6	0	5
6	7	6	0	7
6	8	6	9	8
6	9	6	9
6	10	6	13	10
6	11	6	9	11
6	12	6	13	12
6	13	6	13
6	14	6	9	8	14
7	0	7	0
7	1	7	2	1
7	2	7	2
7	3	7	0	5	3
7	4	7	2	4
7	5	7	0	5
7	6	7	0	6
7	8	7	8
7	9	7	8	9
7	10	7	0	5	12	10
7	11	7	8	11
7	12	7	0	5	12
7	13	7	0	6	13
7	14	7	14
8	0	8	7	0
8	1	8	7	2	1
8	2	8	7	2
8	3	8	7	0	5	3
8	4	8	7	2	4
8	5	8	7	0	5
8	6	8	9	6
8	7	8	7
8	9	8	9
8	10	8	9	6	13	10
8	11	8	11
8	12	8	7	0	5	12
8	13	8	9	6	13
8	14	8	14
9	0	9	6	0
9	1	9	6	0	5	1
9	2	9	8	7	2
9	3	9	6	0	5	3
9	4	9	8	7	2	4
9	5	9	6	0	5
9	6	9	6
9	7	9	8	7
9	8	9	8
9	10	9	6	13	10
9	11	9	11
9	12	9	6	13	12
9	13	9	6	13
9	14	9	8	14
10	0	10	12	5	0
10	1	10	12	5	1
10	2	10	12	5	1	2
10	3	10	12	5	3
10	4	10	12	5	1	4
10	5	10	12	5
10	6	10	13	6
10	7	10	12	5	0	7
10	8	10	13	6	9	8
10	9	10	13	6	9
10	11	10	13	6	9	11
10	12	10	12
10	13	10	13
10	14	10	12	5	0	7	14
11	0	11	8	7	0
11	1	11	8	7	2	1
11	2	11	8	7	2
11	3	11	8	7	0	5	3
11	4	11	8	7	2	4
11	5	11	8	7	0	5
11	6	11	9	6
11	7	11	8	7
11	8	11	8
11	9	11	9
11	10	11	9	6	13	10
11	12	11	9	6	13	12
11	13	11	9	6	13
11	14	11	8	14
12	0	12	5	0
12	1	12	5	1
12	2	12	5	1	2
12	3	12	5	3
12	4	12	5	1	4
12	5	12	5
12	6	12	13	6
12	7	12	5	0	7
12	8	12	13	6	9	8
12	9	12	13	6	9
12	10	12	10
12	11	12	13	6	9	11
12	13	12	13
12	14	12	5	0	7	14
13	0	13	6	0
13	1	13	12	5	1
13	2	13	6	0	7	2
13	3	13	12	5	3
13	4	13	12	5	1	4
13	5	13	12	5
13	6	13	6
13	7	13	6	0	7
13	8	13	6	9	8
13	9	13	6	9
13	10	13	10
13	11	13	6	9	11
13	12	13	12
13	14	13	6	9	8	14
14	0	14	7	0
14	1	14	7	2	1
14	2	14	7	2
14	3	14	7	0	5	3
14	4	14	7	2	4
14	5	14	7	0	5
14	6	14	7	0	6
14	7	14	7
14	8	14	8
14	9	14	8	9
14	10	14	7	0	5	12	10
14	11	14	8	11
14	12	14	7	0	5	12
14	13	14	7	0	6	13
0
