7011.89
0.0481381
3603.36
0	3	5	8	12	13
30
0	6	108000
0	7	65000
1	2	134000
1	4	44000
1	5	212000
2	1	134000
2	4	17000
2	7	134000
3	4	38000
4	1	44000
4	2	17000
4	3	38000
5	1	212000
6	0	108000
6	9	90000
6	13	63000
7	0	65000
7	2	134000
7	8	38000
7	14	56000
8	7	38000
9	6	90000
9	11	32000
10	12	25000
11	9	32000
12	10	25000
12	13	25000
13	6	63000
13	12	25000
14	7	56000
210
0	1	0	7	2	1
0	2	0	7	2
0	3	0	7	2	1	4	3
0	4	0	7	2	1	4
0	5	0	7	2	1	5
0	6	0	6
0	7	0	7
0	8	0	7	8
0	9	0	6	9
0	10	0	6	13	12	10
0	11	0	6	9	11
0	12	0	6	13	12
0	13	0	6	13
0	14	0	7	14
1	0	1	5	1	2	7	0
1	2	1	2
1	3	1	4	3
1	4	1	4
1	5	1	5
1	6	1	5	1	2	7	0	6
1	7	1	2	7
1	8	1	2	7	8
1	9	1	5	1	2	7	14	7	0	6	9
1	10	1	5	1	2	7	0	6	13	12	10
1	11	1	2	7	8	7	0	6	9	11
1	12	1	5	1	2	7	0	6	13	12
1	13	1	5	1	2	7	0	6	13
1	14	1	2	7	14
2	0	2	7	0
2	1	2	1
2	3	2	4	3
2	4	2	4
2	5	2	1	5
2	6	2	7	0	6
2	7	2	7
2	8	2	7	8
2	9	2	7	8	7	0	6	9
2	10	2	1	5	1	2	7	0	6	13	12	10
2	11	2	7	8	7	0	6	9	11
2	12	2	1	5	1	2	7	0	6	13	12
2	13	2	1	5	1	2	7	0	6	13
2	14	2	7	14
3	0	3	4	1	5	1	2	7	0
3	1	3	4	1
3	2	3	4	1	2
3	4	3	4
3	5	3	4	1	5
3	6	3	4	1	5	1	2	7	0	6
3	7	3	4	1	2	7
3	8	3	4	1	2	7	8
3	9	3	4	1	5	1	2	7	14	7	0	6	9
3	10	3	4	1	5	1	2	7	0	6	13	12	10
3	11	3	4	1	5	1	2	7	14	7	0	6	9	11
3	12	3	4	1	5	1	2	7	0	6	13	12
3	13	3	4	1	5	1	2	7	0	6	13
3	14	3	4	1	2	7	14
4	0	4	1	5	1	2	7	0
4	1	4	1
4	2	4	2
4	3	4	3
4	5	4	1	5
4	6	4	1	5	1	2	7	0	6
4	7	4	2	7
4	8	4	2	7	8
4	9	4	2	7	8	7	0	6	9
4	10	4	1	5	1	2	7	0	6	13	12	10
4	11	4	2	7	8	7	0	6	9	11
4	12	4	1	5	1	2	7	0	6	13	12
4	13	4	1	5	1	2	7	0	6	13
4	14	4	2	7	14
5	0	5	1	2	7	0
5	1	5	1
5	2	5	1	2
5	3	5	1	4	3
5	4	5	1	4
5	6	5	1	2	7	0	6
5	7	5	1	2	7
5	8	5	1	2	7	8
5	9	5	1	2	7	14	7	0	6	9
5	10	5	1	2	7	0	6	13	12	10
5	11	5	1	2	7	14	7	0	6	9	11
5	12	5	1	2	7	0	6	13	12
5	13	5	1	2	7	0	6	13
5	14	5	1	2	7	14
6	0	6	0
6	1	6	0	7	2	1
6	2	6	0	7	2
6	3	6	0	7	2	1	4	3
6	4	6	0	7	2	1	4
6	5	6	0	7	2	1	5
6	7	6	0	7
6	8	6	9	6	0	7	8
6	9	6	9
6	10	6	13	12	10
6	11	6	9	11
6	12	6	13	12
6	13	6	13
6	14	6	9	6	0	7	14
7	0	7	0
7	1	7	2	1
7	2	7	2
7	3	7	0	7	2	1	4	3
7	4	7	2	4
7	5	7	0	7	2	1	5
7	6	7	0	6
7	8	7	8
7	9	7	8	7	0	6	9
7	10	7	0	6	13	12	10
7	11	7	8	7	0	6	9	11
7	12	7	0	6	13	12
7	13	7	0	6	13
7	14	7	14
8	0	8	7	0
8	1	8	7	2	1
8	2	8	7	2
8	3	8	7	2	1	4	3
8	4	8	7	2	1	4
8	5	8	7	2	1	5
8	6	8	7	0	6
8	7	8	7
8	9	8	7	0	6	9
8	10	8	7	0	6	13	12	10
8	11	8	7	0	6	9	11
8	12	8	7	0	6	13	12
8	13	8	7	0	6	13
8	14	8	7	14
9	0	9	6	0
9	1	9	6	0	7	2	1
9	2	9	6	0	7	2
9	3	9	6	0	7	2	1	4	3
9	4	9	6	0	7	2	1	4
9	5	9	6	0	7	2	1	5
9	6	9	6
9	7	9	6	0	7
9	8	9	6	0	7	8
9	10	9	6	13	12	10
9	11	9	11
9	12	9	6	13	12
9	13	9	6	13
9	14	9	6	0	7	14
10	0	10	12	13	6	0
10	1	10	12	13	6	0	7	2	1
10	2	10	12	13	6	0	7	2
10	3	10	12	13	6	0	7	2	1	4	3
10	4	10	12	13	6	0	7	2	1	4
10	5	10	12	13	6	0	7	2	1	5
10	6	10	12	13	6
10	7	10	12	13	6	0	7
10	8	10	12	13	6	0	7	8
10	9	10	12	13	6	9
10	11	10	12	13	6	9	11
10	12	10	12
10	13	10	12	13
10	14	10	12	13	6	0	7	14
11	0	11	9	6	0
11	1	11	9	6	0	7	2	1
11	2	11	9	6	0	7	2
11	3	11	9	6	0	7	2	1	4	3
11	4	11	9	6	0	7	2	1	4
11	5	11	9	6	0	7	2	1	5
11	6	11	9	6
11	7	11	9	6	0	7
11	8	11	9	6	0	7	8
11	9	11	9
11	10	11	9	6	13	12	10
11	12	11	9	6	13	12
11	13	11	9	6	13
11	14	11	9	6	0	7	14
12	0	12	13	6	0
12	1	12	13	6	0	7	2	1
12	2	12	13	6	0	7	2
12	3	12	13	6	0	7	2	1	4	3
12	4	12	13	6	0	7	2	1	4
12	5	12	13	6	0	7	2	1	5
12	6	12	13	6
12	7	12	13	6	0	7
12	8	12	13	6	0	7	8
12	9	12	13	6	9
12	10	12	10
12	11	12	13	6	9	11
12	13	12	13
12	14	12	13	6	0	7	14
13	0	13	6	0
13	1	13	6	0	7	2	1
13	2	13	6	0	7	2
13	3	13	6	0	7	2	1	4	3
13	4	13	6	0	7	2	1	4
13	5	13	6	0	7	2	1	5
13	6	13	6
13	7	13	6	0	7
13	8	13	6	0	7	8
13	9	13	6	9
13	10	13	12	10
13	11	13	6	9	11
13	12	13	12
13	14	13	6	0	7	14
14	0	14	7	0
14	1	14	7	2	1
14	2	14	7	2
14	3	14	7	0	7	2	1	4	3
14	4	14	7	2	4
14	5	14	7	0	7	2	1	5
14	6	14	7	0	6
14	7	14	7
14	8	14	7	8
14	9	14	7	0	6	9
14	10	14	7	0	6	13	12	10
14	11	14	7	0	6	9	11
14	12	14	7	0	6	13	12
14	13	14	7	0	6	13
68
0	3	1
0	4	1
0	5	0
0	8	0
0	11	0
0	14	0
5	0	1
5	6	0
5	9	2
14	9	1
5	10	1
8	11	1
5	12	1
5	13	1
8	9	1
3	2	0
3	7	0
3	8	0
3	9	1
13	10	0
3	11	1
5	11	2
14	11	0
3	12	0
3	14	0
0	1	0
0	2	0
9	8	0
9	14	0
8	0	0
8	2	0
8	3	0
8	4	0
8	5	0
8	10	2
8	13	1
9	2	0
9	4	0
9	7	0
12	1	2
13	2	0
13	3	3
12	4	0
12	5	0
10	6	0
12	6	0
12	7	0
10	8	3
10	9	0
12	9	0
10	11	0
12	11	0
10	13	0
13	14	0
11	0	0
11	1	0
11	2	0
11	3	0
11	4	0
11	5	0
11	7	0
11	8	0
11	14	0
13	8	0
12	14	2
13	5	0
14	8	0
0	12	0
