26747.7
-1
1.67091
0	1	2	3	4	5	6	8	9	10	11	13	14	16	18	19	21	22	23	24	25	27	28	31	32	34	37	38	43	44	45	48	49
102
0	48	175
1	47	187.5
1	49	262.5
2	37	135
3	20	145
3	32	585
4	22	365
4	44	662.5
5	21	460
5	22	937.5
5	25	1260
5	32	582.5
6	7	292.5
6	22	452.5
7	6	262.5
7	15	177.5
8	13	162.5
9	16	340
9	33	262.5
10	14	795
10	25	1337.5
10	35	317.5
10	44	720
11	13	197.5
12	14	912.5
12	29	480
13	8	147.5
13	11	185
13	25	752.5
13	31	190
14	10	1565
14	12	342.5
14	48	560
15	7	177.5
16	9	480
16	18	930
16	28	442.5
17	24	370
17	30	315
18	16	697.5
18	25	1137.5
18	49	1947.5
19	25	137.5
20	3	140
21	5	590
21	27	185
22	4	630
22	5	512.5
22	6	457.5
23	28	137.5
24	17	472.5
24	45	497.5
25	5	1295
25	10	847.5
25	13	595
25	18	1680
25	19	180
26	30	162.5
27	21	167.5
28	16	902.5
28	23	145
28	44	435
28	46	337.5
29	12	590
30	17	270
30	26	185
31	13	292.5
32	3	305
32	5	875
32	43	150
33	9	187.5
34	37	270
35	10	297.5
35	39	177.5
36	48	142.5
37	2	177.5
37	34	317.5
37	41	302.5
37	49	647.5
38	48	142.5
39	35	137.5
40	41	132.5
41	37	247.5
41	40	142.5
42	46	160
43	32	177.5
44	4	490
44	10	387.5
44	28	940
45	24	740
45	49	795
46	28	262.5
46	42	205
47	1	137.5
48	0	157.5
48	14	565
48	36	155
48	38	145
49	1	410
49	18	1202.5
49	37	1057.5
49	45	880
2450
0	1	0	48	14	10	25	18	49	1
0	2	0	48	14	10	25	18	49	37	2
0	3	0	48	14	10	25	5	32	3
0	4	0	48	14	10	44	4
0	5	0	48	14	10	25	5
0	6	0	48	14	10	25	5	22	6
0	7	0	48	14	10	25	5	22	6	7
0	8	0	48	14	10	25	13	8
0	9	0	48	14	10	44	28	16	9
0	10	0	48	14	10
0	11	0	48	14	10	25	13	11
0	12	0	48	14	12
0	13	0	48	14	10	25	13
0	14	0	48	14
0	15	0	48	14	10	25	5	22	6	7	15
0	16	0	48	14	10	44	28	16
0	17	0	48	14	10	25	18	49	45	24	17
0	18	0	48	14	10	25	18
0	19	0	48	14	10	25	19
0	20	0	48	14	10	25	5	32	3	20
0	21	0	48	14	10	25	5	21
0	22	0	48	14	10	44	4	22
0	23	0	48	14	10	44	28	23
0	24	0	48	14	10	25	18	49	45	24
0	25	0	48	14	10	25
0	26	0	48	14	10	25	18	49	45	24	17	30	26
0	27	0	48	14	10	25	5	21	27
0	28	0	48	14	10	44	28
0	29	0	48	14	12	29
0	30	0	48	14	10	25	18	49	45	24	17	30
0	31	0	48	14	10	25	13	31
0	32	0	48	14	10	25	5	32
0	33	0	48	14	10	44	28	16	9	33
0	34	0	48	14	10	25	18	49	37	34
0	35	0	48	14	10	35
0	36	0	48	36
0	37	0	48	14	10	25	18	49	37
0	38	0	48	38
0	39	0	48	14	10	35	39
0	40	0	48	14	10	25	18	49	37	41	40
0	41	0	48	14	10	25	18	49	37	41
0	42	0	48	14	10	44	28	46	42
0	43	0	48	14	10	25	5	32	43
0	44	0	48	14	10	44
0	45	0	48	14	10	25	18	49	45
0	46	0	48	14	10	44	28	46
0	47	0	48	14	10	25	18	49	1	47
0	48	0	48
0	49	0	48	14	10	25	18	49
1	0	1	49	18	25	10	14	48	0
1	2	1	49	37	2
1	3	1	49	18	25	5	32	3
1	4	1	49	18	16	28	44	4
1	5	1	49	18	25	5
1	6	1	49	18	25	5	22	6
1	7	1	49	18	25	5	22	6	7
1	8	1	49	18	25	13	8
1	9	1	49	18	16	9
1	10	1	49	18	25	10
1	11	1	49	18	25	13	11
1	12	1	49	18	25	10	14	12
1	13	1	49	18	25	13
1	14	1	49	18	25	10	14
1	15	1	49	18	25	5	22	6	7	15
1	16	1	49	18	16
1	17	1	49	45	24	17
1	18	1	49	18
1	19	1	49	18	25	19
1	20	1	49	18	25	5	32	3	20
1	21	1	49	18	25	5	21
1	22	1	49	18	25	5	22
1	23	1	49	18	16	28	23
1	24	1	49	45	24
1	25	1	49	18	25
1	26	1	49	45	24	17	30	26
1	27	1	49	18	25	5	21	27
1	28	1	49	18	16	28
1	29	1	49	18	25	10	14	12	29
1	30	1	49	45	24	17	30
1	31	1	49	18	25	13	31
1	32	1	49	18	25	5	32
1	33	1	49	18	16	9	33
1	34	1	49	37	34
1	35	1	49	18	25	10	35
1	36	1	49	18	25	10	14	48	36
1	37	1	49	37
1	38	1	49	18	25	10	14	48	38
1	39	1	49	18	25	10	35	39
1	40	1	49	37	41	40
1	41	1	49	37	41
1	42	1	49	18	16	28	46	42
1	43	1	49	18	25	5	32	43
1	44	1	49	18	16	28	44
1	45	1	49	45
1	46	1	49	18	16	28	46
1	47	1	47
1	48	1	49	18	25	10	14	48
1	49	1	49
2	0	2	37	49	18	25	10	14	48	0
2	1	2	37	49	1
2	3	2	37	49	18	25	5	32	3
2	4	2	37	49	18	16	28	44	4
2	5	2	37	49	18	25	5
2	6	2	37	49	18	25	5	22	6
2	7	2	37	49	18	25	5	22	6	7
2	8	2	37	49	18	25	13	8
2	9	2	37	49	18	16	9
2	10	2	37	49	18	25	10
2	11	2	37	49	18	25	13	11
2	12	2	37	49	18	25	10	14	12
2	13	2	37	49	18	25	13
2	14	2	37	49	18	25	10	14
2	15	2	37	49	18	25	5	22	6	7	15
2	16	2	37	49	18	16
2	17	2	37	49	45	24	17
2	18	2	37	49	18
2	19	2	37	49	18	25	19
2	20	2	37	49	18	25	5	32	3	20
2	21	2	37	49	18	25	5	21
2	22	2	37	49	18	25	5	22
2	23	2	37	49	18	16	28	23
2	24	2	37	49	45	24
2	25	2	37	49	18	25
2	26	2	37	49	45	24	17	30	26
2	27	2	37	49	18	25	5	21	27
2	28	2	37	49	18	16	28
2	29	2	37	49	18	25	10	14	12	29
2	30	2	37	49	45	24	17	30
2	31	2	37	49	18	25	13	31
2	32	2	37	49	18	25	5	32
2	33	2	37	49	18	16	9	33
2	34	2	37	34
2	35	2	37	49	18	25	10	35
2	36	2	37	49	18	25	10	14	48	36
2	37	2	37
2	38	2	37	49	18	25	10	14	48	38
2	39	2	37	49	18	25	10	35	39
2	40	2	37	41	40
2	41	2	37	41
2	42	2	37	49	18	16	28	46	42
2	43	2	37	49	18	25	5	32	43
2	44	2	37	49	18	16	28	44
2	45	2	37	49	45
2	46	2	37	49	18	16	28	46
2	47	2	37	49	1	47
2	48	2	37	49	18	25	10	14	48
2	49	2	37	49
3	0	3	32	5	25	10	14	48	0
3	1	3	32	5	25	18	49	1
3	2	3	32	5	25	18	49	37	2
3	4	3	32	5	22	4
3	5	3	32	5
3	6	3	32	5	22	6
3	7	3	32	5	22	6	7
3	8	3	32	5	25	13	8
3	9	3	32	5	25	18	16	9
3	10	3	32	5	25	10
3	11	3	32	5	25	13	11
3	12	3	32	5	25	10	14	12
3	13	3	32	5	25	13
3	14	3	32	5	25	10	14
3	15	3	32	5	22	6	7	15
3	16	3	32	5	25	18	16
3	17	3	32	5	25	18	49	45	24	17
3	18	3	32	5	25	18
3	19	3	32	5	25	19
3	20	3	20
3	21	3	32	5	21
3	22	3	32	5	22
3	23	3	32	5	22	4	44	28	23
3	24	3	32	5	25	18	49	45	24
3	25	3	32	5	25
3	26	3	32	5	25	18	49	45	24	17	30	26
3	27	3	32	5	21	27
3	28	3	32	5	22	4	44	28
3	29	3	32	5	25	10	14	12	29
3	30	3	32	5	25	18	49	45	24	17	30
3	31	3	32	5	25	13	31
3	32	3	32
3	33	3	32	5	25	18	16	9	33
3	34	3	32	5	25	18	49	37	34
3	35	3	32	5	25	10	35
3	36	3	32	5	25	10	14	48	36
3	37	3	32	5	25	18	49	37
3	38	3	32	5	25	10	14	48	38
3	39	3	32	5	25	10	35	39
3	40	3	32	5	25	18	49	37	41	40
3	41	3	32	5	25	18	49	37	41
3	42	3	32	5	25	18	16	28	46	42
3	43	3	32	43
3	44	3	32	5	22	4	44
3	45	3	32	5	25	18	49	45
3	46	3	32	5	25	18	16	28	46
3	47	3	32	5	25	18	49	1	47
3	48	3	32	5	25	10	14	48
3	49	3	32	5	25	18	49
4	0	4	44	10	14	48	0
4	1	4	44	28	16	18	49	1
4	2	4	44	28	16	18	49	37	2
4	3	4	22	5	32	3
4	5	4	22	5
4	6	4	22	6
4	7	4	22	6	7
4	8	4	44	10	25	13	8
4	9	4	44	28	16	9
4	10	4	44	10
4	11	4	44	10	25	13	11
4	12	4	44	10	14	12
4	13	4	44	10	25	13
4	14	4	44	10	14
4	15	4	22	6	7	15
4	16	4	44	28	16
4	17	4	44	28	16	18	49	45	24	17
4	18	4	44	28	16	18
4	19	4	44	10	25	19
4	20	4	22	5	32	3	20
4	21	4	22	5	21
4	22	4	22
4	23	4	44	28	23
4	24	4	44	28	16	18	49	45	24
4	25	4	44	10	25
4	26	4	44	28	16	18	49	45	24	17	30	26
4	27	4	22	5	21	27
4	28	4	44	28
4	29	4	44	10	14	12	29
4	30	4	44	28	16	18	49	45	24	17	30
4	31	4	44	10	25	13	31
4	32	4	22	5	32
4	33	4	44	28	16	9	33
4	34	4	44	28	16	18	49	37	34
4	35	4	44	10	35
4	36	4	44	10	14	48	36
4	37	4	44	28	16	18	49	37
4	38	4	44	10	14	48	38
4	39	4	44	10	35	39
4	40	4	44	28	16	18	49	37	41	40
4	41	4	44	28	16	18	49	37	41
4	42	4	44	28	46	42
4	43	4	22	5	32	43
4	44	4	44
4	45	4	44	28	16	18	49	45
4	46	4	44	28	46
4	47	4	44	28	16	18	49	1	47
4	48	4	44	10	14	48
4	49	4	44	28	16	18	49
5	0	5	25	10	14	48	0
5	1	5	25	18	49	1
5	2	5	25	18	49	37	2
5	3	5	32	3
5	4	5	22	4
5	6	5	22	6
5	7	5	22	6	7
5	8	5	25	13	8
5	9	5	25	18	16	9
5	10	5	25	10
5	11	5	25	13	11
5	12	5	25	10	14	12
5	13	5	25	13
5	14	5	25	10	14
5	15	5	22	6	7	15
5	16	5	25	18	16
5	17	5	25	18	49	45	24	17
5	18	5	25	18
5	19	5	25	19
5	20	5	32	3	20
5	21	5	21
5	22	5	22
5	23	5	25	18	16	28	23
5	24	5	25	18	49	45	24
5	25	5	25
5	26	5	25	18	49	45	24	17	30	26
5	27	5	21	27
5	28	5	25	18	16	28
5	29	5	25	10	14	12	29
5	30	5	25	18	49	45	24	17	30
5	31	5	25	13	31
5	32	5	32
5	33	5	25	18	16	9	33
5	34	5	25	18	49	37	34
5	35	5	25	10	35
5	36	5	25	10	14	48	36
5	37	5	25	18	49	37
5	38	5	25	10	14	48	38
5	39	5	25	10	35	39
5	40	5	25	18	49	37	41	40
5	41	5	25	18	49	37	41
5	42	5	25	18	16	28	46	42
5	43	5	32	43
5	44	5	22	4	44
5	45	5	25	18	49	45
5	46	5	25	18	16	28	46
5	47	5	25	18	49	1	47
5	48	5	25	10	14	48
5	49	5	25	18	49
6	0	6	22	4	44	10	14	48	0
6	1	6	22	5	25	18	49	1
6	2	6	22	5	25	18	49	37	2
6	3	6	22	5	32	3
6	4	6	22	4
6	5	6	22	5
6	7	6	7
6	8	6	22	5	25	13	8
6	9	6	22	4	44	28	16	9
6	10	6	22	4	44	10
6	11	6	22	5	25	13	11
6	12	6	22	4	44	10	14	12
6	13	6	22	5	25	13
6	14	6	22	4	44	10	14
6	15	6	7	15
6	16	6	22	4	44	28	16
6	17	6	22	5	25	18	49	45	24	17
6	18	6	22	5	25	18
6	19	6	22	5	25	19
6	20	6	22	5	32	3	20
6	21	6	22	5	21
6	22	6	22
6	23	6	22	4	44	28	23
6	24	6	22	5	25	18	49	45	24
6	25	6	22	5	25
6	26	6	22	5	25	18	49	45	24	17	30	26
6	27	6	22	5	21	27
6	28	6	22	4	44	28
6	29	6	22	4	44	10	14	12	29
6	30	6	22	5	25	18	49	45	24	17	30
6	31	6	22	5	25	13	31
6	32	6	22	5	32
6	33	6	22	4	44	28	16	9	33
6	34	6	22	5	25	18	49	37	34
6	35	6	22	5	25	10	35
6	36	6	22	4	44	10	14	48	36
6	37	6	22	5	25	18	49	37
6	38	6	22	5	25	10	14	48	38
6	39	6	22	4	44	10	35	39
6	40	6	22	5	25	18	49	37	41	40
6	41	6	22	5	25	18	49	37	41
6	42	6	22	4	44	28	46	42
6	43	6	22	5	32	43
6	44	6	22	4	44
6	45	6	22	5	25	18	49	45
6	46	6	22	4	44	28	46
6	47	6	22	5	25	18	49	1	47
6	48	6	22	5	25	10	14	48
6	49	6	22	5	25	18	49
7	0	7	6	22	4	44	10	14	48	0
7	1	7	6	22	5	25	18	49	1
7	2	7	15	7	6	22	5	25	18	49	37	2
7	3	7	15	7	6	22	5	32	3
7	4	7	6	22	4
7	5	7	6	22	5
7	6	7	6
7	8	7	15	7	6	22	5	25	13	8
7	9	7	6	22	4	44	28	16	9
7	10	7	6	22	5	25	10
7	11	7	15	7	6	22	5	25	13	11
7	12	7	6	22	4	44	10	14	12
7	13	7	6	22	5	25	13
7	14	7	6	22	5	25	10	14
7	15	7	15
7	16	7	6	22	4	44	28	16
7	17	7	6	22	5	25	18	49	45	24	17
7	18	7	6	22	5	25	18
7	19	7	6	22	5	25	19
7	20	7	15	7	6	22	5	32	3	20
7	21	7	15	7	6	22	5	21
7	22	7	6	22
7	23	7	6	22	4	44	28	23
7	24	7	6	22	5	25	18	49	45	24
7	25	7	6	22	5	25
7	26	7	15	7	6	22	5	25	18	49	45	24	17	30	26
7	27	7	15	7	6	22	5	21	27
7	28	7	6	22	4	44	28
7	29	7	6	22	4	44	10	14	12	29
7	30	7	6	22	5	25	18	49	45	24	17	30
7	31	7	15	7	6	22	5	25	13	31
7	32	7	15	7	6	22	5	32
7	33	7	6	22	4	44	28	16	9	33
7	34	7	15	7	6	22	5	25	18	49	37	34
7	35	7	6	22	4	44	10	35
7	36	7	6	22	5	25	10	14	48	36
7	37	7	15	7	6	22	5	25	18	49	37
7	38	7	6	22	5	25	10	14	48	38
7	39	7	6	22	5	25	10	35	39
7	40	7	15	7	6	22	5	25	18	49	37	41	40
7	41	7	15	7	6	22	5	25	18	49	37	41
7	42	7	6	22	4	44	28	46	42
7	43	7	15	7	6	22	5	32	43
7	44	7	6	22	4	44
7	45	7	6	22	5	25	18	49	45
7	46	7	6	22	4	44	28	46
7	47	7	6	22	5	25	18	49	1	47
7	48	7	6	22	5	25	10	14	48
7	49	7	6	22	5	25	18	49
8	0	8	13	25	10	14	48	0
8	1	8	13	25	18	49	1
8	2	8	13	25	18	49	37	2
8	3	8	13	25	5	32	3
8	4	8	13	25	10	44	4
8	5	8	13	25	5
8	6	8	13	25	5	22	6
8	7	8	13	25	5	22	6	7
8	9	8	13	25	18	16	9
8	10	8	13	25	10
8	11	8	13	11
8	12	8	13	25	10	14	12
8	13	8	13
8	14	8	13	25	10	14
8	15	8	13	25	5	22	6	7	15
8	16	8	13	25	18	16
8	17	8	13	25	18	49	45	24	17
8	18	8	13	25	18
8	19	8	13	25	19
8	20	8	13	25	5	32	3	20
8	21	8	13	25	5	21
8	22	8	13	25	5	22
8	23	8	13	25	18	16	28	23
8	24	8	13	25	18	49	45	24
8	25	8	13	25
8	26	8	13	25	18	49	45	24	17	30	26
8	27	8	13	25	5	21	27
8	28	8	13	25	18	16	28
8	29	8	13	25	10	14	12	29
8	30	8	13	25	18	49	45	24	17	30
8	31	8	13	31
8	32	8	13	25	5	32
8	33	8	13	25	18	16	9	33
8	34	8	13	25	18	49	37	34
8	35	8	13	25	10	35
8	36	8	13	25	10	14	48	36
8	37	8	13	25	18	49	37
8	38	8	13	25	10	14	48	38
8	39	8	13	25	10	35	39
8	40	8	13	25	18	49	37	41	40
8	41	8	13	25	18	49	37	41
8	42	8	13	25	18	16	28	46	42
8	43	8	13	25	5	32	43
8	44	8	13	25	10	44
8	45	8	13	25	18	49	45
8	46	8	13	25	18	16	28	46
8	47	8	13	25	18	49	1	47
8	48	8	13	25	10	14	48
8	49	8	13	25	18	49
9	0	9	16	18	25	10	14	48	0
9	1	9	16	18	49	1
9	2	9	16	18	49	37	2
9	3	9	16	18	25	5	32	3
9	4	9	16	28	44	4
9	5	9	16	18	25	5
9	6	9	16	28	44	4	22	6
9	7	9	16	28	44	4	22	6	7
9	8	9	16	18	25	13	8
9	10	9	16	18	25	10
9	11	9	16	18	25	13	11
9	12	9	16	28	44	10	14	12
9	13	9	16	18	25	13
9	14	9	16	28	44	10	14
9	15	9	16	28	44	4	22	6	7	15
9	16	9	16
9	17	9	16	18	49	45	24	17
9	18	9	16	18
9	19	9	16	18	25	19
9	20	9	16	18	25	5	32	3	20
9	21	9	16	18	25	5	21
9	22	9	16	28	44	4	22
9	23	9	16	28	23
9	24	9	16	18	49	45	24
9	25	9	16	18	25
9	26	9	16	18	49	45	24	17	30	26
9	27	9	16	18	25	5	21	27
9	28	9	16	28
9	29	9	16	28	44	10	14	12	29
9	30	9	16	18	49	45	24	17	30
9	31	9	16	18	25	13	31
9	32	9	16	18	25	5	32
9	33	9	33
9	34	9	16	18	49	37	34
9	35	9	16	18	25	10	35
9	36	9	16	18	25	10	14	48	36
9	37	9	16	18	49	37
9	38	9	16	18	25	10	14	48	38
9	39	9	16	18	25	10	35	39
9	40	9	16	18	49	37	41	40
9	41	9	16	18	49	37	41
9	42	9	16	28	46	42
9	43	9	16	18	25	5	32	43
9	44	9	16	28	44
9	45	9	16	18	49	45
9	46	9	16	28	46
9	47	9	16	18	49	1	47
9	48	9	16	18	25	10	14	48
9	49	9	16	18	49
10	0	10	14	48	0
10	1	10	25	18	49	1
10	2	10	25	18	49	37	2
10	3	10	25	5	32	3
10	4	10	44	4
10	5	10	25	5
10	6	10	44	4	22	6
10	7	10	44	4	22	6	7
10	8	10	25	13	8
10	9	10	25	18	16	9
10	11	10	25	13	11
10	12	10	14	12
10	13	10	25	13
10	14	10	14
10	15	10	25	5	22	6	7	15
10	16	10	44	28	16
10	17	10	25	18	49	45	24	17
10	18	10	25	18
10	19	10	25	19
10	20	10	25	5	32	3	20
10	21	10	25	5	21
10	22	10	44	4	22
10	23	10	44	28	23
10	24	10	25	18	49	45	24
10	25	10	25
10	26	10	25	18	49	45	24	17	30	26
10	27	10	25	5	21	27
10	28	10	44	28
10	29	10	14	12	29
10	30	10	25	18	49	45	24	17	30
10	31	10	25	13	31
10	32	10	25	5	32
10	33	10	25	18	16	9	33
10	34	10	25	18	49	37	34
10	35	10	35
10	36	10	14	48	36
10	37	10	25	18	49	37
10	38	10	14	48	38
10	39	10	35	39
10	40	10	25	18	49	37	41	40
10	41	10	25	18	49	37	41
10	42	10	44	28	46	42
10	43	10	25	5	32	43
10	44	10	44
10	45	10	25	18	49	45
10	46	10	44	28	46
10	47	10	25	18	49	1	47
10	48	10	14	48
10	49	10	25	18	49
11	0	11	13	25	10	14	48	0
11	1	11	13	25	18	49	1
11	2	11	13	25	18	49	37	2
11	3	11	13	25	5	32	3
11	4	11	13	25	10	44	4
11	5	11	13	25	5
11	6	11	13	25	5	22	6
11	7	11	13	25	5	22	6	7
11	8	11	13	8
11	9	11	13	25	18	16	9
11	10	11	13	25	10
11	12	11	13	25	10	14	12
11	13	11	13
11	14	11	13	25	10	14
11	15	11	13	25	5	22	6	7	15
11	16	11	13	25	18	16
11	17	11	13	25	18	49	45	24	17
11	18	11	13	25	18
11	19	11	13	25	19
11	20	11	13	25	5	32	3	20
11	21	11	13	25	5	21
11	22	11	13	25	5	22
11	23	11	13	25	18	16	28	23
11	24	11	13	25	18	49	45	24
11	25	11	13	25
11	26	11	13	25	18	49	45	24	17	30	26
11	27	11	13	25	5	21	27
11	28	11	13	25	18	16	28
11	29	11	13	25	10	14	12	29
11	30	11	13	25	18	49	45	24	17	30
11	31	11	13	31
11	32	11	13	25	5	32
11	33	11	13	25	18	16	9	33
11	34	11	13	25	18	49	37	34
11	35	11	13	25	10	35
11	36	11	13	25	10	14	48	36
11	37	11	13	25	18	49	37
11	38	11	13	25	10	14	48	38
11	39	11	13	25	10	35	39
11	40	11	13	25	18	49	37	41	40
11	41	11	13	25	18	49	37	41
11	42	11	13	25	18	16	28	46	42
11	43	11	13	25	5	32	43
11	44	11	13	25	10	44
11	45	11	13	25	18	49	45
11	46	11	13	25	18	16	28	46
11	47	11	13	25	18	49	1	47
11	48	11	13	25	10	14	48
11	49	11	13	25	18	49
12	0	12	29	12	14	48	0
12	1	12	14	10	25	18	49	1
12	2	12	14	10	25	18	49	37	2
12	3	12	14	10	25	5	32	3
12	4	12	14	10	44	4
12	5	12	14	10	25	5
12	6	12	14	10	25	5	22	6
12	7	12	14	10	25	5	22	6	7
12	8	12	14	10	25	13	8
12	9	12	29	12	14	10	44	28	16	9
12	10	12	14	10
12	11	12	14	10	25	13	11
12	13	12	14	10	25	13
12	14	12	14
12	15	12	14	10	44	4	22	6	7	15
12	16	12	29	12	14	10	44	28	16
12	17	12	29	12	14	10	25	18	49	45	24	17
12	18	12	14	10	25	18
12	19	12	14	10	25	19
12	20	12	14	10	25	5	32	3	20
12	21	12	14	10	25	5	21
12	22	12	14	10	44	4	22
12	23	12	29	12	14	10	44	28	23
12	24	12	29	12	14	10	25	18	49	45	24
12	25	12	14	10	25
12	26	12	29	12	14	10	25	18	49	45	24	17	30	26
12	27	12	14	10	25	5	21	27
12	28	12	29	12	14	10	44	28
12	29	12	29
12	30	12	29	12	14	10	25	18	49	45	24	17	30
12	31	12	14	10	25	13	31
12	32	12	14	10	25	5	32
12	33	12	29	12	14	10	44	28	16	9	33
12	34	12	14	10	25	18	49	37	34
12	35	12	14	10	35
12	36	12	14	48	36
12	37	12	14	10	25	18	49	37
12	38	12	14	48	38
12	39	12	14	10	35	39
12	40	12	14	10	25	18	49	37	41	40
12	41	12	14	10	25	18	49	37	41
12	42	12	29	12	14	10	44	28	46	42
12	43	12	14	10	25	5	32	43
12	44	12	14	10	44
12	45	12	29	12	14	10	25	18	49	45
12	46	12	29	12	14	10	44	28	46
12	47	12	29	12	14	10	25	18	49	1	47
12	48	12	14	48
12	49	12	14	10	25	18	49
13	0	13	25	10	14	48	0
13	1	13	25	18	49	1
13	2	13	25	18	49	37	2
13	3	13	25	5	32	3
13	4	13	25	10	44	4
13	5	13	25	5
13	6	13	25	5	22	6
13	7	13	25	5	22	6	7
13	8	13	8
13	9	13	25	18	16	9
13	10	13	25	10
13	11	13	11
13	12	13	25	10	14	12
13	14	13	25	10	14
13	15	13	25	5	22	6	7	15
13	16	13	25	18	16
13	17	13	25	18	49	45	24	17
13	18	13	25	18
13	19	13	25	19
13	20	13	25	5	32	3	20
13	21	13	25	5	21
13	22	13	25	5	22
13	23	13	25	18	16	28	23
13	24	13	25	18	49	45	24
13	25	13	25
13	26	13	25	18	49	45	24	17	30	26
13	27	13	25	5	21	27
13	28	13	25	18	16	28
13	29	13	25	10	14	12	29
13	30	13	25	18	49	45	24	17	30
13	31	13	31
13	32	13	25	5	32
13	33	13	25	18	16	9	33
13	34	13	25	18	49	37	34
13	35	13	25	10	35
13	36	13	25	10	14	48	36
13	37	13	25	18	49	37
13	38	13	25	10	14	48	38
13	39	13	25	10	35	39
13	40	13	25	18	49	37	41	40
13	41	13	25	18	49	37	41
13	42	13	25	18	16	28	46	42
13	43	13	25	5	32	43
13	44	13	25	10	44
13	45	13	25	18	49	45
13	46	13	25	18	16	28	46
13	47	13	25	18	49	1	47
13	48	13	25	10	14	48
13	49	13	25	18	49
14	0	14	48	0
14	1	14	10	25	18	49	1
14	2	14	10	25	18	49	37	2
14	3	14	10	25	5	32	3
14	4	14	10	44	4
14	5	14	10	25	5
14	6	14	10	25	5	22	6
14	7	14	10	44	4	22	6	7
14	8	14	10	25	13	8
14	9	14	10	44	28	16	9
14	10	14	10
14	11	14	10	25	13	11
14	12	14	12
14	13	14	10	25	13
14	15	14	10	25	5	22	6	7	15
14	16	14	10	44	28	16
14	17	14	10	25	18	49	45	24	17
14	18	14	10	25	18
14	19	14	10	25	19
14	20	14	10	25	5	32	3	20
14	21	14	10	25	5	21
14	22	14	10	44	4	22
14	23	14	10	44	28	23
14	24	14	10	25	18	49	45	24
14	25	14	10	25
14	26	14	10	25	18	49	45	24	17	30	26
14	27	14	10	25	5	21	27
14	28	14	10	44	28
14	29	14	12	29
14	30	14	10	25	18	49	45	24	17	30
14	31	14	10	25	13	31
14	32	14	10	25	5	32
14	33	14	10	25	18	16	9	33
14	34	14	10	25	18	49	37	34
14	35	14	10	35
14	36	14	48	36
14	37	14	10	25	18	49	37
14	38	14	48	38
14	39	14	10	35	39
14	40	14	10	25	18	49	37	41	40
14	41	14	10	25	18	49	37	41
14	42	14	10	44	28	46	42
14	43	14	10	25	5	32	43
14	44	14	10	44
14	45	14	10	25	18	49	45
14	46	14	10	44	28	46
14	47	14	10	25	18	49	1	47
14	48	14	48
14	49	14	10	25	18	49
15	0	15	7	6	22	4	44	10	14	48	0
15	1	15	7	6	22	5	25	18	49	1
15	2	15	7	6	22	5	25	18	49	37	2
15	3	15	7	6	22	5	32	3
15	4	15	7	6	22	4
15	5	15	7	6	22	5
15	6	15	7	6
15	7	15	7
15	8	15	7	6	22	5	25	13	8
15	9	15	7	6	22	4	44	28	16	9
15	10	15	7	6	22	5	25	10
15	11	15	7	6	22	5	25	13	11
15	12	15	7	6	22	4	44	10	14	12
15	13	15	7	6	22	5	25	13
15	14	15	7	6	22	5	25	10	14
15	16	15	7	6	22	4	44	28	16
15	17	15	7	6	22	5	25	18	49	45	24	17
15	18	15	7	6	22	5	25	18
15	19	15	7	6	22	5	25	19
15	20	15	7	6	22	5	32	3	20
15	21	15	7	6	22	5	21
15	22	15	7	6	22
15	23	15	7	6	22	4	44	28	23
15	24	15	7	6	22	5	25	18	49	45	24
15	25	15	7	6	22	5	25
15	26	15	7	6	22	5	25	18	49	45	24	17	30	26
15	27	15	7	6	22	5	21	27
15	28	15	7	6	22	4	44	28
15	29	15	7	6	22	4	44	10	14	12	29
15	30	15	7	6	22	5	25	18	49	45	24	17	30
15	31	15	7	6	22	5	25	13	31
15	32	15	7	6	22	5	32
15	33	15	7	6	22	4	44	28	16	9	33
15	34	15	7	6	22	5	25	18	49	37	34
15	35	15	7	6	22	5	25	10	35
15	36	15	7	6	22	5	25	10	14	48	36
15	37	15	7	6	22	5	25	18	49	37
15	38	15	7	6	22	4	44	10	14	48	38
15	39	15	7	6	22	4	44	10	35	39
15	40	15	7	6	22	5	25	18	49	37	41	40
15	41	15	7	6	22	5	25	18	49	37	41
15	42	15	7	6	22	4	44	28	46	42
15	43	15	7	6	22	5	32	43
15	44	15	7	6	22	4	44
15	45	15	7	6	22	5	25	18	49	45
15	46	15	7	6	22	4	44	28	46
15	47	15	7	6	22	5	25	18	49	1	47
15	48	15	7	6	22	5	25	10	14	48
15	49	15	7	6	22	5	25	18	49
16	0	16	18	25	10	14	48	0
16	1	16	18	49	1
16	2	16	18	49	37	2
16	3	16	18	25	5	32	3
16	4	16	28	44	4
16	5	16	18	25	5
16	6	16	28	44	4	22	6
16	7	16	28	44	4	22	6	7
16	8	16	18	25	13	8
16	9	16	9
16	10	16	18	25	10
16	11	16	18	25	13	11
16	12	16	28	44	10	14	12
16	13	16	18	25	13
16	14	16	28	44	10	14
16	15	16	28	44	4	22	6	7	15
16	17	16	18	49	45	24	17
16	18	16	18
16	19	16	18	25	19
16	20	16	18	25	5	32	3	20
16	21	16	18	25	5	21
16	22	16	28	44	4	22
16	23	16	28	23
16	24	16	18	49	45	24
16	25	16	18	25
16	26	16	18	49	45	24	17	30	26
16	27	16	18	25	5	21	27
16	28	16	28
16	29	16	28	44	10	14	12	29
16	30	16	18	49	45	24	17	30
16	31	16	18	25	13	31
16	32	16	18	25	5	32
16	33	16	9	33
16	34	16	18	49	37	34
16	35	16	18	25	10	35
16	36	16	18	25	10	14	48	36
16	37	16	18	49	37
16	38	16	18	25	10	14	48	38
16	39	16	18	25	10	35	39
16	40	16	18	49	37	41	40
16	41	16	18	49	37	41
16	42	16	28	46	42
16	43	16	18	25	5	32	43
16	44	16	28	44
16	45	16	18	49	45
16	46	16	28	46
16	47	16	18	49	1	47
16	48	16	18	25	10	14	48
16	49	16	18	49
17	0	17	24	45	49	18	25	10	14	48	0
17	1	17	24	45	49	1
17	2	17	24	45	49	37	2
17	3	17	24	45	49	18	25	5	32	3
17	4	17	24	45	49	18	16	28	44	4
17	5	17	24	45	49	18	25	5
17	6	17	24	45	49	18	25	5	22	6
17	7	17	24	45	49	18	25	5	22	6	7
17	8	17	24	45	49	18	25	13	8
17	9	17	24	45	49	18	16	9
17	10	17	24	45	49	18	25	10
17	11	17	24	45	49	18	25	13	11
17	12	17	24	45	49	18	25	10	14	12
17	13	17	24	45	49	18	25	13
17	14	17	24	45	49	18	25	10	14
17	15	17	24	45	49	18	25	5	22	6	7	15
17	16	17	24	45	49	18	16
17	18	17	24	45	49	18
17	19	17	24	45	49	18	25	19
17	20	17	24	45	49	18	25	5	32	3	20
17	21	17	24	45	49	18	25	5	21
17	22	17	24	45	49	18	25	5	22
17	23	17	24	45	49	18	16	28	23
17	24	17	24
17	25	17	24	45	49	18	25
17	26	17	30	26
17	27	17	24	45	49	18	25	5	21	27
17	28	17	24	45	49	18	16	28
17	29	17	24	45	49	18	25	10	14	12	29
17	30	17	30
17	31	17	24	45	49	18	25	13	31
17	32	17	24	45	49	18	25	5	32
17	33	17	24	45	49	18	16	9	33
17	34	17	30	26	30	17	24	45	49	37	34
17	35	17	24	45	49	18	25	10	35
17	36	17	24	45	49	18	25	10	14	48	36
17	37	17	24	45	49	37
17	38	17	24	45	49	18	25	10	14	48	38
17	39	17	24	45	49	18	25	10	35	39
17	40	17	30	26	30	17	24	45	49	37	41	40
17	41	17	30	26	30	17	24	45	49	37	41
17	42	17	24	45	49	18	16	28	46	42
17	43	17	24	45	49	18	25	5	32	43
17	44	17	24	45	49	18	16	28	44
17	45	17	24	45
17	46	17	24	45	49	18	16	28	46
17	47	17	24	45	49	1	47
17	48	17	24	45	49	18	25	10	14	48
17	49	17	24	45	49
18	0	18	25	10	14	48	0
18	1	18	49	1
18	2	18	49	37	2
18	3	18	25	5	32	3
18	4	18	16	28	44	4
18	5	18	25	5
18	6	18	25	5	22	6
18	7	18	25	5	22	6	7
18	8	18	25	13	8
18	9	18	16	9
18	10	18	25	10
18	11	18	25	13	11
18	12	18	25	10	14	12
18	13	18	25	13
18	14	18	25	10	14
18	15	18	25	5	22	6	7	15
18	16	18	16
18	17	18	49	45	24	17
18	19	18	25	19
18	20	18	25	5	32	3	20
18	21	18	25	5	21
18	22	18	25	5	22
18	23	18	16	28	23
18	24	18	49	45	24
18	25	18	25
18	26	18	49	45	24	17	30	26
18	27	18	25	5	21	27
18	28	18	16	28
18	29	18	25	10	14	12	29
18	30	18	49	45	24	17	30
18	31	18	25	13	31
18	32	18	25	5	32
18	33	18	16	9	33
18	34	18	49	37	34
18	35	18	25	10	35
18	36	18	25	10	14	48	36
18	37	18	49	37
18	38	18	25	10	14	48	38
18	39	18	25	10	35	39
18	40	18	49	37	41	40
18	41	18	49	37	41
18	42	18	16	28	46	42
18	43	18	25	5	32	43
18	44	18	16	28	44
18	45	18	49	45
18	46	18	16	28	46
18	47	18	49	1	47
18	48	18	25	10	14	48
18	49	18	49
19	0	19	25	10	14	48	0
19	1	19	25	18	49	1
19	2	19	25	18	49	37	2
19	3	19	25	5	32	3
19	4	19	25	10	44	4
19	5	19	25	5
19	6	19	25	5	22	6
19	7	19	25	5	22	6	7
19	8	19	25	13	8
19	9	19	25	18	16	9
19	10	19	25	10
19	11	19	25	13	11
19	12	19	25	10	14	12
19	13	19	25	13
19	14	19	25	10	14
19	15	19	25	5	22	6	7	15
19	16	19	25	18	16
19	17	19	25	18	49	45	24	17
19	18	19	25	18
19	20	19	25	5	32	3	20
19	21	19	25	5	21
19	22	19	25	5	22
19	23	19	25	18	16	28	23
19	24	19	25	18	49	45	24
19	25	19	25
19	26	19	25	18	49	45	24	17	30	26
19	27	19	25	5	21	27
19	28	19	25	18	16	28
19	29	19	25	10	14	12	29
19	30	19	25	18	49	45	24	17	30
19	31	19	25	13	31
19	32	19	25	5	32
19	33	19	25	18	16	9	33
19	34	19	25	18	49	37	34
19	35	19	25	10	35
19	36	19	25	10	14	48	36
19	37	19	25	18	49	37
19	38	19	25	10	14	48	38
19	39	19	25	10	35	39
19	40	19	25	18	49	37	41	40
19	41	19	25	18	49	37	41
19	42	19	25	18	16	28	46	42
19	43	19	25	5	32	43
19	44	19	25	10	44
19	45	19	25	18	49	45
19	46	19	25	18	16	28	46
19	47	19	25	18	49	1	47
19	48	19	25	10	14	48
19	49	19	25	18	49
20	0	20	3	32	5	25	10	14	48	0
20	1	20	3	32	5	25	18	49	1
20	2	20	3	32	5	25	18	49	37	2
20	3	20	3
20	4	20	3	32	5	22	4
20	5	20	3	32	5
20	6	20	3	32	5	22	6
20	7	20	3	32	5	22	6	7
20	8	20	3	32	5	25	13	8
20	9	20	3	32	5	25	18	16	9
20	10	20	3	32	5	25	10
20	11	20	3	32	5	25	13	11
20	12	20	3	32	5	25	10	14	12
20	13	20	3	32	5	25	13
20	14	20	3	32	5	25	10	14
20	15	20	3	32	5	22	6	7	15
20	16	20	3	32	5	25	18	16
20	17	20	3	32	5	25	18	49	45	24	17
20	18	20	3	32	5	25	18
20	19	20	3	32	5	25	19
20	21	20	3	32	5	21
20	22	20	3	32	5	22
20	23	20	3	32	5	25	18	16	28	23
20	24	20	3	32	5	25	18	49	45	24
20	25	20	3	32	5	25
20	26	20	3	32	5	25	18	49	45	24	17	30	26
20	27	20	3	32	5	21	27
20	28	20	3	32	5	25	18	16	28
20	29	20	3	32	5	25	10	14	12	29
20	30	20	3	32	5	25	18	49	45	24	17	30
20	31	20	3	32	5	25	13	31
20	32	20	3	32
20	33	20	3	32	5	25	18	16	9	33
20	34	20	3	32	5	25	18	49	37	34
20	35	20	3	32	5	25	10	35
20	36	20	3	32	5	25	10	14	48	36
20	37	20	3	32	5	25	18	49	37
20	38	20	3	32	5	25	10	14	48	38
20	39	20	3	32	5	25	10	35	39
20	40	20	3	32	5	25	18	49	37	41	40
20	41	20	3	32	5	25	18	49	37	41
20	42	20	3	32	5	25	18	16	28	46	42
20	43	20	3	32	43
20	44	20	3	32	5	22	4	44
20	45	20	3	32	5	25	18	49	45
20	46	20	3	32	5	25	18	16	28	46
20	47	20	3	32	5	25	18	49	1	47
20	48	20	3	32	5	25	10	14	48
20	49	20	3	32	5	25	18	49
21	0	21	5	25	10	14	48	0
21	1	21	5	25	18	49	1
21	2	21	5	25	18	49	37	2
21	3	21	5	32	3
21	4	21	5	22	4
21	5	21	5
21	6	21	5	22	6
21	7	21	5	22	6	7
21	8	21	5	25	13	8
21	9	21	5	25	18	16	9
21	10	21	5	25	10
21	11	21	5	25	13	11
21	12	21	5	25	10	14	12
21	13	21	5	25	13
21	14	21	5	25	10	14
21	15	21	5	22	6	7	15
21	16	21	5	25	18	16
21	17	21	5	25	18	49	45	24	17
21	18	21	5	25	18
21	19	21	5	25	19
21	20	21	5	32	3	20
21	22	21	5	22
21	23	21	5	22	4	44	28	23
21	24	21	5	25	18	49	45	24
21	25	21	5	25
21	26	21	5	25	18	49	45	24	17	30	26
21	27	21	27
21	28	21	5	22	4	44	28
21	29	21	5	25	10	14	12	29
21	30	21	5	25	18	49	45	24	17	30
21	31	21	5	25	13	31
21	32	21	5	32
21	33	21	5	25	18	16	9	33
21	34	21	5	25	18	49	37	34
21	35	21	5	25	10	35
21	36	21	5	25	10	14	48	36
21	37	21	5	25	18	49	37
21	38	21	5	25	10	14	48	38
21	39	21	5	25	10	35	39
21	40	21	5	25	18	49	37	41	40
21	41	21	5	25	18	49	37	41
21	42	21	5	22	4	44	28	46	42
21	43	21	5	32	43
21	44	21	5	22	4	44
21	45	21	5	25	18	49	45
21	46	21	5	22	4	44	28	46
21	47	21	5	25	18	49	1	47
21	48	21	5	25	10	14	48
21	49	21	5	25	18	49
22	0	22	4	44	10	14	48	0
22	1	22	5	25	18	49	1
22	2	22	5	25	18	49	37	2
22	3	22	5	32	3
22	4	22	4
22	5	22	5
22	6	22	6
22	7	22	6	7
22	8	22	5	25	13	8
22	9	22	4	44	28	16	9
22	10	22	5	25	10
22	11	22	5	25	13	11
22	12	22	5	25	10	14	12
22	13	22	5	25	13
22	14	22	4	44	10	14
22	15	22	6	7	15
22	16	22	4	44	28	16
22	17	22	5	25	18	49	45	24	17
22	18	22	5	25	18
22	19	22	5	25	19
22	20	22	5	32	3	20
22	21	22	5	21
22	23	22	4	44	28	23
22	24	22	5	25	18	49	45	24
22	25	22	5	25
22	26	22	5	25	18	49	45	24	17	30	26
22	27	22	5	21	27
22	28	22	4	44	28
22	29	22	4	44	10	14	12	29
22	30	22	5	25	18	49	45	24	17	30
22	31	22	5	25	13	31
22	32	22	5	32
22	33	22	4	44	28	16	9	33
22	34	22	5	25	18	49	37	34
22	35	22	5	25	10	35
22	36	22	4	44	10	14	48	36
22	37	22	5	25	18	49	37
22	38	22	4	44	10	14	48	38
22	39	22	5	25	10	35	39
22	40	22	5	25	18	49	37	41	40
22	41	22	5	25	18	49	37	41
22	42	22	4	44	28	46	42
22	43	22	5	32	43
22	44	22	4	44
22	45	22	5	25	18	49	45
22	46	22	4	44	28	46
22	47	22	5	25	18	49	1	47
22	48	22	5	25	10	14	48
22	49	22	5	25	18	49
23	0	23	28	44	10	14	48	0
23	1	23	28	16	18	49	1
23	2	23	28	16	18	49	37	2
23	3	23	28	44	4	22	5	32	3
23	4	23	28	44	4
23	5	23	28	44	4	22	5
23	6	23	28	44	4	22	6
23	7	23	28	44	4	22	6	7
23	8	23	28	44	10	25	13	8
23	9	23	28	16	9
23	10	23	28	44	10
23	11	23	28	44	10	25	13	11
23	12	23	28	44	10	14	12
23	13	23	28	44	10	25	13
23	14	23	28	44	10	14
23	15	23	28	44	4	22	6	7	15
23	16	23	28	16
23	17	23	28	16	18	49	45	24	17
23	18	23	28	16	18
23	19	23	28	44	10	25	19
23	20	23	28	44	4	22	5	32	3	20
23	21	23	28	44	4	22	5	21
23	22	23	28	44	4	22
23	24	23	28	16	18	49	45	24
23	25	23	28	44	10	25
23	26	23	28	16	18	49	45	24	17	30	26
23	27	23	28	44	4	22	5	21	27
23	28	23	28
23	29	23	28	44	10	14	12	29
23	30	23	28	16	18	49	45	24	17	30
23	31	23	28	44	10	25	13	31
23	32	23	28	44	4	22	5	32
23	33	23	28	16	9	33
23	34	23	28	16	18	49	37	34
23	35	23	28	44	10	35
23	36	23	28	44	10	14	48	36
23	37	23	28	16	18	49	37
23	38	23	28	44	10	14	48	38
23	39	23	28	44	10	35	39
23	40	23	28	16	18	49	37	41	40
23	41	23	28	16	18	49	37	41
23	42	23	28	46	42
23	43	23	28	44	4	22	5	32	43
23	44	23	28	44
23	45	23	28	16	18	49	45
23	46	23	28	46
23	47	23	28	16	18	49	1	47
23	48	23	28	44	10	14	48
23	49	23	28	16	18	49
24	0	24	45	49	18	25	10	14	48	0
24	1	24	45	49	1
24	2	24	45	49	37	2
24	3	24	45	49	18	25	5	32	3
24	4	24	45	49	18	16	28	44	4
24	5	24	45	49	18	25	5
24	6	24	45	49	18	25	5	22	6
24	7	24	45	49	18	25	5	22	6	7
24	8	24	45	49	18	25	13	8
24	9	24	45	49	18	16	9
24	10	24	45	49	18	25	10
24	11	24	45	49	18	25	13	11
24	12	24	45	49	18	25	10	14	12
24	13	24	45	49	18	25	13
24	14	24	45	49	18	25	10	14
24	15	24	45	49	18	25	5	22	6	7	15
24	16	24	45	49	18	16
24	17	24	17
24	18	24	45	49	18
24	19	24	45	49	18	25	19
24	20	24	45	49	18	25	5	32	3	20
24	21	24	45	49	18	25	5	21
24	22	24	45	49	18	25	5	22
24	23	24	45	49	18	16	28	23
24	25	24	45	49	18	25
24	26	24	17	30	26
24	27	24	45	49	18	25	5	21	27
24	28	24	45	49	18	16	28
24	29	24	45	49	18	25	10	14	12	29
24	30	24	17	30
24	31	24	45	49	18	25	13	31
24	32	24	45	49	18	25	5	32
24	33	24	45	49	18	16	9	33
24	34	24	45	49	37	34
24	35	24	45	49	18	25	10	35
24	36	24	45	49	18	25	10	14	48	36
24	37	24	45	49	37
24	38	24	45	49	18	25	10	14	48	38
24	39	24	45	49	18	25	10	35	39
24	40	24	45	49	37	41	40
24	41	24	45	49	37	41
24	42	24	45	49	18	16	28	46	42
24	43	24	45	49	18	25	5	32	43
24	44	24	45	49	18	16	28	44
24	45	24	45
24	46	24	45	49	18	16	28	46
24	47	24	45	49	1	47
24	48	24	45	49	18	25	10	14	48
24	49	24	45	49
25	0	25	10	14	48	0
25	1	25	18	49	1
25	2	25	18	49	37	2
25	3	25	5	32	3
25	4	25	10	44	4
25	5	25	5
25	6	25	5	22	6
25	7	25	5	22	6	7
25	8	25	13	8
25	9	25	18	16	9
25	10	25	10
25	11	25	13	11
25	12	25	10	14	12
25	13	25	13
25	14	25	10	14
25	15	25	5	22	6	7	15
25	16	25	18	16
25	17	25	18	49	45	24	17
25	18	25	18
25	19	25	19
25	20	25	5	32	3	20
25	21	25	5	21
25	22	25	5	22
25	23	25	18	16	28	23
25	24	25	18	49	45	24
25	26	25	18	49	45	24	17	30	26
25	27	25	5	21	27
25	28	25	18	16	28
25	29	25	10	14	12	29
25	30	25	18	49	45	24	17	30
25	31	25	13	31
25	32	25	5	32
25	33	25	18	16	9	33
25	34	25	18	49	37	34
25	35	25	10	35
25	36	25	10	14	48	36
25	37	25	18	49	37
25	38	25	10	14	48	38
25	39	25	10	35	39
25	40	25	18	49	37	41	40
25	41	25	18	49	37	41
25	42	25	18	16	28	46	42
25	43	25	5	32	43
25	44	25	10	44
25	45	25	18	49	45
25	46	25	18	16	28	46
25	47	25	18	49	1	47
25	48	25	10	14	48
25	49	25	18	49
26	0	26	30	17	24	45	49	18	25	10	14	48	0
26	1	26	30	17	24	45	49	1
26	2	26	30	17	24	45	49	37	2
26	3	26	30	17	24	45	49	18	25	5	32	3
26	4	26	30	17	24	45	49	18	16	28	44	4
26	5	26	30	17	24	45	49	18	25	5
26	6	26	30	17	24	45	49	18	25	5	22	6
26	7	26	30	17	24	45	49	18	25	5	22	6	7
26	8	26	30	17	24	45	49	18	25	13	8
26	9	26	30	17	24	45	49	18	16	9
26	10	26	30	17	24	45	49	18	25	10
26	11	26	30	17	24	45	49	18	25	13	11
26	12	26	30	17	24	45	49	18	25	10	14	12
26	13	26	30	17	24	45	49	18	25	13
26	14	26	30	17	24	45	49	18	25	10	14
26	15	26	30	17	24	45	49	18	25	5	22	6	7	15
26	16	26	30	17	24	45	49	18	16
26	17	26	30	17
26	18	26	30	17	24	45	49	18
26	19	26	30	17	24	45	49	18	25	19
26	20	26	30	17	24	45	49	18	25	5	32	3	20
26	21	26	30	17	24	45	49	18	25	5	21
26	22	26	30	17	24	45	49	18	25	5	22
26	23	26	30	17	24	45	49	18	16	28	23
26	24	26	30	17	24
26	25	26	30	17	24	45	49	18	25
26	27	26	30	17	24	45	49	18	25	5	21	27
26	28	26	30	17	24	45	49	18	16	28
26	29	26	30	17	24	45	49	18	25	10	14	12	29
26	30	26	30
26	31	26	30	17	24	45	49	18	25	13	31
26	32	26	30	17	24	45	49	18	25	5	32
26	33	26	30	17	24	45	49	18	16	9	33
26	34	26	30	17	24	45	49	37	34
26	35	26	30	17	24	45	49	18	25	10	35
26	36	26	30	17	24	45	49	18	25	10	14	48	36
26	37	26	30	17	24	45	49	37
26	38	26	30	17	24	45	49	18	25	10	14	48	38
26	39	26	30	17	24	45	49	18	25	10	35	39
26	40	26	30	17	24	45	49	37	41	40
26	41	26	30	17	24	45	49	37	41
26	42	26	30	17	24	45	49	18	16	28	46	42
26	43	26	30	17	24	45	49	18	25	5	32	43
26	44	26	30	17	24	45	49	18	16	28	44
26	45	26	30	17	24	45
26	46	26	30	17	24	45	49	18	16	28	46
26	47	26	30	17	24	45	49	1	47
26	48	26	30	17	24	45	49	18	25	10	14	48
26	49	26	30	17	24	45	49
27	0	27	21	5	25	10	14	48	0
27	1	27	21	5	25	18	49	1
27	2	27	21	5	25	18	49	37	2
27	3	27	21	5	32	3
27	4	27	21	5	22	4
27	5	27	21	5
27	6	27	21	5	22	6
27	7	27	21	5	22	6	7
27	8	27	21	5	25	13	8
27	9	27	21	5	25	18	16	9
27	10	27	21	5	25	10
27	11	27	21	5	25	13	11
27	12	27	21	5	25	10	14	12
27	13	27	21	5	25	13
27	14	27	21	5	25	10	14
27	15	27	21	5	22	6	7	15
27	16	27	21	5	25	18	16
27	17	27	21	5	25	18	49	45	24	17
27	18	27	21	5	25	18
27	19	27	21	5	25	19
27	20	27	21	5	32	3	20
27	21	27	21
27	22	27	21	5	22
27	23	27	21	5	22	4	44	28	23
27	24	27	21	5	25	18	49	45	24
27	25	27	21	5	25
27	26	27	21	5	25	18	49	45	24	17	30	26
27	28	27	21	5	22	4	44	28
27	29	27	21	5	25	10	14	12	29
27	30	27	21	5	25	18	49	45	24	17	30
27	31	27	21	5	25	13	31
27	32	27	21	5	32
27	33	27	21	5	25	18	16	9	33
27	34	27	21	5	25	18	49	37	34
27	35	27	21	5	25	10	35
27	36	27	21	5	25	10	14	48	36
27	37	27	21	5	25	18	49	37
27	38	27	21	5	25	10	14	48	38
27	39	27	21	5	25	10	35	39
27	40	27	21	5	25	18	49	37	41	40
27	41	27	21	5	25	18	49	37	41
27	42	27	21	5	25	18	16	28	46	42
27	43	27	21	5	32	43
27	44	27	21	5	22	4	44
27	45	27	21	5	25	18	49	45
27	46	27	21	5	22	4	44	28	46
27	47	27	21	5	25	18	49	1	47
27	48	27	21	5	25	10	14	48
27	49	27	21	5	25	18	49
28	0	28	44	10	14	48	0
28	1	28	16	18	49	1
28	2	28	16	18	49	37	2
28	3	28	44	4	22	5	32	3
28	4	28	44	4
28	5	28	44	4	22	5
28	6	28	44	4	22	6
28	7	28	44	4	22	6	7
28	8	28	44	10	25	13	8
28	9	28	16	9
28	10	28	44	10
28	11	28	44	10	25	13	11
28	12	28	44	10	14	12
28	13	28	44	10	25	13
28	14	28	44	10	14
28	15	28	44	4	22	6	7	15
28	16	28	16
28	17	28	16	18	49	45	24	17
28	18	28	16	18
28	19	28	44	10	25	19
28	20	28	44	4	22	5	32	3	20
28	21	28	44	4	22	5	21
28	22	28	44	4	22
28	23	28	23
28	24	28	16	18	49	45	24
28	25	28	44	10	25
28	26	28	16	18	49	45	24	17	30	26
28	27	28	44	4	22	5	21	27
28	29	28	44	10	14	12	29
28	30	28	16	18	49	45	24	17	30
28	31	28	44	10	25	13	31
28	32	28	44	4	22	5	32
28	33	28	16	9	33
28	34	28	16	18	49	37	34
28	35	28	44	10	35
28	36	28	44	10	14	48	36
28	37	28	16	18	49	37
28	38	28	44	10	14	48	38
28	39	28	44	10	35	39
28	40	28	16	18	49	37	41	40
28	41	28	16	18	49	37	41
28	42	28	46	42
28	43	28	44	4	22	5	32	43
28	44	28	44
28	45	28	16	18	49	45
28	46	28	46
28	47	28	16	18	49	1	47
28	48	28	44	10	14	48
28	49	28	16	18	49
29	0	29	12	14	48	0
29	1	29	12	14	10	25	18	49	1
29	2	29	12	14	10	25	18	49	37	2
29	3	29	12	14	10	25	5	32	3
29	4	29	12	14	10	44	4
29	5	29	12	14	10	25	5
29	6	29	12	14	10	44	4	22	6
29	7	29	12	14	10	25	5	22	6	7
29	8	29	12	14	10	25	13	8
29	9	29	12	14	10	44	28	16	9
29	10	29	12	14	10
29	11	29	12	14	10	25	13	11
29	12	29	12
29	13	29	12	14	10	25	13
29	14	29	12	14
29	15	29	12	14	10	25	5	22	6	7	15
29	16	29	12	14	10	44	28	16
29	17	29	12	14	10	25	18	49	45	24	17
29	18	29	12	14	10	25	18
29	19	29	12	14	10	25	19
29	20	29	12	14	10	25	5	32	3	20
29	21	29	12	14	10	25	5	21
29	22	29	12	14	10	44	4	22
29	23	29	12	14	10	44	28	23
29	24	29	12	14	10	25	18	49	45	24
29	25	29	12	14	10	25
29	26	29	12	14	10	25	18	49	45	24	17	30	26
29	27	29	12	14	10	25	5	21	27
29	28	29	12	14	10	44	28
29	30	29	12	14	10	25	18	49	45	24	17	30
29	31	29	12	14	10	25	13	31
29	32	29	12	14	10	25	5	32
29	33	29	12	14	10	25	18	16	9	33
29	34	29	12	14	10	25	18	49	37	34
29	35	29	12	14	10	35
29	36	29	12	14	48	36
29	37	29	12	14	10	44	28	16	18	49	37
29	38	29	12	14	48	38
29	39	29	12	14	10	35	39
29	40	29	12	14	10	25	18	49	37	41	40
29	41	29	12	14	10	25	18	49	37	41
29	42	29	12	14	10	44	28	46	42
29	43	29	12	14	10	25	5	32	43
29	44	29	12	14	10	44
29	45	29	12	14	10	44	28	16	18	49	45
29	46	29	12	14	10	44	28	46
29	47	29	12	14	10	25	18	49	1	47
29	48	29	12	14	48
29	49	29	12	14	10	25	18	49
30	0	30	17	24	45	49	18	25	10	14	48	0
30	1	30	26	30	17	24	45	49	1
30	2	30	26	30	17	24	45	49	37	2
30	3	30	17	24	45	49	18	25	5	32	3
30	4	30	17	24	45	49	18	16	28	44	4
30	5	30	17	24	45	49	18	25	5
30	6	30	17	24	45	49	18	25	5	22	6
30	7	30	17	24	45	49	18	25	5	22	6	7
30	8	30	17	24	45	49	18	25	13	8
30	9	30	17	24	45	49	18	16	9
30	10	30	17	24	45	49	18	25	10
30	11	30	17	24	45	49	18	25	13	11
30	12	30	17	24	45	49	18	25	10	14	12
30	13	30	17	24	45	49	18	25	13
30	14	30	17	24	45	49	18	25	10	14
30	15	30	17	24	45	49	18	25	5	22	6	7	15
30	16	30	17	24	45	49	18	16
30	17	30	17
30	18	30	17	24	45	49	18
30	19	30	17	24	45	49	18	25	19
30	20	30	17	24	45	49	18	25	5	32	3	20
30	21	30	17	24	45	49	18	25	5	21
30	22	30	17	24	45	49	18	25	5	22
30	23	30	17	24	45	49	18	16	28	23
30	24	30	17	24
30	25	30	17	24	45	49	18	25
30	26	30	26
30	27	30	17	24	45	49	18	25	5	21	27
30	28	30	17	24	45	49	18	16	28
30	29	30	17	24	45	49	18	25	10	14	12	29
30	31	30	17	24	45	49	18	25	13	31
30	32	30	17	24	45	49	18	25	5	32
30	33	30	17	24	45	49	18	16	9	33
30	34	30	26	30	17	24	45	49	37	34
30	35	30	17	24	45	49	18	25	10	35
30	36	30	17	24	45	49	18	25	10	14	48	36
30	37	30	26	30	17	24	45	49	37
30	38	30	17	24	45	49	18	25	10	14	48	38
30	39	30	17	24	45	49	18	25	10	35	39
30	40	30	26	30	17	24	45	49	37	41	40
30	41	30	26	30	17	24	45	49	37	41
30	42	30	17	24	45	49	18	16	28	46	42
30	43	30	17	24	45	49	18	25	5	32	43
30	44	30	17	24	45	49	18	25	10	44
30	45	30	17	24	45
30	46	30	17	24	45	49	18	16	28	46
30	47	30	17	24	45	49	1	47
30	48	30	17	24	45	49	18	25	10	14	48
30	49	30	17	24	45	49
31	0	31	13	25	10	14	48	0
31	1	31	13	25	5	22	4	44	28	16	18	49	1
31	2	31	13	25	5	22	4	44	28	16	18	49	37	2
31	3	31	13	25	5	32	3
31	4	31	13	25	10	44	4
31	5	31	13	25	5
31	6	31	13	25	5	22	6
31	7	31	13	25	5	22	6	7
31	8	31	13	8
31	9	31	13	25	5	22	4	44	28	16	9
31	10	31	13	25	10
31	11	31	13	11
31	12	31	13	25	10	14	12
31	13	31	13
31	14	31	13	25	10	14
31	15	31	13	25	5	22	6	7	15
31	16	31	13	25	5	22	4	44	28	16
31	17	31	13	25	5	22	4	44	28	16	18	49	45	24	17
31	18	31	13	25	5	22	4	44	28	16	18
31	19	31	13	25	19
31	20	31	13	25	5	32	3	20
31	21	31	13	25	5	21
31	22	31	13	25	5	22
31	23	31	13	25	5	22	4	44	28	23
31	24	31	13	25	5	22	4	44	28	16	18	49	45	24
31	25	31	13	25
31	26	31	13	25	5	22	4	44	28	16	18	49	45	24	17	30	26
31	27	31	13	25	5	21	27
31	28	31	13	25	5	22	4	44	28
31	29	31	13	25	10	14	12	29
31	30	31	13	25	5	22	4	44	28	16	18	49	45	24	17	30
31	32	31	13	25	5	32
31	33	31	13	25	5	22	4	44	28	16	9	33
31	34	31	13	25	5	22	4	44	28	16	18	49	37	34
31	35	31	13	25	10	35
31	36	31	13	25	10	14	48	36
31	37	31	13	25	5	22	4	44	28	16	18	49	37
31	38	31	13	25	10	14	48	38
31	39	31	13	25	10	35	39
31	40	31	13	25	5	22	4	44	28	16	18	49	37	41	40
31	41	31	13	25	5	22	4	44	28	16	18	49	37	41
31	42	31	13	25	5	22	4	44	28	46	42
31	43	31	13	25	5	32	43
31	44	31	13	25	10	44
31	45	31	13	25	5	22	4	44	28	16	18	49	45
31	46	31	13	25	5	22	4	44	28	46
31	47	31	13	25	5	22	4	44	28	16	18	49	1	47
31	48	31	13	25	10	14	48
31	49	31	13	25	5	22	4	44	28	16	18	49
32	0	32	5	25	10	14	48	0
32	1	32	5	25	18	49	1
32	2	32	5	25	18	49	37	2
32	3	32	3
32	4	32	5	22	4
32	5	32	5
32	6	32	5	22	6
32	7	32	5	22	6	7
32	8	32	5	25	13	8
32	9	32	5	25	18	16	9
32	10	32	5	25	10
32	11	32	5	25	13	11
32	12	32	5	25	10	14	12
32	13	32	5	25	13
32	14	32	5	25	10	14
32	15	32	5	22	6	7	15
32	16	32	5	25	18	16
32	17	32	5	25	18	49	45	24	17
32	18	32	5	25	18
32	19	32	5	25	19
32	20	32	3	20
32	21	32	5	21
32	22	32	5	22
32	23	32	5	22	4	44	28	23
32	24	32	5	25	18	49	45	24
32	25	32	5	25
32	26	32	5	22	4	44	28	16	18	49	45	24	17	30	26
32	27	32	5	21	27
32	28	32	5	22	4	44	28
32	29	32	5	25	10	14	12	29
32	30	32	5	25	18	49	45	24	17	30
32	31	32	5	25	13	31
32	33	32	5	25	18	16	9	33
32	34	32	5	25	18	49	37	34
32	35	32	5	25	10	35
32	36	32	5	25	10	14	48	36
32	37	32	5	22	4	44	28	16	18	49	37
32	38	32	5	25	10	14	48	38
32	39	32	5	25	10	35	39
32	40	32	5	25	18	49	37	41	40
32	41	32	5	25	18	49	37	41
32	42	32	5	22	4	44	28	46	42
32	43	32	43
32	44	32	5	22	4	44
32	45	32	5	25	18	49	45
32	46	32	5	25	18	16	28	46
32	47	32	5	22	4	44	28	16	18	49	1	47
32	48	32	5	25	10	14	48
32	49	32	5	22	4	44	28	16	18	49
33	0	33	9	16	18	25	10	14	48	0
33	1	33	9	16	18	49	1
33	2	33	9	16	18	49	37	2
33	3	33	9	16	18	25	5	32	3
33	4	33	9	16	28	44	4
33	5	33	9	16	18	25	5
33	6	33	9	16	28	44	4	22	6
33	7	33	9	16	28	44	4	22	6	7
33	8	33	9	16	18	25	13	8
33	9	33	9
33	10	33	9	16	18	25	10
33	11	33	9	16	18	25	13	11
33	12	33	9	16	28	44	10	14	12
33	13	33	9	16	18	25	13
33	14	33	9	16	28	44	10	14
33	15	33	9	16	28	44	4	22	6	7	15
33	16	33	9	16
33	17	33	9	16	18	49	45	24	17
33	18	33	9	16	18
33	19	33	9	16	18	25	19
33	20	33	9	16	18	25	5	32	3	20
33	21	33	9	16	18	25	5	21
33	22	33	9	16	28	44	4	22
33	23	33	9	16	28	23
33	24	33	9	16	18	49	45	24
33	25	33	9	16	18	25
33	26	33	9	16	18	49	45	24	17	30	26
33	27	33	9	16	18	25	5	21	27
33	28	33	9	16	28
33	29	33	9	16	28	44	10	14	12	29
33	30	33	9	16	18	49	45	24	17	30
33	31	33	9	16	18	25	13	31
33	32	33	9	16	18	25	5	32
33	34	33	9	16	18	49	37	34
33	35	33	9	16	18	25	10	35
33	36	33	9	16	18	25	10	14	48	36
33	37	33	9	16	18	49	37
33	38	33	9	16	18	25	10	14	48	38
33	39	33	9	16	18	25	10	35	39
33	40	33	9	16	18	49	37	41	40
33	41	33	9	16	18	49	37	41
33	42	33	9	16	28	46	42
33	43	33	9	16	18	25	5	32	43
33	44	33	9	16	28	44
33	45	33	9	16	18	49	45
33	46	33	9	16	28	46
33	47	33	9	16	18	49	1	47
33	48	33	9	16	18	25	10	14	48
33	49	33	9	16	18	49
34	0	34	37	49	18	25	10	14	48	0
34	1	34	37	49	1
34	2	34	37	2
34	3	34	37	49	18	25	5	32	3
34	4	34	37	49	18	16	28	44	4
34	5	34	37	49	18	25	5
34	6	34	37	49	18	25	5	22	6
34	7	34	37	49	18	25	5	22	6	7
34	8	34	37	49	18	25	13	8
34	9	34	37	49	18	16	9
34	10	34	37	49	18	25	10
34	11	34	37	49	18	25	13	11
34	12	34	37	49	18	25	10	14	12
34	13	34	37	49	18	25	13
34	14	34	37	49	18	25	10	14
34	15	34	37	49	18	25	5	22	6	7	15
34	16	34	37	49	18	16
34	17	34	37	49	45	24	17
34	18	34	37	49	18
34	19	34	37	49	18	25	19
34	20	34	37	49	18	25	5	32	3	20
34	21	34	37	49	18	25	5	21
34	22	34	37	49	18	25	5	22
34	23	34	37	49	18	16	28	23
34	24	34	37	49	45	24
34	25	34	37	49	18	25
34	26	34	37	49	45	24	17	30	26
34	27	34	37	49	18	25	5	21	27
34	28	34	37	49	18	16	28
34	29	34	37	49	18	25	10	14	12	29
34	30	34	37	49	45	24	17	30
34	31	34	37	49	18	25	13	31
34	32	34	37	49	18	25	5	32
34	33	34	37	49	18	16	9	33
34	35	34	37	49	18	25	10	35
34	36	34	37	49	18	25	10	14	48	36
34	37	34	37
34	38	34	37	49	18	25	10	14	48	38
34	39	34	37	49	18	25	10	35	39
34	40	34	37	41	40
34	41	34	37	41
34	42	34	37	49	18	16	28	46	42
34	43	34	37	49	18	25	5	32	43
34	44	34	37	49	18	16	28	44
34	45	34	37	49	45
34	46	34	37	49	18	16	28	46
34	47	34	37	49	1	47
34	48	34	37	49	18	25	10	14	48
34	49	34	37	49
35	0	35	10	14	48	0
35	1	35	10	25	18	49	1
35	2	35	10	25	18	49	37	2
35	3	35	10	25	5	32	3
35	4	35	10	44	4
35	5	35	10	25	5
35	6	35	10	25	5	22	6
35	7	35	10	25	5	22	6	7
35	8	35	10	25	13	8
35	9	35	10	25	18	16	9
35	10	35	10
35	11	35	10	25	13	11
35	12	35	10	14	12
35	13	35	10	25	13
35	14	35	10	14
35	15	35	10	25	5	22	6	7	15
35	16	35	10	25	18	16
35	17	35	10	25	5	22	4	44	28	16	18	49	45	24	17
35	18	35	10	25	18
35	19	35	10	25	19
35	20	35	10	25	5	32	3	20
35	21	35	10	25	5	21
35	22	35	10	25	5	22
35	23	35	10	44	28	23
35	24	35	10	25	5	22	4	44	28	16	18	49	45	24
35	25	35	10	25
35	26	35	10	25	5	22	4	44	28	16	18	49	45	24	17	30	26
35	27	35	10	25	5	21	27
35	28	35	10	44	28
35	29	35	10	14	12	29
35	30	35	10	25	5	22	4	44	28	16	18	49	45	24	17	30
35	31	35	10	25	13	31
35	32	35	10	25	5	32
35	33	35	10	25	18	16	9	33
35	34	35	10	25	18	49	37	34
35	36	35	39	35	10	14	48	36
35	37	35	10	25	18	49	37
35	38	35	39	35	10	14	48	38
35	39	35	39
35	40	35	10	25	18	49	37	41	40
35	41	35	10	25	18	49	37	41
35	42	35	10	44	28	46	42
35	43	35	10	25	5	32	43
35	44	35	10	44
35	45	35	10	25	18	49	45
35	46	35	10	44	28	46
35	47	35	10	25	18	49	1	47
35	48	35	10	14	48
35	49	35	10	25	18	49
36	0	36	48	0
36	1	36	48	14	10	25	18	49	1
36	2	36	48	14	10	25	18	49	37	2
36	3	36	48	14	10	25	5	32	3
36	4	36	48	14	10	44	4
36	5	36	48	14	10	25	5
36	6	36	48	14	10	44	4	22	6
36	7	36	48	14	10	25	5	22	6	7
36	8	36	48	14	10	25	13	8
36	9	36	48	14	10	25	18	16	9
36	10	36	48	14	10
36	11	36	48	14	10	25	13	11
36	12	36	48	14	12
36	13	36	48	14	10	25	13
36	14	36	48	14
36	15	36	48	14	10	25	5	22	6	7	15
36	16	36	48	14	10	25	18	16
36	17	36	48	14	10	25	5	22	4	44	28	16	18	49	45	24	17
36	18	36	48	14	10	25	18
36	19	36	48	14	10	25	19
36	20	36	48	14	10	25	5	32	3	20
36	21	36	48	14	10	25	5	21
36	22	36	48	14	10	44	4	22
36	23	36	48	14	10	44	28	23
36	24	36	48	14	10	25	5	22	4	44	28	16	18	49	45	24
36	25	36	48	14	10	25
36	26	36	48	14	10	25	5	22	4	44	28	16	18	49	45	24	17	30	26
36	27	36	48	14	10	25	5	21	27
36	28	36	48	14	10	44	28
36	29	36	48	14	12	29
36	30	36	48	14	10	25	18	49	45	24	17	30
36	31	36	48	14	10	25	13	31
36	32	36	48	14	10	25	5	32
36	33	36	48	14	10	25	18	16	9	33
36	34	36	48	14	10	25	18	49	37	34
36	35	36	48	14	10	35
36	37	36	48	14	10	25	18	49	37
36	38	36	48	0	48	38
36	39	36	48	14	10	35	39
36	40	36	48	14	10	25	18	49	37	41	40
36	41	36	48	14	10	25	18	49	37	41
36	42	36	48	14	10	44	28	46	42
36	43	36	48	14	10	25	5	32	43
36	44	36	48	14	10	44
36	45	36	48	14	10	25	18	49	45
36	46	36	48	14	10	44	28	46
36	47	36	48	14	10	25	18	49	1	47
36	48	36	48
36	49	36	48	14	10	25	18	49
37	0	37	49	18	25	10	14	48	0
37	1	37	49	1
37	2	37	2
37	3	37	49	18	25	5	32	3
37	4	37	49	18	16	28	44	4
37	5	37	49	18	25	5
37	6	37	49	18	25	5	22	6
37	7	37	49	18	25	5	22	6	7
37	8	37	49	18	25	13	8
37	9	37	49	18	16	9
37	10	37	49	18	25	10
37	11	37	49	18	25	13	11
37	12	37	49	18	25	10	14	12
37	13	37	49	18	25	13
37	14	37	49	18	25	10	14
37	15	37	49	18	25	5	22	6	7	15
37	16	37	49	18	16
37	17	37	49	45	24	17
37	18	37	49	18
37	19	37	49	18	25	19
37	20	37	49	18	25	5	32	3	20
37	21	37	49	18	25	5	21
37	22	37	49	18	25	5	22
37	23	37	49	18	16	28	23
37	24	37	49	45	24
37	25	37	49	18	25
37	26	37	49	45	24	17	30	26
37	27	37	49	18	25	5	21	27
37	28	37	49	18	16	28
37	29	37	49	18	25	10	14	12	29
37	30	37	49	45	24	17	30
37	31	37	49	18	25	13	31
37	32	37	49	18	25	5	32
37	33	37	49	18	16	9	33
37	34	37	34
37	35	37	49	18	25	10	35
37	36	37	49	18	25	10	14	48	36
37	38	37	49	18	25	10	14	48	38
37	39	37	49	18	25	10	35	39
37	40	37	41	40
37	41	37	41
37	42	37	49	18	16	28	46	42
37	43	37	49	18	25	5	32	43
37	44	37	49	18	16	28	44
37	45	37	49	45
37	46	37	49	18	16	28	46
37	47	37	49	1	47
37	48	37	49	18	25	10	14	48
37	49	37	49
38	0	38	48	0
38	1	38	48	14	10	25	18	49	1
38	2	38	48	14	10	25	18	49	37	2
38	3	38	48	14	10	25	5	32	3
38	4	38	48	14	10	44	4
38	5	38	48	14	10	25	5
38	6	38	48	14	10	25	5	22	6
38	7	38	48	14	10	25	5	22	6	7
38	8	38	48	14	10	25	13	8
38	9	38	48	14	10	25	18	16	9
38	10	38	48	14	10
38	11	38	48	14	10	25	13	11
38	12	38	48	14	12
38	13	38	48	14	10	25	13
38	14	38	48	14
38	15	38	48	14	10	25	5	22	6	7	15
38	16	38	48	14	10	25	18	16
38	17	38	48	14	10	25	5	22	4	44	28	16	18	49	45	24	17
38	18	38	48	14	10	25	18
38	19	38	48	14	10	25	19
38	20	38	48	14	10	25	5	32	3	20
38	21	38	48	14	10	25	5	21
38	22	38	48	14	10	44	4	22
38	23	38	48	14	10	44	28	23
38	24	38	48	14	10	25	18	49	45	24
38	25	38	48	14	10	25
38	26	38	48	14	10	25	18	49	45	24	17	30	26
38	27	38	48	14	10	25	5	21	27
38	28	38	48	14	10	44	28
38	29	38	48	14	12	29
38	30	38	48	14	10	25	5	22	4	44	28	16	18	49	45	24	17	30
38	31	38	48	14	10	25	13	31
38	32	38	48	14	10	25	5	32
38	33	38	48	14	10	25	18	16	9	33
38	34	38	48	14	10	25	18	49	37	34
38	35	38	48	14	10	35
38	36	38	48	36
38	37	38	48	14	10	25	18	49	37
38	39	38	48	14	10	35	39
38	40	38	48	14	10	25	18	49	37	41	40
38	41	38	48	14	10	25	18	49	37	41
38	42	38	48	14	10	44	28	46	42
38	43	38	48	14	10	25	5	32	43
38	44	38	48	14	10	44
38	45	38	48	14	10	25	5	22	4	44	28	16	18	49	45
38	46	38	48	14	10	44	28	46
38	47	38	48	14	10	25	18	49	1	47
38	48	38	48
38	49	38	48	14	10	25	18	49
39	0	39	35	10	14	48	0
39	1	39	35	10	25	18	49	1
39	2	39	35	10	25	18	49	37	2
39	3	39	35	10	25	5	32	3
39	4	39	35	10	44	4
39	5	39	35	10	25	5
39	6	39	35	10	44	4	22	6
39	7	39	35	10	25	5	22	6	7
39	8	39	35	10	25	13	8
39	9	39	35	10	25	18	16	9
39	10	39	35	10
39	11	39	35	10	25	13	11
39	12	39	35	10	14	12
39	13	39	35	10	25	13
39	14	39	35	10	14
39	15	39	35	10	44	4	22	6	7	15
39	16	39	35	10	25	18	16
39	17	39	35	10	25	18	49	45	24	17
39	18	39	35	10	25	18
39	19	39	35	10	25	19
39	20	39	35	10	25	5	32	3	20
39	21	39	35	10	25	5	21
39	22	39	35	10	25	5	22
39	23	39	35	10	44	28	23
39	24	39	35	10	25	5	22	4	44	28	16	18	49	45	24
39	25	39	35	10	25
39	26	39	35	10	25	18	49	45	24	17	30	26
39	27	39	35	10	25	5	21	27
39	28	39	35	10	44	28
39	29	39	35	10	14	12	29
39	30	39	35	10	25	18	49	45	24	17	30
39	31	39	35	10	25	13	31
39	32	39	35	10	25	5	32
39	33	39	35	10	25	18	16	9	33
39	34	39	35	10	25	18	49	37	34
39	35	39	35
39	36	39	35	10	14	48	36
39	37	39	35	10	25	18	49	37
39	38	39	35	10	14	48	38
39	40	39	35	10	25	18	49	37	41	40
39	41	39	35	10	25	18	49	37	41
39	42	39	35	10	44	28	46	42
39	43	39	35	10	25	5	32	43
39	44	39	35	10	44
39	45	39	35	10	25	18	49	45
39	46	39	35	10	44	28	46
39	47	39	35	10	25	18	49	1	47
39	48	39	35	10	14	48
39	49	39	35	10	25	18	49
40	0	40	41	37	49	18	25	10	14	48	0
40	1	40	41	37	49	1
40	2	40	41	37	2
40	3	40	41	37	49	18	25	5	32	3
40	4	40	41	37	49	18	16	28	44	4
40	5	40	41	37	49	18	25	5
40	6	40	41	37	49	18	25	5	22	6
40	7	40	41	37	49	18	25	5	22	6	7
40	8	40	41	37	49	18	25	13	8
40	9	40	41	37	49	18	16	9
40	10	40	41	37	49	18	25	10
40	11	40	41	37	49	18	25	13	11
40	12	40	41	37	49	18	25	10	14	12
40	13	40	41	37	49	18	25	13
40	14	40	41	37	49	18	25	10	14
40	15	40	41	37	49	18	25	5	22	6	7	15
40	16	40	41	37	49	18	16
40	17	40	41	37	49	45	24	17
40	18	40	41	37	49	18
40	19	40	41	37	49	18	25	19
40	20	40	41	37	49	18	25	5	32	3	20
40	21	40	41	37	49	18	25	5	21
40	22	40	41	37	49	18	25	5	22
40	23	40	41	37	49	18	16	28	23
40	24	40	41	37	49	45	24
40	25	40	41	37	49	18	25
40	26	40	41	37	49	45	24	17	30	26
40	27	40	41	37	49	18	25	5	21	27
40	28	40	41	37	49	18	16	28
40	29	40	41	37	49	18	25	10	14	12	29
40	30	40	41	37	49	45	24	17	30
40	31	40	41	37	49	18	25	13	31
40	32	40	41	37	49	18	25	5	32
40	33	40	41	37	49	18	16	9	33
40	34	40	41	37	34
40	35	40	41	37	49	18	25	10	35
40	36	40	41	37	49	18	25	10	14	48	36
40	37	40	41	37
40	38	40	41	37	49	18	25	10	14	48	38
40	39	40	41	37	49	18	25	10	35	39
40	41	40	41
40	42	40	41	37	49	18	16	28	46	42
40	43	40	41	37	49	18	25	5	32	43
40	44	40	41	37	49	18	16	28	44
40	45	40	41	37	49	45
40	46	40	41	37	49	18	16	28	46
40	47	40	41	37	49	1	47
40	48	40	41	37	49	18	25	10	14	48
40	49	40	41	37	49
41	0	41	37	49	18	25	10	14	48	0
41	1	41	37	49	1
41	2	41	37	2
41	3	41	37	49	18	25	5	32	3
41	4	41	37	49	18	16	28	44	4
41	5	41	37	49	18	25	5
41	6	41	37	49	18	25	5	22	6
41	7	41	37	49	18	25	5	22	6	7
41	8	41	37	49	18	25	13	8
41	9	41	37	49	18	16	9
41	10	41	37	49	18	25	10
41	11	41	37	49	18	25	13	11
41	12	41	37	49	18	25	10	14	12
41	13	41	37	49	18	25	13
41	14	41	37	49	18	25	10	14
41	15	41	37	49	18	25	5	22	6	7	15
41	16	41	37	49	18	16
41	17	41	37	49	45	24	17
41	18	41	37	49	18
41	19	41	37	49	18	25	19
41	20	41	37	49	18	25	5	32	3	20
41	21	41	37	49	18	25	5	21
41	22	41	37	49	18	25	5	22
41	23	41	37	49	18	16	28	23
41	24	41	37	49	45	24
41	25	41	37	49	18	25
41	26	41	37	49	45	24	17	30	26
41	27	41	37	49	18	25	5	21	27
41	28	41	37	49	18	16	28
41	29	41	37	49	18	25	10	14	12	29
41	30	41	37	49	45	24	17	30
41	31	41	37	49	18	25	13	31
41	32	41	37	49	18	25	5	32
41	33	41	37	49	18	16	9	33
41	34	41	37	2	37	34
41	35	41	37	49	18	25	10	35
41	36	41	37	49	18	25	10	14	48	36
41	37	41	37
41	38	41	37	49	18	25	10	14	48	38
41	39	41	37	49	18	25	10	35	39
41	40	41	40
41	42	41	37	49	18	16	28	46	42
41	43	41	37	49	18	25	5	32	43
41	44	41	37	49	18	16	28	44
41	45	41	37	49	45
41	46	41	37	49	18	16	28	46
41	47	41	37	49	1	47
41	48	41	37	49	18	25	10	14	48
41	49	41	37	49
42	0	42	46	28	44	10	14	48	0
42	1	42	46	28	16	18	49	1
42	2	42	46	28	16	18	49	37	2
42	3	42	46	28	44	4	22	5	32	3
42	4	42	46	28	44	4
42	5	42	46	28	44	4	22	5
42	6	42	46	28	44	4	22	6
42	7	42	46	28	44	4	22	6	7
42	8	42	46	28	44	10	25	13	8
42	9	42	46	28	16	9
42	10	42	46	28	44	10
42	11	42	46	28	44	10	25	13	11
42	12	42	46	28	44	10	14	12
42	13	42	46	28	44	10	25	13
42	14	42	46	28	44	10	14
42	15	42	46	28	44	4	22	6	7	15
42	16	42	46	28	16
42	17	42	46	28	16	18	49	45	24	17
42	18	42	46	28	16	18
42	19	42	46	28	44	10	25	19
42	20	42	46	28	44	4	22	5	32	3	20
42	21	42	46	28	44	4	22	5	21
42	22	42	46	28	44	4	22
42	23	42	46	28	23
42	24	42	46	28	16	18	49	45	24
42	25	42	46	28	44	10	25
42	26	42	46	28	16	18	49	45	24	17	30	26
42	27	42	46	28	44	4	22	5	21	27
42	28	42	46	28
42	29	42	46	28	44	10	14	12	29
42	30	42	46	28	16	18	49	45	24	17	30
42	31	42	46	28	44	10	25	13	31
42	32	42	46	28	16	18	25	5	32
42	33	42	46	28	16	9	33
42	34	42	46	28	16	18	49	37	34
42	35	42	46	28	44	10	35
42	36	42	46	28	44	10	14	48	36
42	37	42	46	28	16	18	49	37
42	38	42	46	28	44	10	14	48	38
42	39	42	46	28	44	10	35	39
42	40	42	46	28	16	18	49	37	41	40
42	41	42	46	28	16	18	49	37	41
42	43	42	46	28	44	4	22	5	32	43
42	44	42	46	28	44
42	45	42	46	28	16	18	49	45
42	46	42	46
42	47	42	46	28	16	18	49	1	47
42	48	42	46	28	44	10	14	48
42	49	42	46	28	16	18	49
43	0	43	32	5	25	10	14	48	0
43	1	43	32	5	25	18	49	1
43	2	43	32	5	25	18	49	37	2
43	3	43	32	3
43	4	43	32	5	22	4
43	5	43	32	5
43	6	43	32	5	22	6
43	7	43	32	5	22	6	7
43	8	43	32	5	25	13	8
43	9	43	32	5	25	18	16	9
43	10	43	32	5	25	10
43	11	43	32	5	25	13	11
43	12	43	32	5	25	10	14	12
43	13	43	32	5	25	13
43	14	43	32	5	25	10	14
43	15	43	32	5	22	6	7	15
43	16	43	32	5	25	18	16
43	17	43	32	5	25	18	49	45	24	17
43	18	43	32	5	25	18
43	19	43	32	5	25	19
43	20	43	32	3	20
43	21	43	32	5	21
43	22	43	32	5	22
43	23	43	32	5	22	4	44	28	23
43	24	43	32	5	25	18	49	45	24
43	25	43	32	5	25
43	26	43	32	5	22	4	44	28	16	18	49	45	24	17	30	26
43	27	43	32	5	21	27
43	28	43	32	5	22	4	44	28
43	29	43	32	5	25	10	14	12	29
43	30	43	32	5	25	18	49	45	24	17	30
43	31	43	32	5	25	13	31
43	32	43	32
43	33	43	32	5	25	18	16	9	33
43	34	43	32	5	25	18	49	37	34
43	35	43	32	5	25	10	35
43	36	43	32	5	25	10	14	48	36
43	37	43	32	5	22	4	44	28	16	18	49	37
43	38	43	32	5	25	10	14	48	38
43	39	43	32	5	25	10	35	39
43	40	43	32	5	25	18	49	37	41	40
43	41	43	32	5	25	18	49	37	41
43	42	43	32	5	25	18	16	28	46	42
43	44	43	32	5	22	4	44
43	45	43	32	5	25	18	49	45
43	46	43	32	5	25	18	16	28	46
43	47	43	32	5	22	4	44	28	16	18	49	1	47
43	48	43	32	5	25	10	14	48
43	49	43	32	5	25	18	49
44	0	44	10	14	48	0
44	1	44	10	25	18	49	1
44	2	44	10	25	18	49	37	2
44	3	44	4	22	5	32	3
44	4	44	4
44	5	44	4	22	5
44	6	44	4	22	6
44	7	44	4	22	6	7
44	8	44	10	25	13	8
44	9	44	28	16	9
44	10	44	10
44	11	44	10	25	13	11
44	12	44	10	14	12
44	13	44	10	25	13
44	14	44	10	14
44	15	44	4	22	6	7	15
44	16	44	28	16
44	17	44	28	16	18	49	45	24	17
44	18	44	10	25	18
44	19	44	10	25	19
44	20	44	4	22	5	32	3	20
44	21	44	4	22	5	21
44	22	44	4	22
44	23	44	28	23
44	24	44	28	16	18	49	45	24
44	25	44	10	25
44	26	44	28	16	18	49	45	24	17	30	26
44	27	44	4	22	5	21	27
44	28	44	28
44	29	44	10	14	12	29
44	30	44	10	25	18	49	45	24	17	30
44	31	44	10	25	13	31
44	32	44	4	22	5	32
44	33	44	28	16	9	33
44	34	44	10	25	18	49	37	34
44	35	44	10	35
44	36	44	10	14	48	36
44	37	44	10	25	18	49	37
44	38	44	10	14	48	38
44	39	44	10	35	39
44	40	44	10	25	18	49	37	41	40
44	41	44	10	25	18	49	37	41
44	42	44	28	46	42
44	43	44	4	22	5	32	43
44	45	44	28	16	18	49	45
44	46	44	28	46
44	47	44	10	25	18	49	1	47
44	48	44	10	14	48
44	49	44	10	25	18	49
45	0	45	49	18	25	10	14	48	0
45	1	45	49	1
45	2	45	49	37	2
45	3	45	49	18	25	5	32	3
45	4	45	49	18	16	28	44	4
45	5	45	49	18	25	5
45	6	45	49	18	25	5	22	6
45	7	45	49	18	25	5	22	6	7
45	8	45	49	18	25	13	8
45	9	45	49	18	16	9
45	10	45	49	18	25	10
45	11	45	49	18	25	13	11
45	12	45	49	18	25	10	14	12
45	13	45	49	18	25	13
45	14	45	49	18	25	10	14
45	15	45	49	18	25	5	22	6	7	15
45	16	45	49	18	16
45	17	45	24	17
45	18	45	49	18
45	19	45	49	18	25	19
45	20	45	49	18	25	5	32	3	20
45	21	45	49	18	25	5	21
45	22	45	49	18	25	5	22
45	23	45	49	18	16	28	23
45	24	45	24
45	25	45	49	18	25
45	26	45	24	17	30	26
45	27	45	49	18	25	5	21	27
45	28	45	49	18	16	28
45	29	45	49	18	25	10	14	12	29
45	30	45	24	17	30
45	31	45	49	18	25	13	31
45	32	45	49	18	25	5	32
45	33	45	49	18	16	9	33
45	34	45	49	37	34
45	35	45	49	18	25	10	35
45	36	45	49	18	25	10	14	48	36
45	37	45	49	37
45	38	45	49	18	25	10	14	48	38
45	39	45	49	18	25	10	35	39
45	40	45	49	37	41	40
45	41	45	49	37	41
45	42	45	49	18	16	28	46	42
45	43	45	49	18	25	5	32	43
45	44	45	49	18	16	28	44
45	46	45	49	18	16	28	46
45	47	45	49	1	47
45	48	45	49	18	25	10	14	48
45	49	45	49
46	0	46	28	44	10	14	48	0
46	1	46	28	16	18	49	1
46	2	46	28	16	18	49	37	2
46	3	46	28	16	18	25	5	32	3
46	4	46	28	44	4
46	5	46	28	16	18	25	5
46	6	46	28	44	4	22	6
46	7	46	28	44	4	22	6	7
46	8	46	28	44	10	25	13	8
46	9	46	28	16	9
46	10	46	28	44	10
46	11	46	28	44	10	25	13	11
46	12	46	28	44	10	14	12
46	13	46	28	44	10	25	13
46	14	46	28	44	10	14
46	15	46	28	44	4	22	6	7	15
46	16	46	28	16
46	17	46	42	46	28	16	18	49	45	24	17
46	18	46	28	16	18
46	19	46	28	44	10	25	19
46	20	46	28	16	18	25	5	32	3	20
46	21	46	28	44	4	22	5	21
46	22	46	28	44	4	22
46	23	46	28	23
46	24	46	42	46	28	16	18	49	45	24
46	25	46	28	44	10	25
46	26	46	42	46	28	16	18	49	45	24	17	30	26
46	27	46	28	16	18	25	5	21	27
46	28	46	28
46	29	46	28	44	10	14	12	29
46	30	46	42	46	28	16	18	49	45	24	17	30
46	31	46	28	44	10	25	13	31
46	32	46	28	44	4	22	5	32
46	33	46	42	46	28	16	9	33
46	34	46	28	16	18	49	37	34
46	35	46	28	44	10	35
46	36	46	28	44	10	14	48	36
46	37	46	28	16	18	49	37
46	38	46	28	44	10	14	48	38
46	39	46	28	44	10	35	39
46	40	46	28	16	18	49	37	41	40
46	41	46	28	16	18	49	37	41
46	42	46	42
46	43	46	28	16	18	25	5	32	43
46	44	46	28	44
46	45	46	42	46	28	16	18	49	45
46	47	46	42	46	28	16	18	49	1	47
46	48	46	28	44	10	14	48
46	49	46	28	16	18	49
47	0	47	1	49	18	25	10	14	48	0
47	1	47	1
47	2	47	1	49	37	2
47	3	47	1	49	18	25	5	32	3
47	4	47	1	49	18	16	28	44	4
47	5	47	1	49	18	25	5
47	6	47	1	49	18	25	5	22	6
47	7	47	1	49	18	25	5	22	6	7
47	8	47	1	49	18	25	13	8
47	9	47	1	49	18	16	9
47	10	47	1	49	18	25	10
47	11	47	1	49	18	25	13	11
47	12	47	1	49	18	25	10	14	12
47	13	47	1	49	18	25	13
47	14	47	1	49	18	25	10	14
47	15	47	1	49	18	25	5	22	6	7	15
47	16	47	1	49	18	16
47	17	47	1	49	45	24	17
47	18	47	1	49	18
47	19	47	1	49	18	25	19
47	20	47	1	49	18	25	5	32	3	20
47	21	47	1	49	18	25	5	21
47	22	47	1	49	18	25	5	22
47	23	47	1	49	18	16	28	23
47	24	47	1	49	45	24
47	25	47	1	49	18	25
47	26	47	1	49	45	24	17	30	26
47	27	47	1	49	18	25	5	21	27
47	28	47	1	49	18	16	28
47	29	47	1	49	18	25	10	14	12	29
47	30	47	1	49	45	24	17	30
47	31	47	1	49	18	25	13	31
47	32	47	1	49	18	25	5	32
47	33	47	1	49	18	16	9	33
47	34	47	1	49	37	34
47	35	47	1	49	18	25	10	35
47	36	47	1	49	18	25	10	14	48	36
47	37	47	1	49	37
47	38	47	1	49	18	25	10	14	48	38
47	39	47	1	49	18	25	10	35	39
47	40	47	1	49	37	41	40
47	41	47	1	49	37	41
47	42	47	1	49	18	16	28	46	42
47	43	47	1	49	18	25	5	32	43
47	44	47	1	49	18	16	28	44
47	45	47	1	49	45
47	46	47	1	49	18	16	28	46
47	48	47	1	49	18	25	10	14	48
47	49	47	1	49
48	0	48	0
48	1	48	14	10	25	18	49	1
48	2	48	14	10	25	18	49	37	2
48	3	48	14	10	25	5	32	3
48	4	48	14	10	44	4
48	5	48	14	10	25	5
48	6	48	14	10	25	5	22	6
48	7	48	14	10	25	5	22	6	7
48	8	48	14	10	25	13	8
48	9	48	14	10	25	18	16	9
48	10	48	14	10
48	11	48	14	10	25	13	11
48	12	48	14	12
48	13	48	14	10	25	13
48	14	48	14
48	15	48	14	10	44	4	22	6	7	15
48	16	48	14	10	25	18	16
48	17	48	14	10	25	5	22	4	44	28	16	18	49	45	24	17
48	18	48	14	10	25	18
48	19	48	14	10	25	19
48	20	48	14	10	25	5	32	3	20
48	21	48	14	10	25	5	21
48	22	48	14	10	44	4	22
48	23	48	14	10	44	28	23
48	24	48	14	10	25	18	49	45	24
48	25	48	14	10	25
48	26	48	14	10	25	5	22	4	44	28	16	18	49	45	24	17	30	26
48	27	48	14	10	25	5	21	27
48	28	48	14	10	44	28
48	29	48	14	12	29
48	30	48	14	10	25	18	49	45	24	17	30
48	31	48	14	10	25	13	31
48	32	48	14	10	25	5	32
48	33	48	14	10	25	18	16	9	33
48	34	48	14	10	25	18	49	37	34
48	35	48	14	10	35
48	36	48	36
48	37	48	14	10	25	18	49	37
48	38	48	38
48	39	48	14	10	35	39
48	40	48	14	10	25	18	49	37	41	40
48	41	48	14	10	25	18	49	37	41
48	42	48	14	10	44	28	46	42
48	43	48	14	10	25	5	32	43
48	44	48	14	10	44
48	45	48	14	10	25	5	22	4	44	28	16	18	49	45
48	46	48	14	10	44	28	46
48	47	48	14	10	25	18	49	1	47
48	49	48	14	10	25	18	49
49	0	49	18	25	10	14	48	0
49	1	49	1
49	2	49	37	2
49	3	49	18	25	5	32	3
49	4	49	18	16	28	44	4
49	5	49	18	25	5
49	6	49	18	25	5	22	6
49	7	49	18	25	5	22	6	7
49	8	49	18	25	13	8
49	9	49	18	16	9
49	10	49	18	25	10
49	11	49	18	25	13	11
49	12	49	18	25	10	14	12
49	13	49	18	25	13
49	14	49	18	25	10	14
49	15	49	18	25	5	22	6	7	15
49	16	49	18	16
49	17	49	45	24	17
49	18	49	18
49	19	49	18	25	19
49	20	49	18	25	5	32	3	20
49	21	49	18	25	5	21
49	22	49	18	25	5	22
49	23	49	18	16	28	23
49	24	49	45	24
49	25	49	18	25
49	26	49	45	24	17	30	26
49	27	49	18	25	5	21	27
49	28	49	18	16	28
49	29	49	18	25	10	14	12	29
49	30	49	45	24	17	30
49	31	49	18	25	13	31
49	32	49	18	25	5	32
49	33	49	18	16	9	33
49	34	49	37	34
49	35	49	18	25	10	35
49	36	49	18	25	10	14	48	36
49	37	49	37
49	38	49	18	25	10	14	48	38
49	39	49	18	25	10	35	39
49	40	49	37	41	40
49	41	49	37	41
49	42	49	18	16	28	46	42
49	43	49	18	25	5	32	43
49	44	49	18	16	28	44
49	45	49	45
49	46	49	18	16	28	46
49	47	49	1	47
49	48	49	18	25	10	14	48
258
15	1	6
15	2	6
15	3	6
15	5	6
15	8	6
15	9	6
15	10	6
15	11	6
15	13	6
15	16	6
15	18	6
15	19	6
15	20	6
15	21	6
15	25	6
15	26	6
15	27	6
15	30	6
15	31	6
15	32	6
15	33	6
15	34	6
15	37	6
15	40	6
15	41	6
15	43	6
15	45	6
15	47	6
15	49	6
20	0	32
20	6	32
20	7	32
20	15	32
20	21	32
20	22	32
20	27	32
20	36	32
20	38	32
20	39	32
20	43	32
20	48	32
26	1	17
26	2	17
26	3	17
26	8	17
26	15	17
26	20	17
26	27	17
26	31	17
26	32	17
26	34	24
26	37	17
26	40	24
26	41	24
26	43	17
29	0	14
29	1	14
29	2	14
29	3	14
29	4	14
29	5	14
29	6	14
29	7	14
29	9	14
29	15	14
29	16	14
29	17	14
29	18	14
29	19	14
29	20	14
29	21	14
29	22	14
29	23	14
29	24	14
29	26	14
29	27	14
29	28	14
29	30	14
29	32	14
29	33	14
29	34	14
29	36	14
29	37	14
29	38	14
29	39	14
29	40	14
29	41	14
29	42	14
29	43	14
29	44	14
29	45	14
29	46	14
29	47	14
29	48	14
29	49	14
30	3	24
30	5	24
30	6	24
30	7	24
30	8	24
30	10	24
30	11	24
30	13	24
30	14	24
30	15	24
30	16	24
30	18	24
30	19	24
30	20	24
30	21	24
30	22	24
30	25	24
30	27	24
30	31	24
30	32	24
30	35	24
30	39	24
30	43	24
30	45	24
30	47	24
30	49	24
33	0	16
33	1	16
33	2	16
33	3	16
33	8	16
33	11	16
33	13	16
33	17	16
33	20	16
33	24	16
33	26	16
33	30	16
33	31	16
33	34	16
33	36	16
33	37	16
33	38	16
33	40	16
33	41	16
33	42	16
33	45	16
33	46	16
33	47	16
33	48	16
33	49	16
35	3	25
35	4	44
35	5	25
35	6	25
35	7	25
35	15	25
35	20	25
35	21	25
35	22	25
35	27	25
35	32	25
35	43	25
36	3	14
36	4	14
36	5	14
36	6	14
36	7	14
36	15	14
36	20	14
36	21	14
36	22	14
36	27	14
36	32	14
36	35	14
36	38	0
36	39	14
36	43	14
39	0	10
39	2	10
39	3	10
39	5	10
39	6	10
39	7	10
39	15	10
39	20	10
39	21	10
39	22	10
39	27	10
39	29	10
39	31	10
39	32	10
39	36	10
39	38	10
39	42	10
39	43	10
39	46	10
39	48	10
40	1	37
40	17	37
40	26	37
40	30	37
40	34	37
40	47	37
41	1	49
41	17	49
41	26	49
41	30	49
41	34	2
41	47	49
42	1	28
42	2	28
42	3	28
42	8	28
42	9	28
42	11	28
42	13	28
42	17	28
42	18	28
42	20	28
42	23	28
42	24	28
42	25	28
42	26	28
42	30	28
42	31	28
42	32	28
42	33	28
42	34	28
42	37	28
42	40	28
42	41	28
42	43	28
42	45	28
42	47	28
42	49	28
46	0	44
46	6	44
46	7	44
46	12	44
46	14	44
46	15	44
46	29	44
46	36	44
46	38	44
46	39	44
46	48	44
47	0	49
47	9	49
47	12	49
47	17	49
47	23	49
47	24	49
47	28	49
47	29	49
47	30	49
47	33	49
47	36	49
47	38	49
47	42	49
47	45	49
47	46	49
47	48	49
