6601.24
-1
0.000661857
3	4	6
24
0	1	16041
1	0	16100
1	4	1.19856e+06
1	5	579879
1	11	234336
2	5	879453
2	8	64473
3	6	91225
4	1	843471
4	6	173131
4	7	665211
5	1	937913
5	2	546193
6	3	98120
6	4	118586
7	4	921998
7	9	128182
8	2	192954
8	11	161277
9	7	245315
9	10	54115
10	9	216615
11	1	240168
11	8	131743
132
0	1	0	1
0	2	0	1	5	2
0	3	0	1	4	6	3
0	4	0	1	4
0	5	0	1	5
0	6	0	1	4	6
0	7	0	1	4	7
0	8	0	1	11	8
0	9	0	1	4	7	9
0	10	0	1	4	7	9	10
0	11	0	1	11
1	0	1	0
1	2	1	5	2
1	3	1	4	6	3
1	4	1	4
1	5	1	5
1	6	1	4	6
1	7	1	4	7
1	8	1	11	8
1	9	1	4	7	9
1	10	1	4	7	9	10
1	11	1	11
2	0	2	5	1	0
2	1	2	5	1
2	3	2	5	1	4	6	3
2	4	2	5	1	4
2	5	2	5
2	6	2	5	1	4	6
2	7	2	5	1	4	7
2	8	2	8
2	9	2	5	1	4	7	9
2	10	2	5	1	4	7	9	10
2	11	2	8	11
3	0	3	6	4	1	0
3	1	3	6	4	1
3	2	3	6	4	1	5	2
3	4	3	6	4
3	5	3	6	4	1	5
3	6	3	6
3	7	3	6	4	7
3	8	3	6	4	1	11	8
3	9	3	6	4	7	9
3	10	3	6	4	7	9	10
3	11	3	6	4	1	11
4	0	4	1	0
4	1	4	1
4	2	4	1	5	2
4	3	4	6	3
4	5	4	1	5
4	6	4	6
4	7	4	7
4	8	4	1	11	8
4	9	4	7	9
4	10	4	7	9	10
4	11	4	1	11
5	0	5	1	0
5	1	5	1
5	2	5	2
5	3	5	1	4	6	3
5	4	5	1	4
5	6	5	1	4	6
5	7	5	1	4	7
5	8	5	2	8
5	9	5	1	4	7	9
5	10	5	1	4	7	9	10
5	11	5	1	11
6	0	6	4	1	0
6	1	6	4	1
6	2	6	4	1	5	2
6	3	6	3
6	4	6	4
6	5	6	4	1	5
6	7	6	4	7
6	8	6	4	1	11	8
6	9	6	4	7	9
6	10	6	4	7	9	10
6	11	6	4	1	11
7	0	7	4	1	0
7	1	7	4	1
7	2	7	4	1	5	2
7	3	7	9	7	4	6	3
7	4	7	4
7	5	7	4	1	5
7	6	7	4	6
7	8	7	4	1	11	8
7	9	7	9
7	10	7	9	10
7	11	7	4	1	11
8	0	8	11	1	0
8	1	8	11	1
8	2	8	2
8	3	8	2	5	1	4	6	3
8	4	8	11	1	4
8	5	8	2	5
8	6	8	2	5	1	4	6
8	7	8	11	1	4	7
8	9	8	11	1	4	7	9
8	10	8	2	5	1	4	7	9	10
8	11	8	11
9	0	9	7	4	1	0
9	1	9	7	4	1
9	2	9	7	4	1	5	2
9	3	9	7	4	6	3
9	4	9	7	4
9	5	9	7	4	1	5
9	6	9	7	4	6
9	7	9	7
9	8	9	7	4	1	11	8
9	10	9	10
9	11	9	7	4	1	11
10	0	10	9	7	4	1	0
10	1	10	9	7	4	1
10	2	10	9	7	4	1	5	2
10	3	10	9	7	9	7	4	6	3
10	4	10	9	7	4
10	5	10	9	7	4	1	5
10	6	10	9	7	4	6
10	7	10	9	7
10	8	10	9	7	4	1	11	8
10	9	10	9
10	11	10	9	7	4	1	11
11	0	11	1	0
11	1	11	1
11	2	11	8	2
11	3	11	1	4	6	3
11	4	11	1	4
11	5	11	1	5
11	6	11	1	4	6
11	7	11	1	4	7
11	8	11	8
11	9	11	1	4	7	9
11	10	11	1	4	7	9	10
18
5	3	4
5	6	4
5	9	4
5	10	4
9	2	4
9	3	4
9	5	4
9	6	4
9	8	4
10	0	7
10	1	7
10	2	7
10	3	7
10	4	7
10	5	7
10	6	7
10	8	7
10	11	7
