8911.96
-1
0.00450536
0	1	2	4	5	6	7	8	9	12
30
0	5	60216.8
0	6	45804
0	7	30109.8
1	2	32494
1	4	9039.25
1	5	65142
2	1	38953.8
2	7	34801.2
3	5	22904.8
4	1	9869.75
5	0	61930
5	1	68197.2
5	3	23757.2
5	12	24444.8
6	0	49563.2
6	9	25407.2
6	13	21738.8
7	0	32678.2
7	2	41068.5
7	8	21095.2
7	14	17968.5
8	7	23089
8	11	15350.5
9	6	25344
10	13	10956
11	8	17028
12	5	26741
13	6	24711.5
13	10	10507.8
14	7	21483
210
0	1	0	5	1
0	2	0	7	2
0	3	0	5	3
0	4	0	5	1	4
0	5	0	5
0	6	0	6
0	7	0	7
0	8	0	7	8
0	9	0	6	9
0	10	0	6	13	10
0	11	0	7	8	11
0	12	0	5	12
0	13	0	6	13
0	14	0	7	14
1	0	1	5	0
1	2	1	2
1	3	1	5	3
1	4	1	4
1	5	1	5
1	6	1	5	0	6
1	7	1	2	7
1	8	1	2	7	8
1	9	1	5	0	6	9
1	10	1	5	0	6	13	10
1	11	1	2	7	8	11
1	12	1	5	12
1	13	1	5	0	6	13
1	14	1	2	7	14
2	0	2	7	0
2	1	2	1
2	3	2	1	5	3
2	4	2	1	4
2	5	2	1	5
2	6	2	7	0	6
2	7	2	7
2	8	2	7	8
2	9	2	7	0	6	9
2	10	2	7	0	6	13	10
2	11	2	7	8	11
2	12	2	1	5	12
2	13	2	7	0	6	13
2	14	2	7	14
3	0	3	5	0
3	1	3	5	12	5	1
3	2	3	5	0	7	2
3	4	3	5	12	5	1	4
3	5	3	5
3	6	3	5	0	6
3	7	3	5	0	7
3	8	3	5	0	7	8
3	9	3	5	0	6	9
3	10	3	5	0	6	13	10
3	11	3	5	0	7	8	11
3	12	3	5	12
3	13	3	5	0	6	13
3	14	3	5	0	7	14
4	0	4	1	5	0
4	1	4	1
4	2	4	1	2
4	3	4	1	5	3
4	5	4	1	5
4	6	4	1	5	0	6
4	7	4	1	2	7
4	8	4	1	2	7	8
4	9	4	1	5	0	6	9
4	10	4	1	5	0	6	13	10
4	11	4	1	2	7	8	11
4	12	4	1	5	12
4	13	4	1	5	0	6	13
4	14	4	1	2	7	14
5	0	5	0
5	1	5	1
5	2	5	1	2
5	3	5	3
5	4	5	1	4
5	6	5	0	6
5	7	5	0	7
5	8	5	0	7	8
5	9	5	0	6	9
5	10	5	0	6	13	10
5	11	5	0	7	8	11
5	12	5	12
5	13	5	0	6	13
5	14	5	0	7	14
6	0	6	0
6	1	6	0	5	1
6	2	6	0	7	2
6	3	6	0	5	3
6	4	6	0	5	1	4
6	5	6	0	5
6	7	6	0	7
6	8	6	0	7	8
6	9	6	9
6	10	6	13	10
6	11	6	0	7	8	11
6	12	6	0	5	12
6	13	6	13
6	14	6	0	7	14
7	0	7	0
7	1	7	2	1
7	2	7	2
7	3	7	0	5	3
7	4	7	2	1	4
7	5	7	0	5
7	6	7	0	6
7	8	7	8
7	9	7	0	6	9
7	10	7	0	6	13	10
7	11	7	8	11
7	12	7	0	5	12
7	13	7	0	6	13
7	14	7	14
8	0	8	7	0
8	1	8	7	2	1
8	2	8	7	2
8	3	8	7	0	5	3
8	4	8	7	2	1	4
8	5	8	7	0	5
8	6	8	7	0	6
8	7	8	7
8	9	8	7	0	6	9
8	10	8	7	0	6	13	10
8	11	8	11
8	12	8	7	0	5	12
8	13	8	7	0	6	13
8	14	8	7	14
9	0	9	6	0
9	1	9	6	0	5	1
9	2	9	6	0	7	2
9	3	9	6	0	5	3
9	4	9	6	0	5	1	4
9	5	9	6	0	5
9	6	9	6
9	7	9	6	0	7
9	8	9	6	0	7	8
9	10	9	6	13	10
9	11	9	6	0	7	8	11
9	12	9	6	0	5	12
9	13	9	6	13
9	14	9	6	0	7	14
10	0	10	13	6	0
10	1	10	13	6	0	5	1
10	2	10	13	6	0	7	2
10	3	10	13	6	0	5	3
10	4	10	13	6	0	5	1	4
10	5	10	13	6	0	5
10	6	10	13	6
10	7	10	13	6	0	7
10	8	10	13	6	0	7	8
10	9	10	13	6	9
10	11	10	13	6	0	7	8	11
10	12	10	13	6	0	5	12
10	13	10	13
10	14	10	13	6	0	7	14
11	0	11	8	7	0
11	1	11	8	7	2	1
11	2	11	8	7	2
11	3	11	8	7	0	5	3
11	4	11	8	7	2	1	4
11	5	11	8	7	0	5
11	6	11	8	7	0	6
11	7	11	8	7
11	8	11	8
11	9	11	8	7	0	6	9
11	10	11	8	7	0	6	13	10
11	12	11	8	7	0	5	12
11	13	11	8	7	0	6	13
11	14	11	8	7	14
12	0	12	5	0
12	1	12	5	1
12	2	12	5	1	2
12	3	12	5	3
12	4	12	5	1	4
12	5	12	5
12	6	12	5	0	6
12	7	12	5	0	7
12	8	12	5	0	7	8
12	9	12	5	0	6	9
12	10	12	5	0	6	13	10
12	11	12	5	0	7	8	11
12	13	12	5	0	6	13
12	14	12	5	0	7	14
13	0	13	6	0
13	1	13	6	0	5	1
13	2	13	6	0	7	2
13	3	13	6	0	5	3
13	4	13	6	0	5	1	4
13	5	13	6	0	5
13	6	13	6
13	7	13	6	0	7
13	8	13	6	0	7	8
13	9	13	6	9
13	10	13	10
13	11	13	6	0	7	8	11
13	12	13	6	0	5	12
13	14	13	6	0	7	14
14	0	14	7	0
14	1	14	7	2	1
14	2	14	7	2
14	3	14	7	0	5	3
14	4	14	7	2	1	4
14	5	14	7	0	5
14	6	14	7	0	6
14	7	14	7
14	8	14	7	0	7	8
14	9	14	7	0	6	9
14	10	14	7	0	6	13	10
14	11	14	7	2	7	8	11
14	12	14	7	0	5	12
14	13	14	7	0	6	13
25
3	1	12
3	2	0
3	4	12
10	0	6
10	1	6
10	2	6
10	3	6
10	4	6
10	5	6
10	7	6
10	12	6
10	14	6
11	6	7
11	9	7
11	10	7
11	12	7
11	13	7
13	1	0
13	3	0
13	4	0
13	5	0
13	12	0
14	8	0
14	9	0
14	11	2
