39423.7
-1
4.68135
0	1	2	3	4	5	8	9	12	13	14	15	16	21	23	24	25	26	27	29	30	32	34	37	38	39	40	41	42	44	45	46	48	50	51	52	54	57	58	59	62	64
134
0	30	567
0	42	288
1	9	288
2	27	50980.5
3	58	699669
4	24	640804
5	62	1.00214e+06
6	39	288
7	44	1.5526e+06
8	20	288
8	29	567
9	1	288
9	27	5.17564e+06
9	41	654408
9	46	2.16963e+06
10	34	197334
11	34	288
12	22	282357
12	39	1.84801e+06
13	30	1.57859e+06
13	40	422361
14	58	4.33305e+06
15	39	444150
15	61	288
16	26	1.2624e+06
17	43	18
17	63	283.5
18	44	1.20897e+06
19	57	288
20	8	288
21	52	288
22	12	375957
23	25	448686
23	47	334796
23	54	2.8671e+06
24	4	346050
24	60	420309
24	62	1.30644e+06
25	23	708246
25	48	448407
26	16	847323
26	62	2.48705e+06
27	2	50980.5
27	9	3.33638e+06
27	28	214124
27	29	1.56689e+07
27	30	3.11796e+06
27	31	914530
27	38	499954
27	45	3.11998e+06
27	52	3447
27	54	4.77917e+06
28	27	305564
29	8	567
29	27	1.4742e+07
29	32	908266
29	39	3.82884e+06
29	57	567
29	62	8.7156e+06
30	0	567
30	13	895023
30	27	5.26714e+06
31	27	914530
32	29	974866
32	37	130221
33	54	819
33	63	553.5
34	10	103374
34	11	288
34	58	1.37527e+06
35	49	301.5
36	45	94180.5
36	53	292.5
37	32	196821
38	27	850856
39	6	288
39	12	2.28084e+06
39	15	426946
39	29	4.47917e+06
39	49	576
40	13	725346
41	9	1.04429e+06
42	0	288
43	17	13.5
43	55	288
44	7	1.60746e+06
44	18	683370
44	46	2.85062e+06
44	58	3.54353e+06
45	27	3.84031e+06
45	36	72580.5
45	64	1.14413e+06
46	9	2.34039e+06
46	44	2.67985e+06
47	23	622426
47	60	239566
48	25	707967
49	35	301.5
49	39	576
50	54	996214
51	54	185292
52	21	288
52	27	3447
53	36	292.5
54	23	2.53376e+06
54	27	7.79984e+06
54	33	823.5
54	50	605254
54	51	111132
54	55	71595
55	43	283.5
55	54	105080
56	58	288
57	19	288
57	29	567
58	3	402669
58	14	2.59518e+06
58	34	1.1781e+06
58	44	3.10593e+06
58	56	288
58	59	288
58	62	8.91702e+06
59	58	288
60	24	505998
60	47	403358
61	15	288
62	5	576256
62	24	925996
62	26	1.60505e+06
62	29	1.50816e+07
62	58	6.23253e+06
63	17	288
63	33	549
64	45	1.84287e+06
4160
0	1	0	30	27	9	1
0	2	0	30	27	2
0	3	0	30	27	29	62	58	3
0	4	0	30	27	29	62	24	4
0	5	0	30	27	29	62	5
0	6	0	30	27	29	39	6
0	7	0	30	27	9	46	44	7
0	8	0	30	27	29	8
0	9	0	30	27	9
0	10	0	30	27	29	62	58	34	10
0	11	0	30	27	29	62	58	34	11
0	12	0	30	27	29	39	12
0	13	0	30	13
0	14	0	30	27	29	62	58	14
0	15	0	30	27	29	39	15
0	16	0	30	27	29	62	26	16
0	17	0	30	27	54	33	63	17
0	18	0	30	27	9	46	44	18
0	19	0	30	27	29	57	19
0	20	0	30	27	29	8	20
0	21	0	30	27	52	21
0	22	0	30	27	29	39	12	22
0	23	0	30	27	54	23
0	24	0	30	27	29	62	24
0	25	0	30	27	54	23	25
0	26	0	30	27	29	62	26
0	27	0	30	27
0	28	0	30	27	28
0	29	0	30	27	29
0	30	0	30
0	31	0	30	27	31
0	32	0	30	27	29	32
0	33	0	30	27	54	33
0	34	0	30	27	29	62	58	34
0	35	0	30	27	29	39	49	35
0	36	0	30	27	45	36
0	37	0	30	27	29	32	37
0	38	0	30	27	38
0	39	0	30	27	29	39
0	40	0	30	13	40
0	41	0	30	27	9	41
0	42	0	42
0	43	0	30	27	54	55	43
0	44	0	30	27	9	46	44
0	45	0	30	27	45
0	46	0	30	27	9	46
0	47	0	30	27	54	23	47
0	48	0	30	27	54	23	25	48
0	49	0	30	27	29	39	49
0	50	0	30	27	54	50
0	51	0	30	27	54	51
0	52	0	30	27	52
0	53	0	30	27	45	36	53
0	54	0	30	27	54
0	55	0	30	27	54	55
0	56	0	30	27	29	62	58	56
0	57	0	30	27	29	57
0	58	0	30	27	29	62	58
0	59	0	30	27	29	62	58	59
0	60	0	30	27	29	62	24	60
0	61	0	30	27	29	39	15	61
0	62	0	30	27	29	62
0	63	0	30	27	54	33	63
0	64	0	30	27	45	64
1	0	1	9	27	30	0
1	2	1	9	27	2
1	3	1	9	46	44	58	3
1	4	1	9	27	29	62	24	4
1	5	1	9	27	29	62	5
1	6	1	9	27	29	39	6
1	7	1	9	46	44	7
1	8	1	9	27	29	8
1	9	1	9
1	10	1	9	46	44	58	34	10
1	11	1	9	46	44	58	34	11
1	12	1	9	27	29	39	12
1	13	1	9	27	30	13
1	14	1	9	46	44	58	14
1	15	1	9	27	29	39	15
1	16	1	9	27	29	62	26	16
1	17	1	9	27	54	33	63	17
1	18	1	9	46	44	18
1	19	1	9	27	29	57	19
1	20	1	9	27	29	8	20
1	21	1	9	27	52	21
1	22	1	9	27	29	39	12	22
1	23	1	9	27	54	23
1	24	1	9	27	29	62	24
1	25	1	9	27	54	23	25
1	26	1	9	27	29	62	26
1	27	1	9	27
1	28	1	9	27	28
1	29	1	9	27	29
1	30	1	9	27	30
1	31	1	9	27	31
1	32	1	9	27	29	32
1	33	1	9	27	54	33
1	34	1	9	46	44	58	34
1	35	1	9	27	29	39	49	35
1	36	1	9	27	45	36
1	37	1	9	27	29	32	37
1	38	1	9	27	38
1	39	1	9	27	29	39
1	40	1	9	27	30	13	40
1	41	1	9	41
1	42	1	9	27	30	0	42
1	43	1	9	27	54	55	43
1	44	1	9	46	44
1	45	1	9	27	45
1	46	1	9	46
1	47	1	9	27	54	23	47
1	48	1	9	27	54	23	25	48
1	49	1	9	27	29	39	49
1	50	1	9	27	54	50
1	51	1	9	27	54	51
1	52	1	9	27	52
1	53	1	9	27	45	36	53
1	54	1	9	27	54
1	55	1	9	27	54	55
1	56	1	9	46	44	58	56
1	57	1	9	27	29	57
1	58	1	9	46	44	58
1	59	1	9	46	44	58	59
1	60	1	9	27	29	62	24	60
1	61	1	9	27	29	39	15	61
1	62	1	9	27	29	62
1	63	1	9	27	54	33	63
1	64	1	9	27	45	64
2	0	2	27	30	0
2	1	2	27	9	1
2	3	2	27	29	62	58	3
2	4	2	27	29	62	24	4
2	5	2	27	29	62	5
2	6	2	27	29	39	6
2	7	2	27	9	46	44	7
2	8	2	27	29	8
2	9	2	27	9
2	10	2	27	29	62	58	34	10
2	11	2	27	29	62	58	34	11
2	12	2	27	29	39	12
2	13	2	27	30	13
2	14	2	27	29	62	58	14
2	15	2	27	29	39	15
2	16	2	27	29	62	26	16
2	17	2	27	54	33	63	17
2	18	2	27	9	46	44	18
2	19	2	27	29	57	19
2	20	2	27	29	8	20
2	21	2	27	52	21
2	22	2	27	29	39	12	22
2	23	2	27	54	23
2	24	2	27	29	62	24
2	25	2	27	54	23	25
2	26	2	27	29	62	26
2	27	2	27
2	28	2	27	28
2	29	2	27	29
2	30	2	27	30
2	31	2	27	31
2	32	2	27	29	32
2	33	2	27	54	33
2	34	2	27	29	62	58	34
2	35	2	27	29	39	49	35
2	36	2	27	45	36
2	37	2	27	29	32	37
2	38	2	27	38
2	39	2	27	29	39
2	40	2	27	30	13	40
2	41	2	27	9	41
2	42	2	27	30	0	42
2	43	2	27	54	55	43
2	44	2	27	9	46	44
2	45	2	27	45
2	46	2	27	9	46
2	47	2	27	54	23	47
2	48	2	27	54	23	25	48
2	49	2	27	29	39	49
2	50	2	27	54	50
2	51	2	27	54	51
2	52	2	27	52
2	53	2	27	45	36	53
2	54	2	27	54
2	55	2	27	54	55
2	56	2	27	29	62	58	56
2	57	2	27	29	57
2	58	2	27	29	62	58
2	59	2	27	29	62	58	59
2	60	2	27	29	62	24	60
2	61	2	27	29	39	15	61
2	62	2	27	29	62
2	63	2	27	54	33	63
2	64	2	27	45	64
3	0	3	58	62	29	27	30	0
3	1	3	58	44	46	9	1
3	2	3	58	62	29	27	2
3	4	3	58	62	24	4
3	5	3	58	62	5
3	6	3	58	62	29	39	6
3	7	3	58	44	7
3	8	3	58	62	29	8
3	9	3	58	44	46	9
3	10	3	58	34	10
3	11	3	58	34	11
3	12	3	58	62	29	39	12
3	13	3	58	62	29	27	30	13
3	14	3	58	14
3	15	3	58	62	29	39	15
3	16	3	58	62	26	16
3	17	3	58	62	29	27	54	33	63	17
3	18	3	58	44	18
3	19	3	58	62	29	57	19
3	20	3	58	62	29	8	20
3	21	3	58	62	29	27	52	21
3	22	3	58	62	29	39	12	22
3	23	3	58	62	24	60	47	23
3	24	3	58	62	24
3	25	3	58	62	24	60	47	23	25
3	26	3	58	62	26
3	27	3	58	62	29	27
3	28	3	58	62	29	27	28
3	29	3	58	62	29
3	30	3	58	62	29	27	30
3	31	3	58	62	29	27	31
3	32	3	58	62	29	32
3	33	3	58	62	29	27	54	33
3	34	3	58	34
3	35	3	58	62	29	39	49	35
3	36	3	58	62	29	27	45	36
3	37	3	58	62	29	32	37
3	38	3	58	62	29	27	38
3	39	3	58	62	29	39
3	40	3	58	62	29	27	30	13	40
3	41	3	58	44	46	9	41
3	42	3	58	62	29	27	30	0	42
3	43	3	58	62	29	27	54	55	43
3	44	3	58	44
3	45	3	58	62	29	27	45
3	46	3	58	44	46
3	47	3	58	62	24	60	47
3	48	3	58	62	24	60	47	23	25	48
3	49	3	58	62	29	39	49
3	50	3	58	62	29	27	54	50
3	51	3	58	62	29	27	54	51
3	52	3	58	62	29	27	52
3	53	3	58	62	29	27	45	36	53
3	54	3	58	62	29	27	54
3	55	3	58	62	29	27	54	55
3	56	3	58	56
3	57	3	58	62	29	57
3	58	3	58
3	59	3	58	59
3	60	3	58	62	24	60
3	61	3	58	62	29	39	15	61
3	62	3	58	62
3	63	3	58	62	29	27	54	33	63
3	64	3	58	62	29	27	45	64
4	0	4	24	62	29	27	30	0
4	1	4	24	62	29	27	9	1
4	2	4	24	62	29	27	2
4	3	4	24	62	58	3
4	5	4	24	62	5
4	6	4	24	62	29	39	6
4	7	4	24	62	58	44	7
4	8	4	24	62	29	8
4	9	4	24	62	29	27	9
4	10	4	24	62	58	34	10
4	11	4	24	62	58	34	11
4	12	4	24	62	29	39	12
4	13	4	24	62	29	27	30	13
4	14	4	24	62	58	14
4	15	4	24	62	29	39	15
4	16	4	24	62	26	16
4	17	4	24	62	29	27	54	33	63	17
4	18	4	24	62	58	44	18
4	19	4	24	62	29	57	19
4	20	4	24	62	29	8	20
4	21	4	24	62	29	27	52	21
4	22	4	24	62	29	39	12	22
4	23	4	24	60	47	23
4	24	4	24
4	25	4	24	60	47	23	25
4	26	4	24	62	26
4	27	4	24	62	29	27
4	28	4	24	62	29	27	28
4	29	4	24	62	29
4	30	4	24	62	29	27	30
4	31	4	24	62	29	27	31
4	32	4	24	62	29	32
4	33	4	24	62	29	27	54	33
4	34	4	24	62	58	34
4	35	4	24	62	29	39	49	35
4	36	4	24	62	29	27	45	36
4	37	4	24	62	29	32	37
4	38	4	24	62	29	27	38
4	39	4	24	62	29	39
4	40	4	24	62	29	27	30	13	40
4	41	4	24	62	29	27	9	41
4	42	4	24	62	29	27	30	0	42
4	43	4	24	62	29	27	54	55	43
4	44	4	24	62	58	44
4	45	4	24	62	29	27	45
4	46	4	24	62	58	44	46
4	47	4	24	60	47
4	48	4	24	60	47	23	25	48
4	49	4	24	62	29	39	49
4	50	4	24	62	29	27	54	50
4	51	4	24	62	29	27	54	51
4	52	4	24	62	29	27	52
4	53	4	24	62	29	27	45	36	53
4	54	4	24	62	29	27	54
4	55	4	24	62	29	27	54	55
4	56	4	24	62	58	56
4	57	4	24	62	29	57
4	58	4	24	62	58
4	59	4	24	62	58	59
4	60	4	24	60
4	61	4	24	62	29	39	15	61
4	62	4	24	62
4	63	4	24	62	29	27	54	33	63
4	64	4	24	62	29	27	45	64
5	0	5	62	29	27	30	0
5	1	5	62	29	27	9	1
5	2	5	62	29	27	2
5	3	5	62	58	3
5	4	5	62	24	4
5	6	5	62	29	39	6
5	7	5	62	58	44	7
5	8	5	62	29	8
5	9	5	62	29	27	9
5	10	5	62	58	34	10
5	11	5	62	58	34	11
5	12	5	62	29	39	12
5	13	5	62	29	27	30	13
5	14	5	62	58	14
5	15	5	62	29	39	15
5	16	5	62	26	16
5	17	5	62	29	27	54	33	63	17
5	18	5	62	58	44	18
5	19	5	62	29	57	19
5	20	5	62	29	8	20
5	21	5	62	29	27	52	21
5	22	5	62	29	39	12	22
5	23	5	62	24	60	47	23
5	24	5	62	24
5	25	5	62	29	27	54	23	25
5	26	5	62	26
5	27	5	62	29	27
5	28	5	62	29	27	28
5	29	5	62	29
5	30	5	62	29	27	30
5	31	5	62	29	27	31
5	32	5	62	29	32
5	33	5	62	29	27	54	33
5	34	5	62	58	34
5	35	5	62	29	39	49	35
5	36	5	62	29	27	45	36
5	37	5	62	29	32	37
5	38	5	62	29	27	38
5	39	5	62	29	39
5	40	5	62	29	27	30	13	40
5	41	5	62	29	27	9	41
5	42	5	62	29	27	30	0	42
5	43	5	62	29	27	54	55	43
5	44	5	62	58	44
5	45	5	62	29	27	45
5	46	5	62	58	44	46
5	47	5	62	24	60	47
5	48	5	62	29	27	54	23	25	48
5	49	5	62	29	39	49
5	50	5	62	29	27	54	50
5	51	5	62	29	27	54	51
5	52	5	62	29	27	52
5	53	5	62	29	27	45	36	53
5	54	5	62	29	27	54
5	55	5	62	29	27	54	55
5	56	5	62	58	56
5	57	5	62	29	57
5	58	5	62	58
5	59	5	62	58	59
5	60	5	62	24	60
5	61	5	62	29	39	15	61
5	62	5	62
5	63	5	62	29	27	54	33	63
5	64	5	62	29	27	45	64
6	0	6	39	29	27	30	0
6	1	6	39	29	27	9	1
6	2	6	39	29	27	2
6	3	6	39	29	62	58	3
6	4	6	39	29	62	24	4
6	5	6	39	29	62	5
6	7	6	39	29	62	58	44	7
6	8	6	39	29	8
6	9	6	39	29	27	9
6	10	6	39	29	62	58	34	10
6	11	6	39	29	62	58	34	11
6	12	6	39	12
6	13	6	39	29	27	30	13
6	14	6	39	29	62	58	14
6	15	6	39	49	39	15
6	16	6	39	29	62	26	16
6	17	6	39	29	27	54	33	63	17
6	18	6	39	29	62	58	44	18
6	19	6	39	29	57	19
6	20	6	39	29	8	20
6	21	6	39	29	27	52	21
6	22	6	39	12	22
6	23	6	39	29	27	54	23
6	24	6	39	29	62	24
6	25	6	39	29	27	54	23	25
6	26	6	39	29	62	26
6	27	6	39	29	27
6	28	6	39	29	27	28
6	29	6	39	29
6	30	6	39	29	27	30
6	31	6	39	29	27	31
6	32	6	39	29	32
6	33	6	39	29	27	54	33
6	34	6	39	29	62	58	34
6	35	6	39	49	35
6	36	6	39	29	27	45	36
6	37	6	39	29	32	37
6	38	6	39	29	27	38
6	39	6	39
6	40	6	39	29	27	30	13	40
6	41	6	39	29	27	9	41
6	42	6	39	29	27	30	0	42
6	43	6	39	29	27	54	55	43
6	44	6	39	29	62	58	44
6	45	6	39	29	27	45
6	46	6	39	29	27	9	46
6	47	6	39	29	62	24	60	47
6	48	6	39	29	27	54	23	25	48
6	49	6	39	49
6	50	6	39	29	27	54	50
6	51	6	39	29	27	54	51
6	52	6	39	29	27	52
6	53	6	39	29	27	45	36	53
6	54	6	39	29	27	54
6	55	6	39	29	27	54	55
6	56	6	39	29	62	58	56
6	57	6	39	29	57
6	58	6	39	29	62	58
6	59	6	39	29	62	58	59
6	60	6	39	29	62	24	60
6	61	6	39	49	39	15	61
6	62	6	39	29	62
6	63	6	39	29	27	54	33	63
6	64	6	39	29	27	45	64
7	0	7	44	46	9	27	30	0
7	1	7	44	46	9	1
7	2	7	44	46	9	27	2
7	3	7	44	46	44	58	3
7	4	7	44	46	44	58	62	24	4
7	5	7	44	46	44	58	62	5
7	6	7	44	46	9	27	29	39	6
7	8	7	44	46	9	27	29	8
7	9	7	44	46	9
7	10	7	44	46	44	58	34	10
7	11	7	44	46	44	58	34	11
7	12	7	44	46	9	27	29	39	12
7	13	7	44	46	9	27	30	13
7	14	7	44	46	44	58	14
7	15	7	44	46	9	27	29	39	15
7	16	7	44	58	62	26	16
7	17	7	44	46	9	27	54	33	63	17
7	18	7	44	18
7	19	7	44	46	9	27	29	57	19
7	20	7	44	46	9	27	29	8	20
7	21	7	44	46	9	27	52	21
7	22	7	44	46	9	27	29	39	12	22
7	23	7	44	46	9	27	54	23
7	24	7	44	46	44	58	62	24
7	25	7	44	46	9	27	54	23	25
7	26	7	44	46	44	58	62	26
7	27	7	44	46	9	27
7	28	7	44	46	9	27	28
7	29	7	44	46	9	27	29
7	30	7	44	46	9	27	30
7	31	7	44	46	9	27	31
7	32	7	44	46	9	27	29	32
7	33	7	44	46	9	27	54	33
7	34	7	44	46	44	58	34
7	35	7	44	58	62	29	39	49	35
7	36	7	44	46	9	27	45	36
7	37	7	44	46	9	27	29	32	37
7	38	7	44	46	9	27	38
7	39	7	44	46	9	27	29	39
7	40	7	44	46	9	27	30	13	40
7	41	7	44	46	9	41
7	42	7	44	46	9	27	30	0	42
7	43	7	44	46	9	27	54	55	43
7	44	7	44
7	45	7	44	46	9	27	45
7	46	7	44	46
7	47	7	44	46	9	27	54	23	47
7	48	7	44	46	9	27	54	23	25	48
7	49	7	44	46	9	27	29	39	49
7	50	7	44	46	9	27	54	50
7	51	7	44	46	9	27	54	51
7	52	7	44	46	9	27	52
7	53	7	44	46	9	27	45	36	53
7	54	7	44	46	9	27	54
7	55	7	44	46	9	27	54	55
7	56	7	44	46	44	58	56
7	57	7	44	46	9	27	29	57
7	58	7	44	46	44	58
7	59	7	44	46	44	58	59
7	60	7	44	46	44	58	62	24	60
7	61	7	44	46	9	27	29	39	15	61
7	62	7	44	46	44	58	62
7	63	7	44	46	9	27	54	33	63
7	64	7	44	46	9	27	45	64
8	0	8	29	27	30	0
8	1	8	29	27	9	1
8	2	8	29	27	2
8	3	8	29	62	58	3
8	4	8	29	62	24	4
8	5	8	29	62	5
8	6	8	29	39	6
8	7	8	29	62	58	44	7
8	9	8	29	27	9
8	10	8	29	62	58	34	10
8	11	8	29	62	58	34	11
8	12	8	29	39	12
8	13	8	29	27	30	13
8	14	8	29	62	58	14
8	15	8	29	39	15
8	16	8	29	62	26	16
8	17	8	29	27	54	33	63	17
8	18	8	29	62	58	44	18
8	19	8	29	57	19
8	20	8	20
8	21	8	29	27	52	21
8	22	8	29	39	12	22
8	23	8	29	27	54	23
8	24	8	29	62	24
8	25	8	29	27	54	23	25
8	26	8	29	62	26
8	27	8	29	27
8	28	8	29	27	28
8	29	8	29
8	30	8	29	27	30
8	31	8	29	27	31
8	32	8	29	32
8	33	8	29	27	54	33
8	34	8	29	62	58	34
8	35	8	29	39	49	35
8	36	8	29	27	45	36
8	37	8	29	32	37
8	38	8	29	27	38
8	39	8	29	39
8	40	8	29	27	30	13	40
8	41	8	29	27	9	41
8	42	8	29	27	30	0	42
8	43	8	29	27	54	55	43
8	44	8	29	62	58	44
8	45	8	29	27	45
8	46	8	29	27	9	46
8	47	8	29	62	24	60	47
8	48	8	29	27	54	23	25	48
8	49	8	29	39	49
8	50	8	29	27	54	50
8	51	8	29	27	54	51
8	52	8	29	27	52
8	53	8	29	27	45	36	53
8	54	8	29	27	54
8	55	8	29	27	54	55
8	56	8	29	62	58	56
8	57	8	29	57
8	58	8	29	62	58
8	59	8	29	62	58	59
8	60	8	29	62	24	60
8	61	8	29	39	15	61
8	62	8	29	62
8	63	8	29	27	54	33	63
8	64	8	29	27	45	64
9	0	9	27	30	0
9	1	9	1
9	2	9	27	2
9	3	9	46	44	58	3
9	4	9	27	29	62	24	4
9	5	9	27	29	62	5
9	6	9	27	29	39	6
9	7	9	46	44	7
9	8	9	27	29	8
9	10	9	46	44	58	34	10
9	11	9	46	44	58	34	11
9	12	9	27	29	39	12
9	13	9	27	30	13
9	14	9	46	44	58	14
9	15	9	27	29	39	15
9	16	9	27	29	62	26	16
9	17	9	27	54	33	63	17
9	18	9	46	44	18
9	19	9	27	29	57	19
9	20	9	27	29	8	20
9	21	9	27	52	21
9	22	9	27	29	39	12	22
9	23	9	27	54	23
9	24	9	27	29	62	24
9	25	9	27	54	23	25
9	26	9	27	29	62	26
9	27	9	27
9	28	9	27	28
9	29	9	27	29
9	30	9	27	30
9	31	9	27	31
9	32	9	27	29	32
9	33	9	27	54	33
9	34	9	46	44	58	34
9	35	9	27	29	39	49	35
9	36	9	27	45	36
9	37	9	27	29	32	37
9	38	9	27	38
9	39	9	27	29	39
9	40	9	27	30	13	40
9	41	9	41
9	42	9	27	30	0	42
9	43	9	27	54	55	43
9	44	9	46	44
9	45	9	27	45
9	46	9	46
9	47	9	27	54	23	47
9	48	9	27	54	23	25	48
9	49	9	27	29	39	49
9	50	9	27	54	50
9	51	9	27	54	51
9	52	9	27	52
9	53	9	27	45	36	53
9	54	9	27	54
9	55	9	27	54	55
9	56	9	46	44	58	56
9	57	9	27	29	57
9	58	9	46	44	58
9	59	9	46	44	58	59
9	60	9	27	54	23	47	60
9	61	9	27	29	39	15	61
9	62	9	27	29	62
9	63	9	27	54	33	63
9	64	9	27	45	64
10	0	10	34	58	62	29	27	30	0
10	1	10	34	58	44	46	9	1
10	2	10	34	58	62	29	27	2
10	3	10	34	58	3
10	4	10	34	58	62	24	4
10	5	10	34	58	62	5
10	6	10	34	58	62	29	39	6
10	7	10	34	58	44	7
10	8	10	34	58	62	29	8
10	9	10	34	58	44	46	9
10	11	10	34	11
10	12	10	34	58	62	29	39	12
10	13	10	34	58	62	29	27	30	13
10	14	10	34	58	14
10	15	10	34	58	62	29	39	15
10	16	10	34	58	62	26	16
10	17	10	34	58	62	29	27	54	33	63	17
10	18	10	34	58	44	18
10	19	10	34	58	62	29	57	19
10	20	10	34	58	62	29	8	20
10	21	10	34	58	62	29	27	52	21
10	22	10	34	58	62	29	39	12	22
10	23	10	34	58	62	29	27	54	23
10	24	10	34	58	62	24
10	25	10	34	58	62	29	27	54	23	25
10	26	10	34	58	62	26
10	27	10	34	58	62	29	27
10	28	10	34	58	62	29	27	28
10	29	10	34	58	62	29
10	30	10	34	58	62	29	27	30
10	31	10	34	58	62	29	27	31
10	32	10	34	58	62	29	32
10	33	10	34	58	62	29	27	54	33
10	34	10	34
10	35	10	34	58	62	29	39	49	35
10	36	10	34	58	62	29	27	45	36
10	37	10	34	58	62	29	32	37
10	38	10	34	58	62	29	27	38
10	39	10	34	58	62	29	39
10	40	10	34	58	62	29	27	30	13	40
10	41	10	34	58	44	46	9	41
10	42	10	34	58	62	29	27	30	0	42
10	43	10	34	58	62	29	27	54	55	43
10	44	10	34	58	44
10	45	10	34	58	62	29	27	45
10	46	10	34	58	44	46
10	47	10	34	58	62	24	60	47
10	48	10	34	58	62	29	27	54	23	25	48
10	49	10	34	58	62	29	39	49
10	50	10	34	58	62	29	27	54	50
10	51	10	34	58	62	29	27	54	51
10	52	10	34	58	62	29	27	52
10	53	10	34	58	62	29	27	45	36	53
10	54	10	34	58	62	29	27	54
10	55	10	34	58	62	29	27	54	55
10	56	10	34	58	56
10	57	10	34	58	62	29	57
10	58	10	34	58
10	59	10	34	58	59
10	60	10	34	58	62	24	60
10	61	10	34	58	62	29	39	15	61
10	62	10	34	58	62
10	63	10	34	58	62	29	27	54	33	63
10	64	10	34	58	62	29	27	45	64
11	0	11	34	58	62	29	27	30	0
11	1	11	34	58	44	46	9	1
11	2	11	34	58	62	29	27	2
11	3	11	34	58	3
11	4	11	34	58	62	24	4
11	5	11	34	58	62	5
11	6	11	34	58	62	29	39	6
11	7	11	34	58	44	7
11	8	11	34	58	62	29	8
11	9	11	34	58	44	46	9
11	10	11	34	10
11	12	11	34	58	62	29	39	12
11	13	11	34	58	62	29	27	30	13
11	14	11	34	58	14
11	15	11	34	58	62	29	39	15
11	16	11	34	58	62	26	16
11	17	11	34	58	62	29	27	54	33	63	17
11	18	11	34	58	44	18
11	19	11	34	58	62	29	57	19
11	20	11	34	58	62	29	8	20
11	21	11	34	58	62	29	27	52	21
11	22	11	34	58	62	29	39	12	22
11	23	11	34	58	62	29	27	54	23
11	24	11	34	58	62	24
11	25	11	34	58	62	29	27	54	23	25
11	26	11	34	58	62	26
11	27	11	34	58	62	29	27
11	28	11	34	58	62	29	27	28
11	29	11	34	58	62	29
11	30	11	34	58	62	29	27	30
11	31	11	34	58	62	29	27	31
11	32	11	34	58	62	29	32
11	33	11	34	58	62	29	27	54	33
11	34	11	34
11	35	11	34	58	62	29	39	49	35
11	36	11	34	58	62	29	27	45	36
11	37	11	34	58	62	29	32	37
11	38	11	34	58	62	29	27	38
11	39	11	34	58	62	29	39
11	40	11	34	58	62	29	27	30	13	40
11	41	11	34	58	44	46	9	41
11	42	11	34	58	62	29	27	30	0	42
11	43	11	34	58	62	29	27	54	55	43
11	44	11	34	58	44
11	45	11	34	58	62	29	27	45
11	46	11	34	58	44	46
11	47	11	34	58	62	24	60	47
11	48	11	34	58	62	29	27	54	23	25	48
11	49	11	34	58	62	29	39	49
11	50	11	34	58	62	29	27	54	50
11	51	11	34	58	62	29	27	54	51
11	52	11	34	58	62	29	27	52
11	53	11	34	58	62	29	27	45	36	53
11	54	11	34	58	62	29	27	54
11	55	11	34	58	62	29	27	54	55
11	56	11	34	58	56
11	57	11	34	58	62	29	57
11	58	11	34	58
11	59	11	34	58	59
11	60	11	34	58	62	24	60
11	61	11	34	58	62	29	39	15	61
11	62	11	34	58	62
11	63	11	34	58	62	29	27	54	33	63
11	64	11	34	58	62	29	27	45	64
12	0	12	39	29	27	30	0
12	1	12	39	29	27	9	1
12	2	12	39	29	27	2
12	3	12	39	29	62	58	3
12	4	12	39	29	62	24	4
12	5	12	39	29	62	5
12	6	12	39	6
12	7	12	39	29	62	58	44	7
12	8	12	39	29	8
12	9	12	39	29	27	9
12	10	12	39	29	62	58	34	10
12	11	12	39	29	62	58	34	11
12	13	12	39	29	27	30	13
12	14	12	39	29	62	58	14
12	15	12	39	15
12	16	12	39	29	62	26	16
12	17	12	39	29	27	54	33	63	17
12	18	12	39	29	62	58	44	18
12	19	12	39	29	57	19
12	20	12	39	29	8	20
12	21	12	39	29	27	52	21
12	22	12	22
12	23	12	39	29	27	54	23
12	24	12	39	29	62	24
12	25	12	39	29	27	54	23	25
12	26	12	39	29	62	26
12	27	12	39	29	27
12	28	12	39	29	27	28
12	29	12	39	29
12	30	12	39	29	27	30
12	31	12	39	29	27	31
12	32	12	39	29	32
12	33	12	39	29	27	54	33
12	34	12	39	29	62	58	34
12	35	12	39	49	35
12	36	12	39	29	27	45	36
12	37	12	39	29	32	37
12	38	12	39	29	27	38
12	39	12	39
12	40	12	39	29	27	30	13	40
12	41	12	39	29	27	9	41
12	42	12	39	29	27	30	0	42
12	43	12	39	29	27	54	55	43
12	44	12	39	29	62	58	44
12	45	12	39	29	27	45
12	46	12	39	29	27	9	46
12	47	12	39	29	62	24	60	47
12	48	12	39	29	27	54	23	25	48
12	49	12	39	49
12	50	12	39	29	27	54	50
12	51	12	39	29	27	54	51
12	52	12	39	29	27	52
12	53	12	39	29	27	45	36	53
12	54	12	39	29	27	54
12	55	12	39	29	27	54	55
12	56	12	39	29	62	58	56
12	57	12	39	29	57
12	58	12	39	29	62	58
12	59	12	39	29	62	58	59
12	60	12	39	29	62	24	60
12	61	12	39	15	61
12	62	12	39	29	62
12	63	12	39	29	27	54	33	63
12	64	12	39	29	27	45	64
13	0	13	30	0
13	1	13	30	27	9	1
13	2	13	30	27	2
13	3	13	30	27	29	62	58	3
13	4	13	30	27	29	62	24	4
13	5	13	30	27	29	62	5
13	6	13	30	27	29	39	6
13	7	13	30	27	9	46	44	7
13	8	13	30	27	29	8
13	9	13	30	27	9
13	10	13	30	27	29	62	58	34	10
13	11	13	30	27	29	62	58	34	11
13	12	13	30	27	29	39	12
13	14	13	30	27	29	62	58	14
13	15	13	30	27	29	39	15
13	16	13	30	27	29	62	26	16
13	17	13	30	27	54	33	63	17
13	18	13	30	27	9	46	44	18
13	19	13	30	27	29	57	19
13	20	13	30	27	29	8	20
13	21	13	30	27	52	21
13	22	13	30	27	29	39	12	22
13	23	13	30	27	54	23
13	24	13	30	27	29	62	24
13	25	13	30	27	54	23	25
13	26	13	30	27	29	62	26
13	27	13	30	27
13	28	13	30	27	28
13	29	13	30	27	29
13	30	13	30
13	31	13	30	27	31
13	32	13	30	27	29	32
13	33	13	30	27	54	33
13	34	13	30	27	29	62	58	34
13	35	13	30	27	29	39	49	35
13	36	13	30	27	45	36
13	37	13	30	27	29	32	37
13	38	13	30	27	38
13	39	13	30	27	29	39
13	40	13	40
13	41	13	30	27	9	41
13	42	13	30	0	42
13	43	13	30	27	54	55	43
13	44	13	30	27	9	46	44
13	45	13	30	27	45
13	46	13	30	27	9	46
13	47	13	30	27	54	23	47
13	48	13	30	27	54	23	25	48
13	49	13	30	27	29	39	49
13	50	13	30	27	54	50
13	51	13	30	27	54	51
13	52	13	30	27	52
13	53	13	30	27	45	36	53
13	54	13	30	27	54
13	55	13	30	27	54	55
13	56	13	30	27	29	62	58	56
13	57	13	30	27	29	57
13	58	13	30	27	29	62	58
13	59	13	30	27	29	62	58	59
13	60	13	30	27	54	23	47	60
13	61	13	30	27	29	39	15	61
13	62	13	30	27	29	62
13	63	13	30	27	54	33	63
13	64	13	30	27	45	64
14	0	14	58	62	29	27	30	0
14	1	14	58	44	46	9	1
14	2	14	58	62	29	27	2
14	3	14	58	3
14	4	14	58	62	24	4
14	5	14	58	62	5
14	6	14	58	62	29	39	6
14	7	14	58	44	7
14	8	14	58	62	29	8
14	9	14	58	44	46	9
14	10	14	58	34	10
14	11	14	58	34	11
14	12	14	58	62	29	39	12
14	13	14	58	62	29	27	30	13
14	15	14	58	62	29	39	15
14	16	14	58	62	26	16
14	17	14	58	62	29	27	54	33	63	17
14	18	14	58	44	18
14	19	14	58	62	29	57	19
14	20	14	58	62	29	8	20
14	21	14	58	62	29	27	52	21
14	22	14	58	62	29	39	12	22
14	23	14	58	62	29	27	54	23
14	24	14	58	62	24
14	25	14	58	62	24	60	47	23	25
14	26	14	58	62	26
14	27	14	58	62	29	27
14	28	14	58	62	29	27	28
14	29	14	58	62	29
14	30	14	58	62	29	27	30
14	31	14	58	62	29	27	31
14	32	14	58	62	29	32
14	33	14	58	62	29	27	54	33
14	34	14	58	34
14	35	14	58	62	29	39	49	35
14	36	14	58	62	29	27	45	36
14	37	14	58	62	29	32	37
14	38	14	58	62	29	27	38
14	39	14	58	62	29	39
14	40	14	58	62	29	27	30	13	40
14	41	14	58	44	46	9	41
14	42	14	58	62	29	27	30	0	42
14	43	14	58	62	29	27	54	55	43
14	44	14	58	44
14	45	14	58	62	29	27	45
14	46	14	58	44	46
14	47	14	58	62	24	60	47
14	48	14	58	62	24	60	47	23	25	48
14	49	14	58	62	29	39	49
14	50	14	58	62	29	27	54	50
14	51	14	58	62	29	27	54	51
14	52	14	58	62	29	27	52
14	53	14	58	62	29	27	45	36	53
14	54	14	58	62	29	27	54
14	55	14	58	62	29	27	54	55
14	56	14	58	56
14	57	14	58	62	29	57
14	58	14	58
14	59	14	58	59
14	60	14	58	62	24	60
14	61	14	58	62	29	39	15	61
14	62	14	58	62
14	63	14	58	62	29	27	54	33	63
14	64	14	58	62	29	27	45	64
15	0	15	39	29	27	30	0
15	1	15	39	29	27	9	1
15	2	15	39	29	27	2
15	3	15	39	29	62	58	3
15	4	15	39	29	62	24	4
15	5	15	39	29	62	5
15	6	15	39	6
15	7	15	39	29	62	58	44	7
15	8	15	39	29	8
15	9	15	39	29	27	9
15	10	15	39	29	62	58	34	10
15	11	15	39	29	62	58	34	11
15	12	15	39	12
15	13	15	39	29	27	30	13
15	14	15	39	29	62	58	14
15	16	15	39	29	62	26	16
15	17	15	39	29	27	54	33	63	17
15	18	15	39	29	62	58	44	18
15	19	15	39	29	57	19
15	20	15	39	29	8	20
15	21	15	39	29	27	52	21
15	22	15	39	12	22
15	23	15	39	29	27	54	23
15	24	15	39	29	62	24
15	25	15	39	29	27	54	23	25
15	26	15	39	29	62	26
15	27	15	39	29	27
15	28	15	39	29	27	28
15	29	15	39	29
15	30	15	39	29	27	30
15	31	15	39	29	27	31
15	32	15	39	29	32
15	33	15	39	29	27	54	33
15	34	15	39	29	62	58	34
15	35	15	39	49	35
15	36	15	39	29	27	45	36
15	37	15	39	29	32	37
15	38	15	39	29	27	38
15	39	15	39
15	40	15	39	29	27	30	13	40
15	41	15	39	29	27	9	41
15	42	15	39	29	27	30	0	42
15	43	15	39	29	27	54	55	43
15	44	15	39	29	62	58	44
15	45	15	39	29	27	45
15	46	15	39	29	27	9	46
15	47	15	39	29	62	24	60	47
15	48	15	39	29	27	54	23	25	48
15	49	15	39	49
15	50	15	39	29	27	54	50
15	51	15	39	29	27	54	51
15	52	15	39	29	27	52
15	53	15	39	29	27	45	36	53
15	54	15	39	29	27	54
15	55	15	39	29	27	54	55
15	56	15	39	29	62	58	56
15	57	15	39	29	57
15	58	15	39	29	62	58
15	59	15	39	29	62	58	59
15	60	15	39	29	62	24	60
15	61	15	61
15	62	15	39	29	62
15	63	15	39	29	27	54	33	63
15	64	15	39	29	27	45	64
16	0	16	26	62	29	27	30	0
16	1	16	26	62	29	27	9	1
16	2	16	26	62	29	27	2
16	3	16	26	62	58	3
16	4	16	26	62	24	4
16	5	16	26	62	5
16	6	16	26	62	29	39	6
16	7	16	26	62	58	44	7
16	8	16	26	62	29	8
16	9	16	26	62	29	27	9
16	10	16	26	62	58	34	10
16	11	16	26	62	58	34	11
16	12	16	26	62	29	39	12
16	13	16	26	62	29	27	30	13
16	14	16	26	62	58	14
16	15	16	26	62	29	39	15
16	17	16	26	62	29	27	54	33	63	17
16	18	16	26	62	58	44	18
16	19	16	26	62	29	57	19
16	20	16	26	62	29	8	20
16	21	16	26	62	29	27	52	21
16	22	16	26	62	29	39	12	22
16	23	16	26	62	29	27	54	23
16	24	16	26	62	24
16	25	16	26	62	29	27	54	23	25
16	26	16	26
16	27	16	26	62	29	27
16	28	16	26	62	29	27	28
16	29	16	26	62	29
16	30	16	26	62	29	27	30
16	31	16	26	62	29	27	31
16	32	16	26	62	29	32
16	33	16	26	62	29	27	54	33
16	34	16	26	62	58	34
16	35	16	26	62	29	39	49	35
16	36	16	26	62	29	27	45	36
16	37	16	26	62	29	32	37
16	38	16	26	62	29	27	38
16	39	16	26	62	29	39
16	40	16	26	62	29	27	30	13	40
16	41	16	26	62	29	27	9	41
16	42	16	26	62	29	27	30	0	42
16	43	16	26	62	29	27	54	55	43
16	44	16	26	62	58	44
16	45	16	26	62	29	27	45
16	46	16	26	62	58	44	46
16	47	16	26	62	24	60	47
16	48	16	26	62	29	27	54	23	25	48
16	49	16	26	62	29	39	49
16	50	16	26	62	29	27	54	50
16	51	16	26	62	29	27	54	51
16	52	16	26	62	29	27	52
16	53	16	26	62	29	27	45	36	53
16	54	16	26	62	29	27	54
16	55	16	26	62	29	27	54	55
16	56	16	26	62	58	56
16	57	16	26	62	29	57
16	58	16	26	62	58
16	59	16	26	62	58	59
16	60	16	26	62	24	60
16	61	16	26	62	29	39	15	61
16	62	16	26	62
16	63	16	26	62	29	27	54	33	63
16	64	16	26	62	29	27	45	64
17	0	17	63	33	54	27	30	0
17	1	17	63	33	54	27	9	1
17	2	17	63	33	54	27	2
17	3	17	63	33	54	27	29	62	58	3
17	4	17	63	33	54	27	29	62	24	4
17	5	17	63	33	54	27	29	62	5
17	6	17	63	33	54	27	29	39	6
17	7	17	63	33	54	27	9	46	44	7
17	8	17	63	33	54	27	29	8
17	9	17	63	33	54	27	9
17	10	17	63	33	54	27	29	62	58	34	10
17	11	17	63	33	54	27	29	62	58	34	11
17	12	17	63	33	54	27	29	39	12
17	13	17	63	33	54	27	30	13
17	14	17	63	33	54	27	29	62	58	14
17	15	17	63	33	54	27	29	39	15
17	16	17	63	33	54	27	29	62	26	16
17	18	17	63	33	54	27	9	46	44	18
17	19	17	63	33	54	27	29	57	19
17	20	17	63	33	54	27	29	8	20
17	21	17	63	33	54	27	52	21
17	22	17	63	33	54	27	29	39	12	22
17	23	17	63	33	54	23
17	24	17	63	33	54	23	47	60	24
17	25	17	63	33	54	23	25
17	26	17	63	33	54	27	29	62	26
17	27	17	63	33	54	27
17	28	17	63	33	54	27	28
17	29	17	63	33	54	27	29
17	30	17	63	33	54	27	30
17	31	17	63	33	54	27	31
17	32	17	63	33	54	27	29	32
17	33	17	63	33
17	34	17	63	33	54	27	29	62	58	34
17	35	17	63	33	54	27	29	39	49	35
17	36	17	63	33	54	27	45	36
17	37	17	63	33	54	27	29	32	37
17	38	17	63	33	54	27	38
17	39	17	63	33	54	27	29	39
17	40	17	63	33	54	27	30	13	40
17	41	17	63	33	54	27	9	41
17	42	17	63	33	54	27	30	0	42
17	43	17	43
17	44	17	63	33	54	27	9	46	44
17	45	17	63	33	54	27	45
17	46	17	63	33	54	27	9	46
17	47	17	63	33	54	23	47
17	48	17	63	33	54	23	25	48
17	49	17	63	33	54	27	29	39	49
17	50	17	63	33	54	50
17	51	17	63	33	54	51
17	52	17	63	33	54	27	52
17	53	17	63	33	54	27	45	36	53
17	54	17	63	33	54
17	55	17	43	55
17	56	17	63	33	54	27	29	62	58	56
17	57	17	63	33	54	27	29	57
17	58	17	63	33	54	27	29	62	58
17	59	17	63	33	54	27	29	62	58	59
17	60	17	63	33	54	23	47	60
17	61	17	63	33	54	27	29	39	15	61
17	62	17	63	33	54	27	29	62
17	63	17	63
17	64	17	63	33	54	27	45	64
18	0	18	44	46	9	27	30	0
18	1	18	44	46	9	1
18	2	18	44	58	62	29	27	2
18	3	18	44	58	3
18	4	18	44	58	62	24	4
18	5	18	44	58	62	5
18	6	18	44	58	62	29	39	6
18	7	18	44	7
18	8	18	44	58	62	29	8
18	9	18	44	46	9
18	10	18	44	58	34	10
18	11	18	44	58	34	11
18	12	18	44	58	62	29	39	12
18	13	18	44	46	9	27	30	13
18	14	18	44	58	14
18	15	18	44	58	62	29	39	15
18	16	18	44	58	62	26	16
18	17	18	44	46	9	27	54	33	63	17
18	19	18	44	58	62	29	57	19
18	20	18	44	58	62	29	8	20
18	21	18	44	46	9	27	52	21
18	22	18	44	58	62	29	39	12	22
18	23	18	44	46	9	27	54	23
18	24	18	44	58	62	24
18	25	18	44	58	62	29	27	54	23	25
18	26	18	44	58	62	26
18	27	18	44	46	9	27
18	28	18	44	58	62	29	27	28
18	29	18	44	58	62	29
18	30	18	44	46	9	27	30
18	31	18	44	46	9	27	31
18	32	18	44	58	62	29	32
18	33	18	44	46	9	27	54	33
18	34	18	44	58	34
18	35	18	44	58	62	29	39	49	35
18	36	18	44	46	9	27	45	36
18	37	18	44	58	62	29	32	37
18	38	18	44	46	9	27	38
18	39	18	44	58	62	29	39
18	40	18	44	46	9	27	30	13	40
18	41	18	44	46	9	41
18	42	18	44	58	62	29	27	30	0	42
18	43	18	44	46	9	27	54	55	43
18	44	18	44
18	45	18	44	46	9	27	45
18	46	18	44	46
18	47	18	44	58	62	24	60	47
18	48	18	44	58	62	29	27	54	23	25	48
18	49	18	44	58	62	29	39	49
18	50	18	44	46	9	27	54	50
18	51	18	44	58	62	29	27	54	51
18	52	18	44	46	9	27	52
18	53	18	44	46	9	27	45	36	53
18	54	18	44	46	9	27	54
18	55	18	44	46	9	27	54	55
18	56	18	44	58	56
18	57	18	44	58	62	29	57
18	58	18	44	58
18	59	18	44	58	59
18	60	18	44	58	62	24	60
18	61	18	44	58	62	29	39	15	61
18	62	18	44	58	62
18	63	18	44	46	9	27	54	33	63
18	64	18	44	46	9	27	45	64
19	0	19	57	29	27	30	0
19	1	19	57	29	27	9	1
19	2	19	57	29	27	2
19	3	19	57	29	62	58	3
19	4	19	57	29	62	24	4
19	5	19	57	29	62	5
19	6	19	57	29	39	6
19	7	19	57	29	62	58	44	7
19	8	19	57	29	8
19	9	19	57	29	27	9
19	10	19	57	29	62	58	34	10
19	11	19	57	29	62	58	34	11
19	12	19	57	29	39	12
19	13	19	57	29	27	30	13
19	14	19	57	29	62	58	14
19	15	19	57	29	39	15
19	16	19	57	29	62	26	16
19	17	19	57	29	27	54	33	63	17
19	18	19	57	29	62	58	44	18
19	20	19	57	29	8	20
19	21	19	57	29	27	52	21
19	22	19	57	29	39	12	22
19	23	19	57	29	27	54	23
19	24	19	57	29	62	24
19	25	19	57	29	27	54	23	25
19	26	19	57	29	62	26
19	27	19	57	29	27
19	28	19	57	29	27	28
19	29	19	57	29
19	30	19	57	29	27	30
19	31	19	57	29	27	31
19	32	19	57	29	32
19	33	19	57	29	27	54	33
19	34	19	57	29	62	58	34
19	35	19	57	29	39	49	35
19	36	19	57	29	27	45	36
19	37	19	57	29	32	37
19	38	19	57	29	27	38
19	39	19	57	29	39
19	40	19	57	29	27	30	13	40
19	41	19	57	29	27	9	41
19	42	19	57	29	27	30	0	42
19	43	19	57	29	27	54	55	43
19	44	19	57	29	62	58	44
19	45	19	57	29	27	45
19	46	19	57	29	27	9	46
19	47	19	57	29	62	24	60	47
19	48	19	57	29	27	54	23	25	48
19	49	19	57	29	39	49
19	50	19	57	29	27	54	50
19	51	19	57	29	27	54	51
19	52	19	57	29	27	52
19	53	19	57	29	27	45	36	53
19	54	19	57	29	27	54
19	55	19	57	29	27	54	55
19	56	19	57	29	62	58	56
19	57	19	57
19	58	19	57	29	62	58
19	59	19	57	29	62	58	59
19	60	19	57	29	62	24	60
19	61	19	57	29	39	15	61
19	62	19	57	29	62
19	63	19	57	29	27	54	33	63
19	64	19	57	29	27	45	64
20	0	20	8	29	27	30	0
20	1	20	8	29	27	9	1
20	2	20	8	29	27	2
20	3	20	8	29	62	58	3
20	4	20	8	29	62	24	4
20	5	20	8	29	62	5
20	6	20	8	29	39	6
20	7	20	8	29	62	58	44	7
20	8	20	8
20	9	20	8	29	27	9
20	10	20	8	29	62	58	34	10
20	11	20	8	29	62	58	34	11
20	12	20	8	29	39	12
20	13	20	8	29	27	30	13
20	14	20	8	29	62	58	14
20	15	20	8	29	39	15
20	16	20	8	29	62	26	16
20	17	20	8	29	27	54	33	63	17
20	18	20	8	29	62	58	44	18
20	19	20	8	29	57	19
20	21	20	8	29	27	52	21
20	22	20	8	29	39	12	22
20	23	20	8	29	27	54	23
20	24	20	8	29	62	24
20	25	20	8	29	27	54	23	25
20	26	20	8	29	62	26
20	27	20	8	29	27
20	28	20	8	29	27	28
20	29	20	8	29
20	30	20	8	29	27	30
20	31	20	8	29	27	31
20	32	20	8	29	32
20	33	20	8	29	27	54	33
20	34	20	8	29	62	58	34
20	35	20	8	29	39	49	35
20	36	20	8	29	27	45	36
20	37	20	8	29	32	37
20	38	20	8	29	27	38
20	39	20	8	29	39
20	40	20	8	29	27	30	13	40
20	41	20	8	29	27	9	41
20	42	20	8	29	27	30	0	42
20	43	20	8	29	27	54	55	43
20	44	20	8	29	62	58	44
20	45	20	8	29	27	45
20	46	20	8	29	27	9	46
20	47	20	8	29	62	24	60	47
20	48	20	8	29	27	54	23	25	48
20	49	20	8	29	39	49
20	50	20	8	29	27	54	50
20	51	20	8	29	27	54	51
20	52	20	8	29	27	52
20	53	20	8	29	27	45	36	53
20	54	20	8	29	27	54
20	55	20	8	29	27	54	55
20	56	20	8	29	62	58	56
20	57	20	8	29	57
20	58	20	8	29	62	58
20	59	20	8	29	62	58	59
20	60	20	8	29	62	24	60
20	61	20	8	29	39	15	61
20	62	20	8	29	62
20	63	20	8	29	27	54	33	63
20	64	20	8	29	27	45	64
21	0	21	52	27	30	0
21	1	21	52	27	9	1
21	2	21	52	27	2
21	3	21	52	27	29	62	58	3
21	4	21	52	27	29	62	24	4
21	5	21	52	27	29	62	5
21	6	21	52	27	29	39	6
21	7	21	52	27	9	46	44	7
21	8	21	52	27	29	8
21	9	21	52	27	9
21	10	21	52	27	29	62	58	34	10
21	11	21	52	27	29	62	58	34	11
21	12	21	52	27	29	39	12
21	13	21	52	27	30	13
21	14	21	52	27	29	62	58	14
21	15	21	52	27	29	39	15
21	16	21	52	27	29	62	26	16
21	17	21	52	27	54	33	63	17
21	18	21	52	27	9	46	44	18
21	19	21	52	27	29	57	19
21	20	21	52	27	29	8	20
21	22	21	52	27	29	39	12	22
21	23	21	52	27	54	23
21	24	21	52	27	29	62	24
21	25	21	52	27	54	23	25
21	26	21	52	27	29	62	26
21	27	21	52	27
21	28	21	52	27	28
21	29	21	52	27	29
21	30	21	52	27	30
21	31	21	52	27	31
21	32	21	52	27	29	32
21	33	21	52	27	54	33
21	34	21	52	27	29	62	58	34
21	35	21	52	27	29	39	49	35
21	36	21	52	27	45	36
21	37	21	52	27	29	32	37
21	38	21	52	27	38
21	39	21	52	27	29	39
21	40	21	52	27	30	13	40
21	41	21	52	27	9	41
21	42	21	52	27	30	0	42
21	43	21	52	27	54	55	43
21	44	21	52	27	9	46	44
21	45	21	52	27	45
21	46	21	52	27	9	46
21	47	21	52	27	54	23	47
21	48	21	52	27	54	23	25	48
21	49	21	52	27	29	39	49
21	50	21	52	27	54	50
21	51	21	52	27	54	51
21	52	21	52
21	53	21	52	27	45	36	53
21	54	21	52	27	54
21	55	21	52	27	54	55
21	56	21	52	27	29	62	58	56
21	57	21	52	27	29	57
21	58	21	52	27	29	62	58
21	59	21	52	27	29	62	58	59
21	60	21	52	27	29	62	24	60
21	61	21	52	27	29	39	15	61
21	62	21	52	27	29	62
21	63	21	52	27	54	33	63
21	64	21	52	27	45	64
22	0	22	12	39	29	27	30	0
22	1	22	12	39	29	27	9	1
22	2	22	12	39	29	27	2
22	3	22	12	39	29	62	58	3
22	4	22	12	39	29	62	24	4
22	5	22	12	39	29	62	5
22	6	22	12	39	6
22	7	22	12	39	29	62	58	44	7
22	8	22	12	39	29	8
22	9	22	12	39	29	27	9
22	10	22	12	39	29	62	58	34	10
22	11	22	12	39	29	62	58	34	11
22	12	22	12
22	13	22	12	39	29	27	30	13
22	14	22	12	39	29	62	58	14
22	15	22	12	39	15
22	16	22	12	39	29	62	26	16
22	17	22	12	39	29	27	54	33	63	17
22	18	22	12	39	29	62	58	44	18
22	19	22	12	39	29	57	19
22	20	22	12	39	29	8	20
22	21	22	12	39	29	27	52	21
22	23	22	12	39	29	27	54	23
22	24	22	12	39	29	62	24
22	25	22	12	39	29	27	54	23	25
22	26	22	12	39	29	62	26
22	27	22	12	39	29	27
22	28	22	12	39	29	27	28
22	29	22	12	39	29
22	30	22	12	39	29	27	30
22	31	22	12	39	29	27	31
22	32	22	12	39	29	32
22	33	22	12	39	29	27	54	33
22	34	22	12	39	29	62	58	34
22	35	22	12	39	49	35
22	36	22	12	39	29	27	45	36
22	37	22	12	39	29	32	37
22	38	22	12	39	29	27	38
22	39	22	12	39
22	40	22	12	39	29	27	30	13	40
22	41	22	12	39	29	27	9	41
22	42	22	12	39	29	27	30	0	42
22	43	22	12	39	29	27	54	55	43
22	44	22	12	39	29	62	58	44
22	45	22	12	39	29	27	45
22	46	22	12	39	29	27	9	46
22	47	22	12	39	29	62	24	60	47
22	48	22	12	39	29	27	54	23	25	48
22	49	22	12	39	49
22	50	22	12	39	29	27	54	50
22	51	22	12	39	29	27	54	51
22	52	22	12	39	29	27	52
22	53	22	12	39	29	27	45	36	53
22	54	22	12	39	29	27	54
22	55	22	12	39	29	27	54	55
22	56	22	12	39	29	62	58	56
22	57	22	12	39	29	57
22	58	22	12	39	29	62	58
22	59	22	12	39	29	62	58	59
22	60	22	12	39	29	62	24	60
22	61	22	12	39	15	61
22	62	22	12	39	29	62
22	63	22	12	39	29	27	54	33	63
22	64	22	12	39	29	27	45	64
23	0	23	54	27	30	0
23	1	23	54	27	9	1
23	2	23	54	27	2
23	3	23	54	27	29	62	58	3
23	4	23	54	27	29	62	24	4
23	5	23	47	60	24	62	5
23	6	23	54	27	29	39	6
23	7	23	54	27	9	46	44	7
23	8	23	54	27	29	8
23	9	23	54	27	9
23	10	23	54	27	29	62	58	34	10
23	11	23	54	27	29	62	58	34	11
23	12	23	54	27	29	39	12
23	13	23	54	27	30	13
23	14	23	54	27	29	62	58	14
23	15	23	54	27	29	39	15
23	16	23	54	27	29	62	26	16
23	17	23	54	33	63	17
23	18	23	54	27	9	46	44	18
23	19	23	54	27	29	57	19
23	20	23	54	27	29	8	20
23	21	23	54	27	52	21
23	22	23	54	27	29	39	12	22
23	24	23	47	60	24
23	25	23	25
23	26	23	54	27	29	62	26
23	27	23	54	27
23	28	23	54	27	28
23	29	23	54	27	29
23	30	23	54	27	30
23	31	23	54	27	31
23	32	23	54	27	29	32
23	33	23	54	33
23	34	23	54	27	29	62	58	34
23	35	23	54	27	29	39	49	35
23	36	23	54	27	45	36
23	37	23	54	27	29	32	37
23	38	23	54	27	38
23	39	23	54	27	29	39
23	40	23	54	27	30	13	40
23	41	23	54	27	9	41
23	42	23	54	27	30	0	42
23	43	23	54	55	43
23	44	23	54	27	9	46	44
23	45	23	54	27	45
23	46	23	54	27	9	46
23	47	23	47
23	48	23	25	48
23	49	23	54	27	29	39	49
23	50	23	54	50
23	51	23	54	51
23	52	23	54	27	52
23	53	23	54	27	45	36	53
23	54	23	54
23	55	23	54	55
23	56	23	54	27	29	62	58	56
23	57	23	54	27	29	57
23	58	23	54	27	29	62	58
23	59	23	54	27	29	62	58	59
23	60	23	47	60
23	61	23	54	27	29	39	15	61
23	62	23	54	27	29	62
23	63	23	54	33	63
23	64	23	54	27	45	64
24	0	24	62	29	27	30	0
24	1	24	62	29	27	9	1
24	2	24	62	29	27	2
24	3	24	62	58	3
24	4	24	4
24	5	24	62	5
24	6	24	62	29	39	6
24	7	24	62	58	44	7
24	8	24	62	29	8
24	9	24	62	29	27	9
24	10	24	62	58	34	10
24	11	24	62	58	34	11
24	12	24	62	29	39	12
24	13	24	62	29	27	30	13
24	14	24	62	58	14
24	15	24	62	29	39	15
24	16	24	62	26	16
24	17	24	62	29	27	54	33	63	17
24	18	24	62	58	44	18
24	19	24	62	29	57	19
24	20	24	62	29	8	20
24	21	24	62	29	27	52	21
24	22	24	62	29	39	12	22
24	23	24	60	47	23
24	25	24	60	47	23	25
24	26	24	62	26
24	27	24	62	29	27
24	28	24	62	29	27	28
24	29	24	62	29
24	30	24	62	29	27	30
24	31	24	62	29	27	31
24	32	24	62	29	32
24	33	24	62	29	27	54	33
24	34	24	62	58	34
24	35	24	62	29	39	49	35
24	36	24	62	29	27	45	36
24	37	24	62	29	32	37
24	38	24	62	29	27	38
24	39	24	62	29	39
24	40	24	62	29	27	30	13	40
24	41	24	62	29	27	9	41
24	42	24	62	29	27	30	0	42
24	43	24	62	29	27	54	55	43
24	44	24	62	58	44
24	45	24	62	29	27	45
24	46	24	62	58	44	46
24	47	24	60	47
24	48	24	60	47	23	25	48
24	49	24	62	29	39	49
24	50	24	62	29	27	54	50
24	51	24	62	29	27	54	51
24	52	24	62	29	27	52
24	53	24	62	29	27	45	36	53
24	54	24	62	29	27	54
24	55	24	62	29	27	54	55
24	56	24	62	58	56
24	57	24	62	29	57
24	58	24	62	58
24	59	24	62	58	59
24	60	24	60
24	61	24	62	29	39	15	61
24	62	24	62
24	63	24	62	29	27	54	33	63
24	64	24	62	29	27	45	64
25	0	25	23	54	27	30	0
25	1	25	23	54	27	9	1
25	2	25	23	54	27	2
25	3	25	23	54	27	29	62	58	3
25	4	25	23	54	27	29	62	24	4
25	5	25	23	47	60	24	62	5
25	6	25	23	54	27	29	39	6
25	7	25	23	54	27	9	46	44	7
25	8	25	23	54	27	29	8
25	9	25	23	54	27	9
25	10	25	23	54	27	29	62	58	34	10
25	11	25	23	54	27	29	62	58	34	11
25	12	25	23	54	27	29	39	12
25	13	25	23	54	27	30	13
25	14	25	23	54	27	29	62	58	14
25	15	25	23	54	27	29	39	15
25	16	25	23	54	27	29	62	26	16
25	17	25	23	54	33	63	17
25	18	25	23	54	27	9	46	44	18
25	19	25	23	54	27	29	57	19
25	20	25	23	54	27	29	8	20
25	21	25	23	54	27	52	21
25	22	25	23	54	27	29	39	12	22
25	23	25	23
25	24	25	23	47	60	24
25	26	25	23	54	27	29	62	26
25	27	25	23	54	27
25	28	25	23	54	27	28
25	29	25	23	54	27	29
25	30	25	23	54	27	30
25	31	25	23	54	27	31
25	32	25	23	54	27	29	32
25	33	25	23	54	33
25	34	25	23	54	27	29	62	58	34
25	35	25	23	54	27	29	39	49	35
25	36	25	23	54	27	45	36
25	37	25	23	54	27	29	32	37
25	38	25	23	54	27	38
25	39	25	23	54	27	29	39
25	40	25	23	54	27	30	13	40
25	41	25	23	54	27	9	41
25	42	25	23	54	27	30	0	42
25	43	25	23	54	55	43
25	44	25	23	54	27	9	46	44
25	45	25	23	54	27	45
25	46	25	23	54	27	9	46
25	47	25	23	47
25	48	25	48
25	49	25	23	54	27	29	39	49
25	50	25	23	54	50
25	51	25	23	54	51
25	52	25	23	54	27	52
25	53	25	23	54	27	45	36	53
25	54	25	23	54
25	55	25	23	54	55
25	56	25	23	54	27	29	62	58	56
25	57	25	23	54	27	29	57
25	58	25	23	54	27	29	62	58
25	59	25	23	54	27	29	62	58	59
25	60	25	23	47	60
25	61	25	23	54	27	29	39	15	61
25	62	25	23	47	60	24	62
25	63	25	23	54	33	63
25	64	25	23	54	27	45	64
26	0	26	62	29	27	30	0
26	1	26	62	29	27	9	1
26	2	26	62	29	27	2
26	3	26	62	58	3
26	4	26	62	24	4
26	5	26	62	5
26	6	26	62	29	39	6
26	7	26	62	58	44	7
26	8	26	62	29	8
26	9	26	62	29	27	9
26	10	26	62	58	34	10
26	11	26	62	58	34	11
26	12	26	62	29	39	12
26	13	26	62	29	27	30	13
26	14	26	62	58	14
26	15	26	62	29	39	15
26	16	26	16
26	17	26	62	29	27	54	33	63	17
26	18	26	62	58	44	18
26	19	26	62	29	57	19
26	20	26	62	29	8	20
26	21	26	62	29	27	52	21
26	22	26	62	29	39	12	22
26	23	26	62	29	27	54	23
26	24	26	62	24
26	25	26	62	29	27	54	23	25
26	27	26	62	29	27
26	28	26	62	29	27	28
26	29	26	62	29
26	30	26	62	29	27	30
26	31	26	62	29	27	31
26	32	26	62	29	32
26	33	26	62	29	27	54	33
26	34	26	62	58	34
26	35	26	62	29	39	49	35
26	36	26	62	29	27	45	36
26	37	26	62	29	32	37
26	38	26	62	29	27	38
26	39	26	62	29	39
26	40	26	62	29	27	30	13	40
26	41	26	62	29	27	9	41
26	42	26	62	29	27	30	0	42
26	43	26	62	29	27	54	55	43
26	44	26	62	58	44
26	45	26	62	29	27	45
26	46	26	62	58	44	46
26	47	26	62	24	60	47
26	48	26	62	29	27	54	23	25	48
26	49	26	62	29	39	49
26	50	26	62	29	27	54	50
26	51	26	62	29	27	54	51
26	52	26	62	29	27	52
26	53	26	62	29	27	45	36	53
26	54	26	62	29	27	54
26	55	26	62	29	27	54	55
26	56	26	62	58	56
26	57	26	62	29	57
26	58	26	62	58
26	59	26	62	58	59
26	60	26	62	24	60
26	61	26	62	29	39	15	61
26	62	26	62
26	63	26	62	29	27	54	33	63
26	64	26	62	29	27	45	64
27	0	27	30	0
27	1	27	9	1
27	2	27	2
27	3	27	29	62	58	3
27	4	27	29	62	24	4
27	5	27	29	62	5
27	6	27	29	39	6
27	7	27	9	46	44	7
27	8	27	29	8
27	9	27	9
27	10	27	29	62	58	34	10
27	11	27	29	62	58	34	11
27	12	27	29	39	12
27	13	27	30	13
27	14	27	29	62	58	14
27	15	27	29	39	15
27	16	27	29	62	26	16
27	17	27	54	33	63	17
27	18	27	9	46	44	18
27	19	27	29	57	19
27	20	27	29	8	20
27	21	27	52	21
27	22	27	29	39	12	22
27	23	27	54	23
27	24	27	29	62	24
27	25	27	54	23	25
27	26	27	29	62	26
27	28	27	28
27	29	27	29
27	30	27	30
27	31	27	31
27	32	27	29	32
27	33	27	54	33
27	34	27	29	62	58	34
27	35	27	29	39	49	35
27	36	27	45	36
27	37	27	29	32	37
27	38	27	38
27	39	27	29	39
27	40	27	30	13	40
27	41	27	9	41
27	42	27	30	0	42
27	43	27	54	55	43
27	44	27	9	46	44
27	45	27	45
27	46	27	9	46
27	47	27	54	23	47
27	48	27	54	23	25	48
27	49	27	29	39	49
27	50	27	54	50
27	51	27	54	51
27	52	27	52
27	53	27	45	36	53
27	54	27	54
27	55	27	54	55
27	56	27	29	62	58	56
27	57	27	29	57
27	58	27	29	62	58
27	59	27	29	62	58	59
27	60	27	29	62	24	60
27	61	27	29	39	15	61
27	62	27	29	62
27	63	27	54	33	63
27	64	27	45	64
28	0	28	27	30	0
28	1	28	27	38	27	9	1
28	2	28	27	31	27	2
28	3	28	27	45	27	29	62	58	3
28	4	28	27	38	27	29	62	24	4
28	5	28	27	31	27	29	62	5
28	6	28	27	45	27	29	39	6
28	7	28	27	45	27	9	46	44	7
28	8	28	27	31	27	29	8
28	9	28	27	31	27	9
28	10	28	27	45	27	29	62	58	34	10
28	11	28	27	45	27	29	62	58	34	11
28	12	28	27	45	27	29	39	12
28	13	28	27	30	13
28	14	28	27	45	27	29	62	58	14
28	15	28	27	45	27	29	39	15
28	16	28	27	31	27	29	62	26	16
28	17	28	27	54	33	63	17
28	18	28	27	45	27	9	46	44	18
28	19	28	27	31	27	29	57	19
28	20	28	27	31	27	29	8	20
28	21	28	27	52	21
28	22	28	27	45	27	29	39	12	22
28	23	28	27	54	23
28	24	28	27	38	27	29	62	24
28	25	28	27	54	23	25
28	26	28	27	38	27	29	62	26
28	27	28	27
28	29	28	27	31	27	29
28	30	28	27	30
28	31	28	27	31
28	32	28	27	38	27	29	32
28	33	28	27	54	33
28	34	28	27	45	27	29	62	58	34
28	35	28	27	29	39	49	35
28	36	28	27	45	36
28	37	28	27	38	27	29	32	37
28	38	28	27	38
28	39	28	27	45	27	29	39
28	40	28	27	30	13	40
28	41	28	27	38	27	9	41
28	42	28	27	30	0	42
28	43	28	27	54	55	43
28	44	28	27	45	27	9	46	44
28	45	28	27	45
28	46	28	27	45	27	9	46
28	47	28	27	54	23	47
28	48	28	27	54	23	25	48
28	49	28	27	45	27	29	39	49
28	50	28	27	54	50
28	51	28	27	38	27	54	51
28	52	28	27	52
28	53	28	27	45	36	53
28	54	28	27	54
28	55	28	27	54	55
28	56	28	27	45	27	29	62	58	56
28	57	28	27	38	27	29	57
28	58	28	27	45	27	29	62	58
28	59	28	27	45	27	29	62	58	59
28	60	28	27	54	23	47	60
28	61	28	27	45	27	29	39	15	61
28	62	28	27	38	27	29	62
28	63	28	27	54	33	63
28	64	28	27	45	64
29	0	29	27	30	0
29	1	29	27	9	1
29	2	29	27	2
29	3	29	62	58	3
29	4	29	62	24	4
29	5	29	62	5
29	6	29	39	6
29	7	29	62	58	44	7
29	8	29	8
29	9	29	27	9
29	10	29	62	58	34	10
29	11	29	62	58	34	11
29	12	29	39	12
29	13	29	27	30	13
29	14	29	62	58	14
29	15	29	39	15
29	16	29	62	26	16
29	17	29	27	54	33	63	17
29	18	29	62	58	44	18
29	19	29	57	19
29	20	29	8	20
29	21	29	27	52	21
29	22	29	39	12	22
29	23	29	27	54	23
29	24	29	62	24
29	25	29	27	54	23	25
29	26	29	62	26
29	27	29	27
29	28	29	27	28
29	30	29	27	30
29	31	29	27	31
29	32	29	32
29	33	29	27	54	33
29	34	29	62	58	34
29	35	29	39	49	35
29	36	29	27	45	36
29	37	29	32	37
29	38	29	27	38
29	39	29	39
29	40	29	27	30	13	40
29	41	29	27	9	41
29	42	29	27	30	0	42
29	43	29	27	54	55	43
29	44	29	62	58	44
29	45	29	27	45
29	46	29	27	9	46
29	47	29	62	24	60	47
29	48	29	27	54	23	25	48
29	49	29	39	49
29	50	29	27	54	50
29	51	29	27	54	51
29	52	29	27	52
29	53	29	27	45	36	53
29	54	29	27	54
29	55	29	27	54	55
29	56	29	62	58	56
29	57	29	57
29	58	29	62	58
29	59	29	62	58	59
29	60	29	62	24	60
29	61	29	39	15	61
29	62	29	62
29	63	29	27	54	33	63
29	64	29	27	45	64
30	0	30	0
30	1	30	27	9	1
30	2	30	27	2
30	3	30	27	29	62	58	3
30	4	30	27	29	62	24	4
30	5	30	27	29	62	5
30	6	30	27	29	39	6
30	7	30	27	9	46	44	7
30	8	30	27	29	8
30	9	30	27	9
30	10	30	27	29	62	58	34	10
30	11	30	27	29	62	58	34	11
30	12	30	27	29	39	12
30	13	30	13
30	14	30	27	29	62	58	14
30	15	30	27	29	39	15
30	16	30	27	29	62	26	16
30	17	30	27	54	33	63	17
30	18	30	27	9	46	44	18
30	19	30	27	29	57	19
30	20	30	27	29	8	20
30	21	30	27	52	21
30	22	30	27	29	39	12	22
30	23	30	27	54	23
30	24	30	27	29	62	24
30	25	30	27	54	23	25
30	26	30	27	29	62	26
30	27	30	27
30	28	30	27	28
30	29	30	27	29
30	31	30	27	31
30	32	30	27	29	32
30	33	30	27	54	33
30	34	30	27	29	62	58	34
30	35	30	27	29	39	49	35
30	36	30	27	45	36
30	37	30	27	29	32	37
30	38	30	27	38
30	39	30	27	29	39
30	40	30	13	40
30	41	30	27	9	41
30	42	30	0	42
30	43	30	27	54	55	43
30	44	30	27	9	46	44
30	45	30	27	45
30	46	30	27	9	46
30	47	30	27	54	23	47
30	48	30	27	54	23	25	48
30	49	30	27	29	39	49
30	50	30	27	54	50
30	51	30	27	54	51
30	52	30	27	52
30	53	30	27	45	36	53
30	54	30	27	54
30	55	30	27	54	55
30	56	30	27	29	62	58	56
30	57	30	27	29	57
30	58	30	27	29	62	58
30	59	30	27	29	62	58	59
30	60	30	27	29	62	24	60
30	61	30	27	29	39	15	61
30	62	30	27	29	62
30	63	30	27	54	33	63
30	64	30	27	45	64
31	0	31	27	2	27	30	0
31	1	31	27	9	1
31	2	31	27	2
31	3	31	27	29	62	58	3
31	4	31	27	29	62	24	4
31	5	31	27	29	62	5
31	6	31	27	29	39	6
31	7	31	27	9	46	44	7
31	8	31	27	29	8
31	9	31	27	9
31	10	31	27	29	62	58	34	10
31	11	31	27	29	62	58	34	11
31	12	31	27	29	39	12
31	13	31	27	2	27	30	13
31	14	31	27	29	62	58	14
31	15	31	27	29	39	15
31	16	31	27	29	62	26	16
31	17	31	27	54	33	63	17
31	18	31	27	9	46	44	18
31	19	31	27	29	57	19
31	20	31	27	29	8	20
31	21	31	27	52	21
31	22	31	27	29	39	12	22
31	23	31	27	54	23
31	24	31	27	29	62	24
31	25	31	27	54	23	25
31	26	31	27	29	62	26
31	27	31	27
31	28	31	27	28
31	29	31	27	29
31	30	31	27	2	27	30
31	32	31	27	29	32
31	33	31	27	54	33
31	34	31	27	29	62	58	34
31	35	31	27	29	39	49	35
31	36	31	27	45	36
31	37	31	27	29	32	37
31	38	31	27	2	27	38
31	39	31	27	29	39
31	40	31	27	52	27	30	13	40
31	41	31	27	9	41
31	42	31	27	2	27	30	0	42
31	43	31	27	54	55	43
31	44	31	27	9	46	44
31	45	31	27	45
31	46	31	27	9	46
31	47	31	27	54	23	47
31	48	31	27	54	23	25	48
31	49	31	27	29	39	49
31	50	31	27	54	50
31	51	31	27	54	51
31	52	31	27	52
31	53	31	27	45	36	53
31	54	31	27	54
31	55	31	27	54	55
31	56	31	27	29	62	58	56
31	57	31	27	29	57
31	58	31	27	29	62	58
31	59	31	27	29	62	58	59
31	60	31	27	54	23	47	60
31	61	31	27	29	39	15	61
31	62	31	27	29	62
31	63	31	27	54	33	63
31	64	31	27	45	64
32	0	32	29	27	30	0
32	1	32	29	27	9	1
32	2	32	29	27	2
32	3	32	29	62	58	3
32	4	32	29	62	24	4
32	5	32	29	62	5
32	6	32	29	39	6
32	7	32	29	62	58	44	7
32	8	32	29	8
32	9	32	29	27	9
32	10	32	29	62	58	34	10
32	11	32	29	62	58	34	11
32	12	32	29	39	12
32	13	32	29	27	30	13
32	14	32	29	62	58	14
32	15	32	29	39	15
32	16	32	29	62	26	16
32	17	32	29	27	54	33	63	17
32	18	32	29	62	58	44	18
32	19	32	29	57	19
32	20	32	29	8	20
32	21	32	29	27	52	21
32	22	32	29	39	12	22
32	23	32	29	27	54	23
32	24	32	29	62	24
32	25	32	29	27	54	23	25
32	26	32	29	62	26
32	27	32	29	27
32	28	32	29	27	28
32	29	32	29
32	30	32	29	27	30
32	31	32	29	27	31
32	33	32	29	27	54	33
32	34	32	29	62	58	34
32	35	32	29	39	49	35
32	36	32	29	27	45	36
32	37	32	37
32	38	32	29	27	38
32	39	32	29	39
32	40	32	29	27	30	13	40
32	41	32	29	27	9	41
32	42	32	29	27	30	0	42
32	43	32	29	27	54	55	43
32	44	32	29	62	58	44
32	45	32	29	27	45
32	46	32	29	27	9	46
32	47	32	29	62	24	60	47
32	48	32	29	27	54	23	25	48
32	49	32	29	39	49
32	50	32	29	27	54	50
32	51	32	29	27	54	51
32	52	32	29	27	52
32	53	32	29	27	45	36	53
32	54	32	29	27	54
32	55	32	29	27	54	55
32	56	32	29	62	58	56
32	57	32	29	57
32	58	32	29	62	58
32	59	32	29	62	58	59
32	60	32	29	62	24	60
32	61	32	29	39	15	61
32	62	32	29	62
32	63	32	29	27	54	33	63
32	64	32	29	27	45	64
33	0	33	54	27	30	0
33	1	33	54	27	9	1
33	2	33	54	27	2
33	3	33	54	27	29	62	58	3
33	4	33	54	27	29	62	24	4
33	5	33	54	27	29	62	5
33	6	33	54	27	29	39	6
33	7	33	54	27	9	46	44	7
33	8	33	54	27	29	8
33	9	33	54	27	9
33	10	33	54	27	29	62	58	34	10
33	11	33	54	27	29	62	58	34	11
33	12	33	54	27	29	39	12
33	13	33	54	27	30	13
33	14	33	54	27	29	62	58	14
33	15	33	54	27	29	39	15
33	16	33	54	27	29	62	26	16
33	17	33	63	17
33	18	33	54	27	9	46	44	18
33	19	33	54	27	29	57	19
33	20	33	54	27	29	8	20
33	21	33	54	27	52	21
33	22	33	54	27	29	39	12	22
33	23	33	54	23
33	24	33	54	23	47	60	24
33	25	33	54	23	25
33	26	33	54	27	29	62	26
33	27	33	54	27
33	28	33	54	27	28
33	29	33	54	27	29
33	30	33	54	27	30
33	31	33	54	27	31
33	32	33	54	27	29	32
33	34	33	54	27	29	62	58	34
33	35	33	54	27	29	39	49	35
33	36	33	54	27	45	36
33	37	33	54	27	29	32	37
33	38	33	54	27	38
33	39	33	54	27	29	39
33	40	33	54	27	30	13	40
33	41	33	54	27	9	41
33	42	33	54	27	30	0	42
33	43	33	54	55	43
33	44	33	54	27	9	46	44
33	45	33	54	27	45
33	46	33	54	27	9	46
33	47	33	54	23	47
33	48	33	54	23	25	48
33	49	33	54	27	29	39	49
33	50	33	54	50
33	51	33	54	51
33	52	33	54	27	52
33	53	33	54	27	45	36	53
33	54	33	54
33	55	33	54	55
33	56	33	54	27	29	62	58	56
33	57	33	54	27	29	57
33	58	33	54	27	29	62	58
33	59	33	54	27	29	62	58	59
33	60	33	54	23	47	60
33	61	33	54	27	29	39	15	61
33	62	33	54	27	29	62
33	63	33	63
33	64	33	54	27	45	64
34	0	34	58	62	29	27	30	0
34	1	34	58	44	46	9	1
34	2	34	58	62	29	27	2
34	3	34	58	3
34	4	34	58	62	24	4
34	5	34	58	62	5
34	6	34	58	62	29	39	6
34	7	34	58	44	7
34	8	34	58	62	29	8
34	9	34	58	44	46	9
34	10	34	10
34	11	34	11
34	12	34	58	62	29	39	12
34	13	34	58	62	29	27	30	13
34	14	34	58	14
34	15	34	58	62	29	39	15
34	16	34	58	62	26	16
34	17	34	58	62	29	27	54	33	63	17
34	18	34	58	44	18
34	19	34	58	62	29	57	19
34	20	34	58	62	29	8	20
34	21	34	58	62	29	27	52	21
34	22	34	58	62	29	39	12	22
34	23	34	58	62	29	27	54	23
34	24	34	58	62	24
34	25	34	58	62	29	27	54	23	25
34	26	34	58	62	26
34	27	34	58	62	29	27
34	28	34	58	62	29	27	28
34	29	34	58	62	29
34	30	34	58	62	29	27	30
34	31	34	58	62	29	27	31
34	32	34	58	62	29	32
34	33	34	58	62	29	27	54	33
34	35	34	58	62	29	39	49	35
34	36	34	58	62	29	27	45	36
34	37	34	58	62	29	32	37
34	38	34	58	62	29	27	38
34	39	34	58	62	29	39
34	40	34	58	62	29	27	30	13	40
34	41	34	58	44	46	9	41
34	42	34	58	62	29	27	30	0	42
34	43	34	58	62	29	27	54	55	43
34	44	34	58	44
34	45	34	58	62	29	27	45
34	46	34	58	44	46
34	47	34	58	62	24	60	47
34	48	34	58	62	29	27	54	23	25	48
34	49	34	58	62	29	39	49
34	50	34	58	62	29	27	54	50
34	51	34	58	62	29	27	54	51
34	52	34	58	62	29	27	52
34	53	34	58	62	29	27	45	36	53
34	54	34	58	62	29	27	54
34	55	34	58	62	29	27	54	55
34	56	34	58	56
34	57	34	58	62	29	57
34	58	34	58
34	59	34	58	59
34	60	34	58	62	24	60
34	61	34	58	62	29	39	15	61
34	62	34	58	62
34	63	34	58	62	29	27	54	33	63
34	64	34	58	62	29	27	45	64
35	0	35	49	39	29	27	30	0
35	1	35	49	39	29	27	9	1
35	2	35	49	39	29	27	2
35	3	35	49	39	29	62	58	3
35	4	35	49	39	29	62	24	4
35	5	35	49	39	29	62	5
35	6	35	49	39	6
35	7	35	49	39	29	62	58	44	7
35	8	35	49	39	29	8
35	9	35	49	39	29	27	9
35	10	35	49	39	29	62	58	34	10
35	11	35	49	39	29	62	58	34	11
35	12	35	49	39	12
35	13	35	49	39	29	27	30	13
35	14	35	49	39	29	62	58	14
35	15	35	49	39	15
35	16	35	49	39	29	62	26	16
35	17	35	49	39	29	27	54	33	63	17
35	18	35	49	39	29	62	58	44	18
35	19	35	49	39	29	57	19
35	20	35	49	39	29	8	20
35	21	35	49	39	29	27	52	21
35	22	35	49	39	12	22
35	23	35	49	39	29	27	54	23
35	24	35	49	39	29	62	24
35	25	35	49	39	29	27	54	23	25
35	26	35	49	39	29	62	26
35	27	35	49	39	29	27
35	28	35	49	39	29	27	28
35	29	35	49	39	29
35	30	35	49	39	29	27	30
35	31	35	49	39	29	27	31
35	32	35	49	39	29	32
35	33	35	49	39	29	27	54	33
35	34	35	49	39	29	62	58	34
35	36	35	49	39	29	27	45	36
35	37	35	49	39	29	32	37
35	38	35	49	39	29	27	38
35	39	35	49	39
35	40	35	49	39	29	27	30	13	40
35	41	35	49	39	29	27	9	41
35	42	35	49	39	29	27	30	0	42
35	43	35	49	39	29	27	54	55	43
35	44	35	49	39	29	62	58	44
35	45	35	49	39	29	27	45
35	46	35	49	39	29	27	9	46
35	47	35	49	39	29	62	24	60	47
35	48	35	49	39	29	27	54	23	25	48
35	49	35	49
35	50	35	49	39	29	27	54	50
35	51	35	49	39	29	27	54	51
35	52	35	49	39	29	27	52
35	53	35	49	39	29	27	45	36	53
35	54	35	49	39	29	27	54
35	55	35	49	39	29	27	54	55
35	56	35	49	39	29	62	58	56
35	57	35	49	39	29	57
35	58	35	49	39	29	62	58
35	59	35	49	39	29	62	58	59
35	60	35	49	39	29	62	24	60
35	61	35	49	39	15	61
35	62	35	49	39	29	62
35	63	35	49	39	29	27	54	33	63
35	64	35	49	39	29	27	45	64
36	0	36	45	27	30	0
36	1	36	53	36	45	27	9	1
36	2	36	45	27	2
36	3	36	45	27	29	62	58	3
36	4	36	45	27	29	62	24	4
36	5	36	45	27	29	62	5
36	6	36	45	27	29	39	6
36	7	36	45	27	9	46	44	7
36	8	36	45	27	29	8
36	9	36	45	27	9
36	10	36	45	27	29	62	58	34	10
36	11	36	45	27	29	62	58	34	11
36	12	36	45	27	29	39	12
36	13	36	45	27	30	13
36	14	36	45	27	29	62	58	14
36	15	36	45	27	29	39	15
36	16	36	45	27	29	62	26	16
36	17	36	45	27	54	33	63	17
36	18	36	45	27	9	46	44	18
36	19	36	45	27	29	57	19
36	20	36	45	27	29	8	20
36	21	36	45	27	52	21
36	22	36	45	27	29	39	12	22
36	23	36	45	27	54	23
36	24	36	45	27	29	62	24
36	25	36	45	27	54	23	25
36	26	36	45	27	29	62	26
36	27	36	45	27
36	28	36	45	27	28
36	29	36	45	27	29
36	30	36	45	27	30
36	31	36	45	27	31
36	32	36	45	27	29	32
36	33	36	45	27	54	33
36	34	36	45	27	29	62	58	34
36	35	36	45	27	29	39	49	35
36	37	36	45	27	29	32	37
36	38	36	45	27	38
36	39	36	45	27	29	39
36	40	36	45	27	30	13	40
36	41	36	45	27	9	41
36	42	36	45	27	30	0	42
36	43	36	45	27	54	55	43
36	44	36	45	27	9	46	44
36	45	36	45
36	46	36	45	27	9	46
36	47	36	45	27	54	23	47
36	48	36	45	27	54	23	25	48
36	49	36	45	27	29	39	49
36	50	36	45	27	54	50
36	51	36	45	27	54	51
36	52	36	45	27	52
36	53	36	53
36	54	36	45	27	54
36	55	36	45	27	54	55
36	56	36	45	27	29	62	58	56
36	57	36	45	27	29	57
36	58	36	45	27	29	62	58
36	59	36	45	27	29	62	58	59
36	60	36	45	27	54	23	47	60
36	61	36	45	27	29	39	15	61
36	62	36	45	27	29	62
36	63	36	45	27	54	33	63
36	64	36	45	64
37	0	37	32	29	27	30	0
37	1	37	32	29	27	9	1
37	2	37	32	29	27	2
37	3	37	32	29	62	58	3
37	4	37	32	29	62	24	4
37	5	37	32	29	62	5
37	6	37	32	29	39	6
37	7	37	32	29	62	58	44	7
37	8	37	32	29	8
37	9	37	32	29	27	9
37	10	37	32	29	62	58	34	10
37	11	37	32	29	62	58	34	11
37	12	37	32	29	39	12
37	13	37	32	29	27	30	13
37	14	37	32	29	62	58	14
37	15	37	32	29	39	15
37	16	37	32	29	62	26	16
37	17	37	32	29	27	54	33	63	17
37	18	37	32	29	62	58	44	18
37	19	37	32	29	57	19
37	20	37	32	29	8	20
37	21	37	32	29	27	52	21
37	22	37	32	29	39	12	22
37	23	37	32	29	27	54	23
37	24	37	32	29	62	24
37	25	37	32	29	27	54	23	25
37	26	37	32	29	62	26
37	27	37	32	29	27
37	28	37	32	29	27	28
37	29	37	32	29
37	30	37	32	29	27	30
37	31	37	32	29	27	31
37	32	37	32
37	33	37	32	29	27	54	33
37	34	37	32	29	62	58	34
37	35	37	32	29	39	49	35
37	36	37	32	29	27	45	36
37	38	37	32	29	27	38
37	39	37	32	29	39
37	40	37	32	29	27	30	13	40
37	41	37	32	29	27	9	41
37	42	37	32	29	27	30	0	42
37	43	37	32	29	27	54	55	43
37	44	37	32	29	62	58	44
37	45	37	32	29	27	45
37	46	37	32	29	27	9	46
37	47	37	32	29	62	24	60	47
37	48	37	32	29	27	54	23	25	48
37	49	37	32	29	39	49
37	50	37	32	29	27	54	50
37	51	37	32	29	27	54	51
37	52	37	32	29	27	52
37	53	37	32	29	27	45	36	53
37	54	37	32	29	27	54
37	55	37	32	29	27	54	55
37	56	37	32	29	62	58	56
37	57	37	32	29	57
37	58	37	32	29	62	58
37	59	37	32	29	62	58	59
37	60	37	32	29	62	24	60
37	61	37	32	29	39	15	61
37	62	37	32	29	62
37	63	37	32	29	27	54	33	63
37	64	37	32	29	27	45	64
38	0	38	27	30	0
38	1	38	27	9	1
38	2	38	27	2
38	3	38	27	29	62	58	3
38	4	38	27	29	62	24	4
38	5	38	27	29	62	5
38	6	38	27	29	39	6
38	7	38	27	9	46	44	7
38	8	38	27	29	8
38	9	38	27	9
38	10	38	27	29	62	58	34	10
38	11	38	27	29	62	58	34	11
38	12	38	27	29	39	12
38	13	38	27	30	13
38	14	38	27	29	62	58	14
38	15	38	27	29	39	15
38	16	38	27	29	62	26	16
38	17	38	27	54	33	63	17
38	18	38	27	9	46	44	18
38	19	38	27	29	57	19
38	20	38	27	29	8	20
38	21	38	27	52	21
38	22	38	27	29	39	12	22
38	23	38	27	54	23
38	24	38	27	29	62	24
38	25	38	27	54	23	25
38	26	38	27	29	62	26
38	27	38	27
38	28	38	27	28
38	29	38	27	29
38	30	38	27	30
38	31	38	27	31
38	32	38	27	29	32
38	33	38	27	54	33
38	34	38	27	29	62	58	34
38	35	38	27	29	39	49	35
38	36	38	27	45	36
38	37	38	27	29	32	37
38	39	38	27	29	39
38	40	38	27	30	13	40
38	41	38	27	9	41
38	42	38	27	30	0	42
38	43	38	27	54	55	43
38	44	38	27	9	46	44
38	45	38	27	45
38	46	38	27	9	46
38	47	38	27	54	23	47
38	48	38	27	54	23	25	48
38	49	38	27	29	39	49
38	50	38	27	54	50
38	51	38	27	54	51
38	52	38	27	52
38	53	38	27	45	36	53
38	54	38	27	54
38	55	38	27	54	55
38	56	38	27	29	62	58	56
38	57	38	27	29	57
38	58	38	27	29	62	58
38	59	38	27	29	62	58	59
38	60	38	27	54	23	47	60
38	61	38	27	29	39	15	61
38	62	38	27	29	62
38	63	38	27	54	33	63
38	64	38	27	45	64
39	0	39	29	27	30	0
39	1	39	29	27	9	1
39	2	39	29	27	2
39	3	39	29	62	58	3
39	4	39	29	62	24	4
39	5	39	29	62	5
39	6	39	6
39	7	39	29	62	58	44	7
39	8	39	29	8
39	9	39	29	27	9
39	10	39	29	62	58	34	10
39	11	39	29	62	58	34	11
39	12	39	12
39	13	39	29	27	30	13
39	14	39	29	62	58	14
39	15	39	15
39	16	39	29	62	26	16
39	17	39	29	27	54	33	63	17
39	18	39	29	62	58	44	18
39	19	39	29	57	19
39	20	39	29	8	20
39	21	39	29	27	52	21
39	22	39	12	22
39	23	39	29	27	54	23
39	24	39	29	62	24
39	25	39	29	27	54	23	25
39	26	39	29	62	26
39	27	39	29	27
39	28	39	29	27	28
39	29	39	29
39	30	39	29	27	30
39	31	39	29	27	31
39	32	39	29	32
39	33	39	29	27	54	33
39	34	39	29	62	58	34
39	35	39	49	35
39	36	39	29	27	45	36
39	37	39	29	32	37
39	38	39	29	27	38
39	40	39	29	27	30	13	40
39	41	39	29	27	9	41
39	42	39	29	27	30	0	42
39	43	39	29	27	54	55	43
39	44	39	29	62	58	44
39	45	39	29	27	45
39	46	39	29	27	9	46
39	47	39	29	62	24	60	47
39	48	39	29	27	54	23	25	48
39	49	39	49
39	50	39	29	27	54	50
39	51	39	29	27	54	51
39	52	39	29	27	52
39	53	39	29	27	45	36	53
39	54	39	29	27	54
39	55	39	29	27	54	55
39	56	39	29	62	58	56
39	57	39	29	57
39	58	39	29	62	58
39	59	39	29	62	58	59
39	60	39	29	62	24	60
39	61	39	15	61
39	62	39	29	62
39	63	39	29	27	54	33	63
39	64	39	29	27	45	64
40	0	40	13	30	0
40	1	40	13	30	27	9	1
40	2	40	13	30	27	2
40	3	40	13	30	27	29	62	58	3
40	4	40	13	30	27	29	62	24	4
40	5	40	13	30	27	29	62	5
40	6	40	13	30	27	29	39	6
40	7	40	13	30	27	9	46	44	7
40	8	40	13	30	27	29	8
40	9	40	13	30	27	9
40	10	40	13	30	27	29	62	58	34	10
40	11	40	13	30	27	29	62	58	34	11
40	12	40	13	30	27	29	39	12
40	13	40	13
40	14	40	13	30	27	29	62	58	14
40	15	40	13	30	27	29	39	15
40	16	40	13	30	27	29	62	26	16
40	17	40	13	30	27	54	33	63	17
40	18	40	13	30	27	9	46	44	18
40	19	40	13	30	27	29	57	19
40	20	40	13	30	27	29	8	20
40	21	40	13	30	27	52	21
40	22	40	13	30	27	29	39	12	22
40	23	40	13	30	27	54	23
40	24	40	13	30	27	29	62	24
40	25	40	13	30	27	54	23	25
40	26	40	13	30	27	29	62	26
40	27	40	13	30	27
40	28	40	13	30	27	28
40	29	40	13	30	27	29
40	30	40	13	30
40	31	40	13	30	27	31
40	32	40	13	30	27	29	32
40	33	40	13	30	27	54	33
40	34	40	13	30	27	29	62	58	34
40	35	40	13	30	27	29	39	49	35
40	36	40	13	30	27	45	36
40	37	40	13	30	27	29	32	37
40	38	40	13	30	27	38
40	39	40	13	30	27	29	39
40	41	40	13	30	27	9	41
40	42	40	13	30	0	42
40	43	40	13	30	27	54	55	43
40	44	40	13	30	27	9	46	44
40	45	40	13	30	27	45
40	46	40	13	30	27	9	46
40	47	40	13	30	27	54	23	47
40	48	40	13	30	27	54	23	25	48
40	49	40	13	30	27	29	39	49
40	50	40	13	30	27	54	50
40	51	40	13	30	27	54	51
40	52	40	13	30	27	52
40	53	40	13	30	27	45	36	53
40	54	40	13	30	27	54
40	55	40	13	30	27	54	55
40	56	40	13	30	27	29	62	58	56
40	57	40	13	30	27	29	57
40	58	40	13	30	27	29	62	58
40	59	40	13	30	27	29	62	58	59
40	60	40	13	30	27	54	23	47	60
40	61	40	13	30	27	29	39	15	61
40	62	40	13	30	27	29	62
40	63	40	13	30	27	54	33	63
40	64	40	13	30	27	45	64
41	0	41	9	27	30	0
41	1	41	9	1
41	2	41	9	27	2
41	3	41	9	46	44	58	3
41	4	41	9	27	29	62	24	4
41	5	41	9	27	29	62	5
41	6	41	9	27	29	39	6
41	7	41	9	46	44	7
41	8	41	9	27	29	8
41	9	41	9
41	10	41	9	46	44	58	34	10
41	11	41	9	46	44	58	34	11
41	12	41	9	27	29	39	12
41	13	41	9	27	30	13
41	14	41	9	46	44	58	14
41	15	41	9	27	29	39	15
41	16	41	9	27	29	62	26	16
41	17	41	9	27	54	33	63	17
41	18	41	9	46	44	18
41	19	41	9	27	29	57	19
41	20	41	9	27	29	8	20
41	21	41	9	27	52	21
41	22	41	9	27	29	39	12	22
41	23	41	9	27	54	23
41	24	41	9	27	29	62	24
41	25	41	9	27	54	23	25
41	26	41	9	27	29	62	26
41	27	41	9	27
41	28	41	9	27	28
41	29	41	9	27	29
41	30	41	9	27	30
41	31	41	9	27	31
41	32	41	9	27	29	32
41	33	41	9	27	54	33
41	34	41	9	46	44	58	34
41	35	41	9	27	29	39	49	35
41	36	41	9	27	45	36
41	37	41	9	27	29	32	37
41	38	41	9	27	38
41	39	41	9	27	29	39
41	40	41	9	27	30	13	40
41	42	41	9	27	30	0	42
41	43	41	9	27	54	55	43
41	44	41	9	46	44
41	45	41	9	27	45
41	46	41	9	46
41	47	41	9	27	54	23	47
41	48	41	9	27	54	23	25	48
41	49	41	9	27	29	39	49
41	50	41	9	27	54	50
41	51	41	9	27	54	51
41	52	41	9	27	52
41	53	41	9	27	45	36	53
41	54	41	9	27	54
41	55	41	9	27	54	55
41	56	41	9	46	44	58	56
41	57	41	9	27	29	57
41	58	41	9	46	44	58
41	59	41	9	46	44	58	59
41	60	41	9	27	54	23	47	60
41	61	41	9	27	29	39	15	61
41	62	41	9	27	29	62
41	63	41	9	27	54	33	63
41	64	41	9	27	45	64
42	0	42	0
42	1	42	0	30	27	9	1
42	2	42	0	30	27	2
42	3	42	0	30	27	29	62	58	3
42	4	42	0	30	27	29	62	24	4
42	5	42	0	30	27	29	62	5
42	6	42	0	30	27	29	39	6
42	7	42	0	30	27	9	46	44	7
42	8	42	0	30	27	29	8
42	9	42	0	30	27	9
42	10	42	0	30	27	29	62	58	34	10
42	11	42	0	30	27	29	62	58	34	11
42	12	42	0	30	27	29	39	12
42	13	42	0	30	13
42	14	42	0	30	27	29	62	58	14
42	15	42	0	30	27	29	39	15
42	16	42	0	30	27	29	62	26	16
42	17	42	0	30	27	54	33	63	17
42	18	42	0	30	27	9	46	44	18
42	19	42	0	30	27	29	57	19
42	20	42	0	30	27	29	8	20
42	21	42	0	30	27	52	21
42	22	42	0	30	27	29	39	12	22
42	23	42	0	30	27	54	23
42	24	42	0	30	27	29	62	24
42	25	42	0	30	27	54	23	25
42	26	42	0	30	27	29	62	26
42	27	42	0	30	27
42	28	42	0	30	27	28
42	29	42	0	30	27	29
42	30	42	0	30
42	31	42	0	30	27	31
42	32	42	0	30	27	29	32
42	33	42	0	30	27	54	33
42	34	42	0	30	27	29	62	58	34
42	35	42	0	30	27	29	39	49	35
42	36	42	0	30	27	45	36
42	37	42	0	30	27	29	32	37
42	38	42	0	30	27	38
42	39	42	0	30	27	29	39
42	40	42	0	30	13	40
42	41	42	0	30	27	9	41
42	43	42	0	30	27	54	55	43
42	44	42	0	30	27	9	46	44
42	45	42	0	30	27	45
42	46	42	0	30	27	9	46
42	47	42	0	30	27	54	23	47
42	48	42	0	30	27	54	23	25	48
42	49	42	0	30	27	29	39	49
42	50	42	0	30	27	54	50
42	51	42	0	30	27	54	51
42	52	42	0	30	27	52
42	53	42	0	30	27	45	36	53
42	54	42	0	30	27	54
42	55	42	0	30	27	54	55
42	56	42	0	30	27	29	62	58	56
42	57	42	0	30	27	29	57
42	58	42	0	30	27	29	62	58
42	59	42	0	30	27	29	62	58	59
42	60	42	0	30	27	29	62	24	60
42	61	42	0	30	27	29	39	15	61
42	62	42	0	30	27	29	62
42	63	42	0	30	27	54	33	63
42	64	42	0	30	27	45	64
43	0	43	55	54	27	30	0
43	1	43	55	54	27	9	1
43	2	43	55	54	27	2
43	3	43	55	54	27	29	62	58	3
43	4	43	55	54	27	29	62	24	4
43	5	43	55	54	27	29	62	5
43	6	43	55	54	27	29	39	6
43	7	43	55	54	27	9	46	44	7
43	8	43	55	54	27	29	8
43	9	43	55	54	27	9
43	10	43	55	54	27	29	62	58	34	10
43	11	43	55	54	27	29	62	58	34	11
43	12	43	55	54	27	29	39	12
43	13	43	55	54	27	30	13
43	14	43	55	54	27	29	62	58	14
43	15	43	55	54	27	29	39	15
43	16	43	55	54	27	29	62	26	16
43	17	43	17
43	18	43	55	54	27	9	46	44	18
43	19	43	55	54	27	29	57	19
43	20	43	55	54	27	29	8	20
43	21	43	55	54	27	52	21
43	22	43	55	54	27	29	39	12	22
43	23	43	55	54	23
43	24	43	55	54	23	47	60	24
43	25	43	55	54	23	25
43	26	43	55	54	27	29	62	26
43	27	43	55	54	27
43	28	43	55	54	27	28
43	29	43	55	54	27	29
43	30	43	55	54	27	30
43	31	43	55	54	27	31
43	32	43	55	54	27	29	32
43	33	43	55	54	33
43	34	43	55	54	27	29	62	58	34
43	35	43	55	54	27	29	39	49	35
43	36	43	55	54	27	45	36
43	37	43	55	54	27	29	32	37
43	38	43	55	54	27	38
43	39	43	55	54	27	29	39
43	40	43	55	54	27	30	13	40
43	41	43	55	54	27	9	41
43	42	43	55	54	27	30	0	42
43	44	43	55	54	27	9	46	44
43	45	43	55	54	27	45
43	46	43	55	54	27	9	46
43	47	43	55	54	23	47
43	48	43	55	54	23	25	48
43	49	43	55	54	27	29	39	49
43	50	43	55	54	50
43	51	43	55	54	51
43	52	43	55	54	27	52
43	53	43	55	54	27	45	36	53
43	54	43	55	54
43	55	43	55
43	56	43	55	54	27	29	62	58	56
43	57	43	55	54	27	29	57
43	58	43	55	54	27	29	62	58
43	59	43	55	54	27	29	62	58	59
43	60	43	55	54	23	47	60
43	61	43	55	54	27	29	39	15	61
43	62	43	55	54	27	29	62
43	63	43	17	63
43	64	43	55	54	27	45	64
44	0	44	46	9	27	30	0
44	1	44	46	9	1
44	2	44	46	9	27	2
44	3	44	58	3
44	4	44	58	62	24	4
44	5	44	58	62	5
44	6	44	58	62	29	39	6
44	7	44	7
44	8	44	58	62	29	8
44	9	44	46	9
44	10	44	58	34	10
44	11	44	58	34	11
44	12	44	58	62	29	39	12
44	13	44	46	9	27	30	13
44	14	44	58	14
44	15	44	58	62	29	39	15
44	16	44	58	62	26	16
44	17	44	46	9	27	54	33	63	17
44	18	44	18
44	19	44	58	62	29	57	19
44	20	44	58	62	29	8	20
44	21	44	46	9	27	52	21
44	22	44	58	62	29	39	12	22
44	23	44	46	9	27	54	23
44	24	44	58	62	24
44	25	44	46	9	27	54	23	25
44	26	44	58	62	26
44	27	44	46	9	27
44	28	44	46	9	27	28
44	29	44	58	62	29
44	30	44	46	9	27	30
44	31	44	46	9	27	31
44	32	44	58	62	29	32
44	33	44	46	9	27	54	33
44	34	44	58	34
44	35	44	58	62	29	39	49	35
44	36	44	46	9	27	45	36
44	37	44	58	62	29	32	37
44	38	44	46	9	27	38
44	39	44	58	62	29	39
44	40	44	46	9	27	30	13	40
44	41	44	46	9	41
44	42	44	46	9	27	30	0	42
44	43	44	46	9	27	54	55	43
44	45	44	46	9	27	45
44	46	44	46
44	47	44	58	62	24	60	47
44	48	44	46	9	27	54	23	25	48
44	49	44	58	62	29	39	49
44	50	44	46	9	27	54	50
44	51	44	46	9	27	54	51
44	52	44	46	9	27	52
44	53	44	46	9	27	45	36	53
44	54	44	46	9	27	54
44	55	44	46	9	27	54	55
44	56	44	58	56
44	57	44	58	62	29	57
44	58	44	58
44	59	44	58	59
44	60	44	58	62	24	60
44	61	44	58	62	29	39	15	61
44	62	44	58	62
44	63	44	46	9	27	54	33	63
44	64	44	46	9	27	45	64
45	0	45	27	30	0
45	1	45	27	9	1
45	2	45	27	2
45	3	45	27	29	62	58	3
45	4	45	27	29	62	24	4
45	5	45	27	29	62	5
45	6	45	27	29	39	6
45	7	45	27	9	46	44	7
45	8	45	27	29	8
45	9	45	27	9
45	10	45	27	29	62	58	34	10
45	11	45	27	29	62	58	34	11
45	12	45	27	29	39	12
45	13	45	27	30	13
45	14	45	27	29	62	58	14
45	15	45	27	29	39	15
45	16	45	27	29	62	26	16
45	17	45	27	54	33	63	17
45	18	45	27	9	46	44	18
45	19	45	27	29	57	19
45	20	45	27	29	8	20
45	21	45	27	52	21
45	22	45	27	29	39	12	22
45	23	45	27	54	23
45	24	45	27	29	62	24
45	25	45	27	54	23	25
45	26	45	27	29	62	26
45	27	45	27
45	28	45	27	28
45	29	45	27	29
45	30	45	27	30
45	31	45	27	31
45	32	45	27	29	32
45	33	45	27	54	33
45	34	45	27	29	62	58	34
45	35	45	27	29	39	49	35
45	36	45	36
45	37	45	27	29	32	37
45	38	45	27	38
45	39	45	27	29	39
45	40	45	27	30	13	40
45	41	45	27	9	41
45	42	45	27	30	0	42
45	43	45	27	54	55	43
45	44	45	27	9	46	44
45	46	45	27	9	46
45	47	45	27	54	23	47
45	48	45	27	54	23	25	48
45	49	45	27	29	39	49
45	50	45	27	54	50
45	51	45	27	54	51
45	52	45	27	52
45	53	45	36	53
45	54	45	27	54
45	55	45	27	54	55
45	56	45	27	29	62	58	56
45	57	45	27	29	57
45	58	45	27	29	62	58
45	59	45	27	29	62	58	59
45	60	45	27	54	23	47	60
45	61	45	27	29	39	15	61
45	62	45	27	29	62
45	63	45	27	54	33	63
45	64	45	64
46	0	46	9	27	30	0
46	1	46	9	1
46	2	46	9	27	2
46	3	46	44	58	3
46	4	46	44	58	62	24	4
46	5	46	44	58	62	5
46	6	46	9	27	29	39	6
46	7	46	44	7
46	8	46	9	27	29	8
46	9	46	9
46	10	46	44	58	34	10
46	11	46	44	58	34	11
46	12	46	9	27	29	39	12
46	13	46	9	27	30	13
46	14	46	44	58	14
46	15	46	9	27	29	39	15
46	16	46	44	58	62	26	16
46	17	46	9	27	54	33	63	17
46	18	46	44	18
46	19	46	9	27	29	57	19
46	20	46	9	27	29	8	20
46	21	46	9	27	52	21
46	22	46	9	27	29	39	12	22
46	23	46	9	27	54	23
46	24	46	44	58	62	24
46	25	46	9	27	54	23	25
46	26	46	44	58	62	26
46	27	46	9	27
46	28	46	9	27	28
46	29	46	9	27	29
46	30	46	9	27	30
46	31	46	9	27	31
46	32	46	9	27	29	32
46	33	46	9	27	54	33
46	34	46	44	58	34
46	35	46	9	27	29	39	49	35
46	36	46	9	27	45	36
46	37	46	9	27	29	32	37
46	38	46	9	27	38
46	39	46	9	27	29	39
46	40	46	9	27	30	13	40
46	41	46	9	41
46	42	46	9	27	30	0	42
46	43	46	9	27	54	55	43
46	44	46	44
46	45	46	9	27	45
46	47	46	9	27	54	23	47
46	48	46	9	27	54	23	25	48
46	49	46	9	27	29	39	49
46	50	46	9	27	54	50
46	51	46	9	27	54	51
46	52	46	9	27	52
46	53	46	9	27	45	36	53
46	54	46	9	27	54
46	55	46	9	27	54	55
46	56	46	44	58	56
46	57	46	9	27	29	57
46	58	46	44	58
46	59	46	44	58	59
46	60	46	44	58	62	24	60
46	61	46	9	27	29	39	15	61
46	62	46	44	58	62
46	63	46	9	27	54	33	63
46	64	46	9	27	45	64
47	0	47	23	54	27	30	0
47	1	47	23	54	27	9	1
47	2	47	23	54	27	2
47	3	47	23	54	27	29	62	58	3
47	4	47	23	54	27	29	62	24	4
47	5	47	60	24	62	5
47	6	47	23	54	27	29	39	6
47	7	47	23	54	27	9	46	44	7
47	8	47	23	54	27	29	8
47	9	47	23	54	27	9
47	10	47	23	54	27	29	62	58	34	10
47	11	47	23	54	27	29	62	58	34	11
47	12	47	23	54	27	29	39	12
47	13	47	23	54	27	30	13
47	14	47	23	54	27	29	62	58	14
47	15	47	23	54	27	29	39	15
47	16	47	23	54	27	29	62	26	16
47	17	47	23	54	33	63	17
47	18	47	23	54	27	9	46	44	18
47	19	47	60	24	62	29	57	19
47	20	47	23	54	27	29	8	20
47	21	47	23	54	27	52	21
47	22	47	23	54	27	29	39	12	22
47	23	47	23
47	24	47	60	24
47	25	47	23	25
47	26	47	23	54	27	29	62	26
47	27	47	23	54	27
47	28	47	23	54	27	28
47	29	47	23	54	27	29
47	30	47	23	54	27	30
47	31	47	23	54	27	31
47	32	47	60	24	62	29	32
47	33	47	23	54	33
47	34	47	23	54	27	29	62	58	34
47	35	47	23	54	27	29	39	49	35
47	36	47	23	54	27	45	36
47	37	47	60	24	62	29	32	37
47	38	47	23	54	27	38
47	39	47	23	54	27	29	39
47	40	47	23	54	27	30	13	40
47	41	47	23	54	27	9	41
47	42	47	23	54	27	30	0	42
47	43	47	23	54	55	43
47	44	47	23	54	27	9	46	44
47	45	47	23	54	27	45
47	46	47	23	54	27	9	46
47	48	47	23	25	48
47	49	47	23	54	27	29	39	49
47	50	47	23	54	50
47	51	47	23	54	51
47	52	47	23	54	27	52
47	53	47	23	54	27	45	36	53
47	54	47	23	54
47	55	47	23	54	55
47	56	47	23	54	27	29	62	58	56
47	57	47	23	54	27	29	57
47	58	47	23	54	27	29	62	58
47	59	47	23	54	27	29	62	58	59
47	60	47	60
47	61	47	23	54	27	29	39	15	61
47	62	47	60	24	62
47	63	47	23	54	33	63
47	64	47	23	54	27	45	64
48	0	48	25	23	54	27	30	0
48	1	48	25	23	54	27	9	1
48	2	48	25	23	54	27	2
48	3	48	25	23	54	27	29	62	58	3
48	4	48	25	23	54	27	29	62	24	4
48	5	48	25	23	47	60	24	62	5
48	6	48	25	23	54	27	29	39	6
48	7	48	25	23	54	27	9	46	44	7
48	8	48	25	23	54	27	29	8
48	9	48	25	23	54	27	9
48	10	48	25	23	54	27	29	62	58	34	10
48	11	48	25	23	54	27	29	62	58	34	11
48	12	48	25	23	54	27	29	39	12
48	13	48	25	23	54	27	30	13
48	14	48	25	23	54	27	29	62	58	14
48	15	48	25	23	54	27	29	39	15
48	16	48	25	23	54	27	29	62	26	16
48	17	48	25	23	54	33	63	17
48	18	48	25	23	54	27	9	46	44	18
48	19	48	25	23	54	27	29	57	19
48	20	48	25	23	54	27	29	8	20
48	21	48	25	23	54	27	52	21
48	22	48	25	23	54	27	29	39	12	22
48	23	48	25	23
48	24	48	25	23	47	60	24
48	25	48	25
48	26	48	25	23	54	27	29	62	26
48	27	48	25	23	54	27
48	28	48	25	23	54	27	28
48	29	48	25	23	54	27	29
48	30	48	25	23	54	27	30
48	31	48	25	23	54	27	31
48	32	48	25	23	54	27	29	32
48	33	48	25	23	54	33
48	34	48	25	23	54	27	29	62	58	34
48	35	48	25	23	54	27	29	39	49	35
48	36	48	25	23	54	27	45	36
48	37	48	25	23	54	27	29	32	37
48	38	48	25	23	54	27	38
48	39	48	25	23	54	27	29	39
48	40	48	25	23	54	27	30	13	40
48	41	48	25	23	54	27	9	41
48	42	48	25	23	54	27	30	0	42
48	43	48	25	23	54	55	43
48	44	48	25	23	54	27	9	46	44
48	45	48	25	23	54	27	45
48	46	48	25	23	54	27	9	46
48	47	48	25	23	47
48	49	48	25	23	54	27	29	39	49
48	50	48	25	23	54	50
48	51	48	25	23	54	51
48	52	48	25	23	54	27	52
48	53	48	25	23	54	27	45	36	53
48	54	48	25	23	54
48	55	48	25	23	54	55
48	56	48	25	23	54	27	29	62	58	56
48	57	48	25	23	54	27	29	57
48	58	48	25	23	54	27	29	62	58
48	59	48	25	23	54	27	29	62	58	59
48	60	48	25	23	47	60
48	61	48	25	23	54	27	29	39	15	61
48	62	48	25	23	47	60	24	62
48	63	48	25	23	54	33	63
48	64	48	25	23	54	27	45	64
49	0	49	39	29	27	30	0
49	1	49	39	29	27	9	1
49	2	49	39	29	27	2
49	3	49	39	29	62	58	3
49	4	49	39	29	62	24	4
49	5	49	39	29	62	5
49	6	49	39	6
49	7	49	39	29	62	58	44	7
49	8	49	39	29	8
49	9	49	39	29	27	9
49	10	49	39	29	62	58	34	10
49	11	49	39	29	62	58	34	11
49	12	49	39	12
49	13	49	35	49	39	29	27	30	13
49	14	49	39	29	62	58	14
49	15	49	39	15
49	16	49	39	29	62	26	16
49	17	49	39	29	27	54	33	63	17
49	18	49	39	29	62	58	44	18
49	19	49	39	29	57	19
49	20	49	39	29	8	20
49	21	49	35	49	39	29	27	52	21
49	22	49	39	12	22
49	23	49	39	29	27	54	23
49	24	49	39	29	62	24
49	25	49	39	29	27	54	23	25
49	26	49	39	29	62	26
49	27	49	39	29	27
49	28	49	39	29	27	28
49	29	49	39	29
49	30	49	39	29	27	30
49	31	49	39	29	27	31
49	32	49	39	29	32
49	33	49	39	29	27	54	33
49	34	49	39	29	62	58	34
49	35	49	35
49	36	49	39	29	27	45	36
49	37	49	39	29	32	37
49	38	49	39	29	27	38
49	39	49	39
49	40	49	39	29	27	30	13	40
49	41	49	39	29	27	9	41
49	42	49	39	29	27	30	0	42
49	43	49	39	29	27	54	55	43
49	44	49	39	29	62	58	44
49	45	49	39	29	27	45
49	46	49	39	29	27	9	46
49	47	49	39	29	62	24	60	47
49	48	49	39	29	27	54	23	25	48
49	50	49	39	29	27	54	50
49	51	49	39	29	27	54	51
49	52	49	35	49	39	29	27	52
49	53	49	39	29	27	45	36	53
49	54	49	39	29	27	54
49	55	49	39	29	27	54	55
49	56	49	39	29	62	58	56
49	57	49	39	29	57
49	58	49	39	29	62	58
49	59	49	39	29	62	58	59
49	60	49	39	29	62	24	60
49	61	49	39	15	61
49	62	49	39	29	62
49	63	49	39	29	27	54	33	63
49	64	49	39	29	27	45	64
50	0	50	54	27	30	0
50	1	50	54	27	9	1
50	2	50	54	27	2
50	3	50	54	27	29	62	58	3
50	4	50	54	27	29	62	24	4
50	5	50	54	27	29	62	5
50	6	50	54	27	29	39	6
50	7	50	54	27	9	46	44	7
50	8	50	54	27	29	8
50	9	50	54	27	9
50	10	50	54	27	29	62	58	34	10
50	11	50	54	27	29	62	58	34	11
50	12	50	54	27	29	39	12
50	13	50	54	27	30	13
50	14	50	54	27	29	62	58	14
50	15	50	54	27	29	39	15
50	16	50	54	27	29	62	26	16
50	17	50	54	33	63	17
50	18	50	54	27	9	46	44	18
50	19	50	54	27	29	57	19
50	20	50	54	27	29	8	20
50	21	50	54	27	52	21
50	22	50	54	27	29	39	12	22
50	23	50	54	23
50	24	50	54	23	47	60	24
50	25	50	54	23	25
50	26	50	54	27	29	62	26
50	27	50	54	27
50	28	50	54	27	28
50	29	50	54	27	29
50	30	50	54	27	30
50	31	50	54	27	31
50	32	50	54	27	29	32
50	33	50	54	33
50	34	50	54	27	29	62	58	34
50	35	50	54	27	29	39	49	35
50	36	50	54	27	45	36
50	37	50	54	27	29	32	37
50	38	50	54	27	38
50	39	50	54	27	29	39
50	40	50	54	27	30	13	40
50	41	50	54	27	9	41
50	42	50	54	27	30	0	42
50	43	50	54	55	43
50	44	50	54	27	9	46	44
50	45	50	54	27	45
50	46	50	54	27	9	46
50	47	50	54	23	47
50	48	50	54	23	25	48
50	49	50	54	27	29	39	49
50	51	50	54	51
50	52	50	54	27	52
50	53	50	54	27	45	36	53
50	54	50	54
50	55	50	54	55
50	56	50	54	27	29	62	58	56
50	57	50	54	27	29	57
50	58	50	54	27	29	62	58
50	59	50	54	27	29	62	58	59
50	60	50	54	23	47	60
50	61	50	54	27	29	39	15	61
50	62	50	54	27	29	62
50	63	50	54	33	63
50	64	50	54	27	45	64
51	0	51	54	27	30	0
51	1	51	54	27	9	1
51	2	51	54	27	2
51	3	51	54	27	29	62	58	3
51	4	51	54	27	29	62	24	4
51	5	51	54	27	29	62	5
51	6	51	54	27	29	39	6
51	7	51	54	27	9	46	44	7
51	8	51	54	27	29	8
51	9	51	54	27	9
51	10	51	54	27	29	62	58	34	10
51	11	51	54	27	29	62	58	34	11
51	12	51	54	27	29	39	12
51	13	51	54	27	30	13
51	14	51	54	27	29	62	58	14
51	15	51	54	27	29	39	15
51	16	51	54	27	29	62	26	16
51	17	51	54	33	63	17
51	18	51	54	27	9	46	44	18
51	19	51	54	27	29	57	19
51	20	51	54	27	29	8	20
51	21	51	54	27	52	21
51	22	51	54	27	29	39	12	22
51	23	51	54	23
51	24	51	54	23	47	60	24
51	25	51	54	23	25
51	26	51	54	27	29	62	26
51	27	51	54	27
51	28	51	54	27	28
51	29	51	54	27	29
51	30	51	54	27	30
51	31	51	54	27	31
51	32	51	54	27	29	32
51	33	51	54	33
51	34	51	54	27	29	62	58	34
51	35	51	54	27	29	39	49	35
51	36	51	54	27	45	36
51	37	51	54	27	29	32	37
51	38	51	54	27	38
51	39	51	54	27	29	39
51	40	51	54	27	30	13	40
51	41	51	54	27	9	41
51	42	51	54	27	30	0	42
51	43	51	54	55	43
51	44	51	54	27	9	46	44
51	45	51	54	27	45
51	46	51	54	27	9	46
51	47	51	54	23	47
51	48	51	54	23	25	48
51	49	51	54	27	29	39	49
51	50	51	54	50
51	52	51	54	27	52
51	53	51	54	27	45	36	53
51	54	51	54
51	55	51	54	55
51	56	51	54	27	29	62	58	56
51	57	51	54	27	29	57
51	58	51	54	27	29	62	58
51	59	51	54	27	29	62	58	59
51	60	51	54	23	47	60
51	61	51	54	27	29	39	15	61
51	62	51	54	27	29	62
51	63	51	54	33	63
51	64	51	54	27	45	64
52	0	52	27	30	0
52	1	52	27	9	1
52	2	52	27	2
52	3	52	27	29	62	58	3
52	4	52	27	29	62	24	4
52	5	52	27	29	62	5
52	6	52	27	29	39	6
52	7	52	27	9	46	44	7
52	8	52	27	29	8
52	9	52	27	9
52	10	52	27	29	62	58	34	10
52	11	52	27	29	62	58	34	11
52	12	52	27	29	39	12
52	13	52	27	30	13
52	14	52	27	29	62	58	14
52	15	52	27	29	39	15
52	16	52	27	29	62	26	16
52	17	52	27	54	33	63	17
52	18	52	27	9	46	44	18
52	19	52	27	29	57	19
52	20	52	27	29	8	20
52	21	52	21
52	22	52	27	29	39	12	22
52	23	52	27	54	23
52	24	52	27	29	62	24
52	25	52	27	54	23	25
52	26	52	27	29	62	26
52	27	52	27
52	28	52	27	28
52	29	52	27	29
52	30	52	27	30
52	31	52	27	31
52	32	52	27	29	32
52	33	52	27	54	33
52	34	52	27	29	62	58	34
52	35	52	27	29	39	49	35
52	36	52	27	45	36
52	37	52	27	29	32	37
52	38	52	27	38
52	39	52	27	29	39
52	40	52	27	30	13	40
52	41	52	27	9	41
52	42	52	27	30	0	42
52	43	52	27	54	55	43
52	44	52	27	9	46	44
52	45	52	27	45
52	46	52	27	9	46
52	47	52	27	54	23	47
52	48	52	27	54	23	25	48
52	49	52	27	29	39	49
52	50	52	27	54	50
52	51	52	27	54	51
52	53	52	27	45	36	53
52	54	52	27	54
52	55	52	27	54	55
52	56	52	27	29	62	58	56
52	57	52	27	29	57
52	58	52	27	29	62	58
52	59	52	27	29	62	58	59
52	60	52	27	29	62	24	60
52	61	52	27	29	39	15	61
52	62	52	27	29	62
52	63	52	27	54	33	63
52	64	52	27	45	64
53	0	53	36	45	27	30	0
53	1	53	36	45	27	9	1
53	2	53	36	45	27	2
53	3	53	36	45	27	29	62	58	3
53	4	53	36	45	27	29	62	24	4
53	5	53	36	45	27	29	62	5
53	6	53	36	45	27	29	39	6
53	7	53	36	45	27	9	46	44	7
53	8	53	36	45	27	29	8
53	9	53	36	45	27	9
53	10	53	36	45	27	29	62	58	34	10
53	11	53	36	45	27	29	62	58	34	11
53	12	53	36	45	27	29	39	12
53	13	53	36	45	27	30	13
53	14	53	36	45	27	29	62	58	14
53	15	53	36	45	27	29	39	15
53	16	53	36	45	27	29	62	26	16
53	17	53	36	45	27	54	33	63	17
53	18	53	36	45	27	9	46	44	18
53	19	53	36	45	27	29	57	19
53	20	53	36	45	27	29	8	20
53	21	53	36	45	27	52	21
53	22	53	36	45	27	29	39	12	22
53	23	53	36	45	27	54	23
53	24	53	36	45	27	29	62	24
53	25	53	36	45	27	54	23	25
53	26	53	36	45	27	29	62	26
53	27	53	36	45	27
53	28	53	36	45	27	28
53	29	53	36	45	27	29
53	30	53	36	45	27	30
53	31	53	36	45	27	31
53	32	53	36	45	27	29	32
53	33	53	36	45	27	54	33
53	34	53	36	45	27	29	62	58	34
53	35	53	36	45	27	29	39	49	35
53	36	53	36
53	37	53	36	45	27	29	32	37
53	38	53	36	45	27	38
53	39	53	36	45	27	29	39
53	40	53	36	45	27	30	13	40
53	41	53	36	45	27	9	41
53	42	53	36	45	27	30	0	42
53	43	53	36	45	27	54	55	43
53	44	53	36	45	27	9	46	44
53	45	53	36	45
53	46	53	36	45	27	9	46
53	47	53	36	45	27	54	23	47
53	48	53	36	45	27	54	23	25	48
53	49	53	36	45	27	29	39	49
53	50	53	36	45	27	54	50
53	51	53	36	45	27	54	51
53	52	53	36	45	27	52
53	54	53	36	45	27	54
53	55	53	36	45	27	54	55
53	56	53	36	45	27	29	62	58	56
53	57	53	36	45	27	29	57
53	58	53	36	45	27	29	62	58
53	59	53	36	45	27	29	62	58	59
53	60	53	36	45	27	29	62	24	60
53	61	53	36	45	27	29	39	15	61
53	62	53	36	45	27	29	62
53	63	53	36	45	27	54	33	63
53	64	53	36	45	64
54	0	54	27	30	0
54	1	54	27	9	1
54	2	54	27	2
54	3	54	27	29	62	58	3
54	4	54	27	29	62	24	4
54	5	54	27	29	62	5
54	6	54	27	29	39	6
54	7	54	27	9	46	44	7
54	8	54	27	29	8
54	9	54	27	9
54	10	54	27	29	62	58	34	10
54	11	54	27	29	62	58	34	11
54	12	54	27	29	39	12
54	13	54	27	30	13
54	14	54	27	29	62	58	14
54	15	54	27	29	39	15
54	16	54	27	29	62	26	16
54	17	54	33	63	17
54	18	54	27	9	46	44	18
54	19	54	27	29	57	19
54	20	54	27	29	8	20
54	21	54	27	52	21
54	22	54	27	29	39	12	22
54	23	54	23
54	24	54	23	47	60	24
54	25	54	23	25
54	26	54	27	29	62	26
54	27	54	27
54	28	54	27	28
54	29	54	27	29
54	30	54	27	30
54	31	54	27	31
54	32	54	27	29	32
54	33	54	33
54	34	54	27	29	62	58	34
54	35	54	27	29	39	49	35
54	36	54	27	45	36
54	37	54	27	29	32	37
54	38	54	27	38
54	39	54	27	29	39
54	40	54	27	30	13	40
54	41	54	27	9	41
54	42	54	27	30	0	42
54	43	54	55	43
54	44	54	27	9	46	44
54	45	54	27	45
54	46	54	27	9	46
54	47	54	23	47
54	48	54	23	25	48
54	49	54	27	29	39	49
54	50	54	50
54	51	54	51
54	52	54	27	52
54	53	54	27	45	36	53
54	55	54	55
54	56	54	27	29	62	58	56
54	57	54	27	29	57
54	58	54	27	29	62	58
54	59	54	27	29	62	58	59
54	60	54	23	47	60
54	61	54	27	29	39	15	61
54	62	54	27	29	62
54	63	54	33	63
54	64	54	27	45	64
55	0	55	54	27	30	0
55	1	55	54	27	9	1
55	2	55	54	27	2
55	3	55	54	27	29	62	58	3
55	4	55	54	27	29	62	24	4
55	5	55	54	27	29	62	5
55	6	55	54	27	29	39	6
55	7	55	54	27	9	46	44	7
55	8	55	54	27	29	8
55	9	55	54	27	9
55	10	55	54	27	29	62	58	34	10
55	11	55	54	27	29	62	58	34	11
55	12	55	54	27	29	39	12
55	13	55	54	27	30	13
55	14	55	54	27	29	62	58	14
55	15	55	54	27	29	39	15
55	16	55	54	27	29	62	26	16
55	17	55	43	17
55	18	55	54	27	9	46	44	18
55	19	55	54	27	29	57	19
55	20	55	54	27	29	8	20
55	21	55	54	27	52	21
55	22	55	54	27	29	39	12	22
55	23	55	54	23
55	24	55	54	23	47	60	24
55	25	55	54	23	25
55	26	55	54	27	29	62	26
55	27	55	54	27
55	28	55	54	27	28
55	29	55	54	27	29
55	30	55	54	27	30
55	31	55	54	27	31
55	32	55	54	27	29	32
55	33	55	54	33
55	34	55	54	27	29	62	58	34
55	35	55	54	27	29	39	49	35
55	36	55	54	27	45	36
55	37	55	54	27	29	32	37
55	38	55	54	27	38
55	39	55	54	27	29	39
55	40	55	54	27	30	13	40
55	41	55	54	27	9	41
55	42	55	54	27	30	0	42
55	43	55	43
55	44	55	54	27	9	46	44
55	45	55	54	27	45
55	46	55	54	27	9	46
55	47	55	54	23	47
55	48	55	54	23	25	48
55	49	55	54	27	29	39	49
55	50	55	54	50
55	51	55	54	51
55	52	55	54	27	52
55	53	55	54	27	45	36	53
55	54	55	54
55	56	55	54	27	29	62	58	56
55	57	55	54	27	29	57
55	58	55	54	27	29	62	58
55	59	55	54	27	29	62	58	59
55	60	55	54	23	47	60
55	61	55	54	27	29	39	15	61
55	62	55	54	27	29	62
55	63	55	54	33	63
55	64	55	54	27	45	64
56	0	56	58	62	29	27	30	0
56	1	56	58	44	46	9	1
56	2	56	58	62	29	27	2
56	3	56	58	3
56	4	56	58	62	24	4
56	5	56	58	62	5
56	6	56	58	62	29	39	6
56	7	56	58	44	7
56	8	56	58	62	29	8
56	9	56	58	44	46	9
56	10	56	58	34	10
56	11	56	58	34	11
56	12	56	58	62	29	39	12
56	13	56	58	62	29	27	30	13
56	14	56	58	14
56	15	56	58	62	29	39	15
56	16	56	58	62	26	16
56	17	56	58	62	29	27	54	33	63	17
56	18	56	58	44	18
56	19	56	58	62	29	57	19
56	20	56	58	62	29	8	20
56	21	56	58	62	29	27	52	21
56	22	56	58	62	29	39	12	22
56	23	56	58	62	29	27	54	23
56	24	56	58	62	24
56	25	56	58	62	29	27	54	23	25
56	26	56	58	62	26
56	27	56	58	62	29	27
56	28	56	58	62	29	27	28
56	29	56	58	62	29
56	30	56	58	62	29	27	30
56	31	56	58	62	29	27	31
56	32	56	58	62	29	32
56	33	56	58	62	29	27	54	33
56	34	56	58	34
56	35	56	58	62	29	39	49	35
56	36	56	58	62	29	27	45	36
56	37	56	58	62	29	32	37
56	38	56	58	62	29	27	38
56	39	56	58	62	29	39
56	40	56	58	62	29	27	30	13	40
56	41	56	58	44	46	9	41
56	42	56	58	62	29	27	30	0	42
56	43	56	58	62	29	27	54	55	43
56	44	56	58	44
56	45	56	58	62	29	27	45
56	46	56	58	44	46
56	47	56	58	62	24	60	47
56	48	56	58	62	29	27	54	23	25	48
56	49	56	58	62	29	39	49
56	50	56	58	62	29	27	54	50
56	51	56	58	62	29	27	54	51
56	52	56	58	62	29	27	52
56	53	56	58	62	29	27	45	36	53
56	54	56	58	62	29	27	54
56	55	56	58	62	29	27	54	55
56	57	56	58	62	29	57
56	58	56	58
56	59	56	58	44	58	59
56	60	56	58	62	24	60
56	61	56	58	62	29	39	15	61
56	62	56	58	62
56	63	56	58	62	29	27	54	33	63
56	64	56	58	62	29	27	45	64
57	0	57	29	27	30	0
57	1	57	29	27	9	1
57	2	57	29	27	2
57	3	57	29	62	58	3
57	4	57	29	62	24	4
57	5	57	29	62	5
57	6	57	29	39	6
57	7	57	29	62	58	44	7
57	8	57	29	8
57	9	57	29	27	9
57	10	57	29	62	58	34	10
57	11	57	29	62	58	34	11
57	12	57	29	39	12
57	13	57	29	27	30	13
57	14	57	29	62	58	14
57	15	57	29	39	15
57	16	57	29	62	26	16
57	17	57	29	27	54	33	63	17
57	18	57	29	62	58	44	18
57	19	57	19
57	20	57	29	8	20
57	21	57	29	27	52	21
57	22	57	29	39	12	22
57	23	57	29	27	54	23
57	24	57	29	62	24
57	25	57	29	27	54	23	25
57	26	57	29	62	26
57	27	57	29	27
57	28	57	29	27	28
57	29	57	29
57	30	57	29	27	30
57	31	57	29	27	31
57	32	57	29	32
57	33	57	29	27	54	33
57	34	57	29	62	58	34
57	35	57	29	39	49	35
57	36	57	29	27	45	36
57	37	57	29	32	37
57	38	57	29	27	38
57	39	57	29	39
57	40	57	29	27	30	13	40
57	41	57	29	27	9	41
57	42	57	29	27	30	0	42
57	43	57	29	27	54	55	43
57	44	57	29	62	58	44
57	45	57	29	27	45
57	46	57	29	27	9	46
57	47	57	29	62	24	60	47
57	48	57	29	27	54	23	25	48
57	49	57	29	39	49
57	50	57	29	27	54	50
57	51	57	29	27	54	51
57	52	57	29	27	52
57	53	57	29	27	45	36	53
57	54	57	29	27	54
57	55	57	29	27	54	55
57	56	57	29	62	58	56
57	58	57	29	62	58
57	59	57	29	62	58	59
57	60	57	29	62	24	60
57	61	57	29	39	15	61
57	62	57	29	62
57	63	57	29	27	54	33	63
57	64	57	29	27	45	64
58	0	58	62	29	27	30	0
58	1	58	44	46	9	1
58	2	58	62	29	27	2
58	3	58	3
58	4	58	62	24	4
58	5	58	62	5
58	6	58	62	29	39	6
58	7	58	44	7
58	8	58	62	29	8
58	9	58	44	46	9
58	10	58	34	10
58	11	58	34	11
58	12	58	62	29	39	12
58	13	58	62	29	27	30	13
58	14	58	14
58	15	58	62	29	39	15
58	16	58	62	26	16
58	17	58	62	29	27	54	33	63	17
58	18	58	44	18
58	19	58	62	29	57	19
58	20	58	62	29	8	20
58	21	58	62	29	27	52	21
58	22	58	62	29	39	12	22
58	23	58	62	29	27	54	23
58	24	58	62	24
58	25	58	62	29	27	54	23	25
58	26	58	62	26
58	27	58	62	29	27
58	28	58	62	29	27	28
58	29	58	62	29
58	30	58	62	29	27	30
58	31	58	62	29	27	31
58	32	58	62	29	32
58	33	58	62	29	27	54	33
58	34	58	34
58	35	58	62	29	39	49	35
58	36	58	62	29	27	45	36
58	37	58	62	29	32	37
58	38	58	62	29	27	38
58	39	58	62	29	39
58	40	58	62	29	27	30	13	40
58	41	58	44	46	9	41
58	42	58	62	29	27	30	0	42
58	43	58	62	29	27	54	55	43
58	44	58	44
58	45	58	62	29	27	45
58	46	58	44	46
58	47	58	62	24	60	47
58	48	58	62	29	27	54	23	25	48
58	49	58	62	29	39	49
58	50	58	62	29	27	54	50
58	51	58	62	29	27	54	51
58	52	58	62	29	27	52
58	53	58	62	29	27	45	36	53
58	54	58	62	29	27	54
58	55	58	62	29	27	54	55
58	56	58	56
58	57	58	62	29	57
58	59	58	59
58	60	58	62	24	60
58	61	58	62	29	39	15	61
58	62	58	62
58	63	58	62	29	27	54	33	63
58	64	58	62	29	27	45	64
59	0	59	58	62	29	27	30	0
59	1	59	58	44	46	9	1
59	2	59	58	62	29	27	2
59	3	59	58	3
59	4	59	58	62	24	4
59	5	59	58	62	5
59	6	59	58	62	29	39	6
59	7	59	58	44	7
59	8	59	58	62	29	8
59	9	59	58	44	46	9
59	10	59	58	34	10
59	11	59	58	34	11
59	12	59	58	62	29	39	12
59	13	59	58	62	29	27	30	13
59	14	59	58	14
59	15	59	58	62	29	39	15
59	16	59	58	62	26	16
59	17	59	58	62	29	27	54	33	63	17
59	18	59	58	44	18
59	19	59	58	62	29	57	19
59	20	59	58	62	29	8	20
59	21	59	58	62	29	27	52	21
59	22	59	58	62	29	39	12	22
59	23	59	58	62	29	27	54	23
59	24	59	58	62	24
59	25	59	58	62	29	27	54	23	25
59	26	59	58	62	26
59	27	59	58	62	29	27
59	28	59	58	62	29	27	28
59	29	59	58	62	29
59	30	59	58	62	29	27	30
59	31	59	58	62	29	27	31
59	32	59	58	62	29	32
59	33	59	58	62	29	27	54	33
59	34	59	58	34
59	35	59	58	62	29	39	49	35
59	36	59	58	62	29	27	45	36
59	37	59	58	62	29	32	37
59	38	59	58	62	29	27	38
59	39	59	58	62	29	39
59	40	59	58	62	29	27	30	13	40
59	41	59	58	44	46	9	41
59	42	59	58	62	29	27	30	0	42
59	43	59	58	62	29	27	54	55	43
59	44	59	58	44
59	45	59	58	62	29	27	45
59	46	59	58	44	46
59	47	59	58	62	24	60	47
59	48	59	58	62	29	27	54	23	25	48
59	49	59	58	62	29	39	49
59	50	59	58	62	29	27	54	50
59	51	59	58	62	29	27	54	51
59	52	59	58	62	29	27	52
59	53	59	58	62	29	27	45	36	53
59	54	59	58	62	29	27	54
59	55	59	58	62	29	27	54	55
59	56	59	58	56
59	57	59	58	62	29	57
59	58	59	58
59	60	59	58	62	24	60
59	61	59	58	62	29	39	15	61
59	62	59	58	62
59	63	59	58	62	29	27	54	33	63
59	64	59	58	62	29	27	45	64
60	0	60	47	23	54	27	30	0
60	1	60	24	62	29	27	9	1
60	2	60	24	62	29	27	2
60	3	60	24	62	58	3
60	4	60	24	4
60	5	60	24	62	5
60	6	60	24	62	29	39	6
60	7	60	24	62	58	44	7
60	8	60	24	62	29	8
60	9	60	24	62	29	27	9
60	10	60	24	62	58	34	10
60	11	60	24	62	58	34	11
60	12	60	24	62	29	39	12
60	13	60	47	23	54	27	30	13
60	14	60	47	23	54	27	29	62	58	14
60	15	60	24	62	29	39	15
60	16	60	24	62	26	16
60	17	60	47	23	54	33	63	17
60	18	60	24	62	58	44	18
60	19	60	24	62	29	57	19
60	20	60	24	62	29	8	20
60	21	60	47	23	54	27	52	21
60	22	60	24	62	29	39	12	22
60	23	60	47	23
60	24	60	24
60	25	60	47	23	25
60	26	60	24	62	26
60	27	60	47	23	54	27
60	28	60	24	62	29	27	28
60	29	60	24	62	29
60	30	60	47	23	54	27	30
60	31	60	47	23	54	27	31
60	32	60	24	62	29	32
60	33	60	47	23	54	33
60	34	60	24	62	58	34
60	35	60	47	23	54	27	29	39	49	35
60	36	60	47	23	54	27	45	36
60	37	60	24	62	29	32	37
60	38	60	47	23	54	27	38
60	39	60	24	62	29	39
60	40	60	47	23	54	27	30	13	40
60	41	60	24	62	29	27	9	41
60	42	60	24	62	29	27	30	0	42
60	43	60	47	23	54	55	43
60	44	60	24	62	58	44
60	45	60	47	23	54	27	45
60	46	60	24	62	58	44	46
60	47	60	47
60	48	60	47	23	25	48
60	49	60	24	62	29	39	49
60	50	60	47	23	54	50
60	51	60	47	23	54	51
60	52	60	47	23	54	27	52
60	53	60	24	62	29	27	45	36	53
60	54	60	47	23	54
60	55	60	47	23	54	55
60	56	60	24	62	58	56
60	57	60	24	62	29	57
60	58	60	24	62	58
60	59	60	24	62	58	59
60	61	60	24	62	29	39	15	61
60	62	60	24	62
60	63	60	47	23	54	33	63
60	64	60	47	23	54	27	45	64
61	0	61	15	39	29	27	30	0
61	1	61	15	39	29	27	9	1
61	2	61	15	39	29	27	2
61	3	61	15	39	29	62	58	3
61	4	61	15	39	29	62	24	4
61	5	61	15	39	29	62	5
61	6	61	15	39	6
61	7	61	15	39	29	62	58	44	7
61	8	61	15	39	29	8
61	9	61	15	39	29	27	9
61	10	61	15	39	29	62	58	34	10
61	11	61	15	39	29	62	58	34	11
61	12	61	15	39	12
61	13	61	15	39	29	27	30	13
61	14	61	15	39	29	62	58	14
61	15	61	15
61	16	61	15	39	29	62	26	16
61	17	61	15	39	29	27	54	33	63	17
61	18	61	15	39	29	62	58	44	18
61	19	61	15	39	29	57	19
61	20	61	15	39	29	8	20
61	21	61	15	39	29	27	52	21
61	22	61	15	39	12	22
61	23	61	15	39	29	27	54	23
61	24	61	15	39	29	62	24
61	25	61	15	39	29	27	54	23	25
61	26	61	15	39	29	62	26
61	27	61	15	39	29	27
61	28	61	15	39	29	27	28
61	29	61	15	39	29
61	30	61	15	39	29	27	30
61	31	61	15	39	29	27	31
61	32	61	15	39	29	32
61	33	61	15	39	29	27	54	33
61	34	61	15	39	29	62	58	34
61	35	61	15	39	49	35
61	36	61	15	39	29	27	45	36
61	37	61	15	39	29	32	37
61	38	61	15	39	29	27	38
61	39	61	15	39
61	40	61	15	39	29	27	30	13	40
61	41	61	15	39	29	27	9	41
61	42	61	15	39	29	27	30	0	42
61	43	61	15	39	29	27	54	55	43
61	44	61	15	39	29	62	58	44
61	45	61	15	39	29	27	45
61	46	61	15	39	29	27	9	46
61	47	61	15	39	29	62	24	60	47
61	48	61	15	39	29	27	54	23	25	48
61	49	61	15	39	49
61	50	61	15	39	29	27	54	50
61	51	61	15	39	29	27	54	51
61	52	61	15	39	29	27	52
61	53	61	15	39	29	27	45	36	53
61	54	61	15	39	29	27	54
61	55	61	15	39	29	27	54	55
61	56	61	15	39	29	62	58	56
61	57	61	15	39	29	57
61	58	61	15	39	29	62	58
61	59	61	15	39	29	62	58	59
61	60	61	15	39	29	62	24	60
61	62	61	15	39	29	62
61	63	61	15	39	29	27	54	33	63
61	64	61	15	39	29	27	45	64
62	0	62	29	27	30	0
62	1	62	29	27	9	1
62	2	62	29	27	2
62	3	62	58	3
62	4	62	24	4
62	5	62	5
62	6	62	29	39	6
62	7	62	58	44	7
62	8	62	29	8
62	9	62	29	27	9
62	10	62	58	34	10
62	11	62	58	34	11
62	12	62	29	39	12
62	13	62	29	27	30	13
62	14	62	58	14
62	15	62	29	39	15
62	16	62	26	16
62	17	62	29	27	54	33	63	17
62	18	62	58	44	18
62	19	62	29	57	19
62	20	62	29	8	20
62	21	62	29	27	52	21
62	22	62	29	39	12	22
62	23	62	29	27	54	23
62	24	62	24
62	25	62	24	60	47	23	25
62	26	62	26
62	27	62	29	27
62	28	62	29	27	28
62	29	62	29
62	30	62	29	27	30
62	31	62	29	27	31
62	32	62	29	32
62	33	62	29	27	54	33
62	34	62	58	34
62	35	62	29	39	49	35
62	36	62	29	27	45	36
62	37	62	29	32	37
62	38	62	29	27	38
62	39	62	29	39
62	40	62	29	27	30	13	40
62	41	62	29	27	9	41
62	42	62	29	27	30	0	42
62	43	62	29	27	54	55	43
62	44	62	58	44
62	45	62	29	27	45
62	46	62	58	44	46
62	47	62	24	60	47
62	48	62	24	60	47	23	25	48
62	49	62	29	39	49
62	50	62	29	27	54	50
62	51	62	29	27	54	51
62	52	62	29	27	52
62	53	62	29	27	45	36	53
62	54	62	29	27	54
62	55	62	29	27	54	55
62	56	62	58	56
62	57	62	29	57
62	58	62	58
62	59	62	58	59
62	60	62	24	60
62	61	62	29	39	15	61
62	63	62	29	27	54	33	63
62	64	62	29	27	45	64
63	0	63	33	54	27	30	0
63	1	63	33	54	27	9	1
63	2	63	33	54	27	2
63	3	63	33	54	27	29	62	58	3
63	4	63	33	54	27	29	62	24	4
63	5	63	33	54	27	29	62	5
63	6	63	33	54	27	29	39	6
63	7	63	33	54	27	9	46	44	7
63	8	63	33	54	27	29	8
63	9	63	33	54	27	9
63	10	63	33	54	27	29	62	58	34	10
63	11	63	33	54	27	29	62	58	34	11
63	12	63	33	54	27	29	39	12
63	13	63	33	54	27	30	13
63	14	63	33	54	27	29	62	58	14
63	15	63	33	54	27	29	39	15
63	16	63	33	54	27	29	62	26	16
63	17	63	17
63	18	63	33	54	27	9	46	44	18
63	19	63	33	54	27	29	57	19
63	20	63	33	54	27	29	8	20
63	21	63	33	54	27	52	21
63	22	63	33	54	27	29	39	12	22
63	23	63	33	54	23
63	24	63	33	54	27	29	62	24
63	25	63	33	54	23	25
63	26	63	33	54	27	29	62	26
63	27	63	33	54	27
63	28	63	33	54	27	28
63	29	63	33	54	27	29
63	30	63	33	54	27	30
63	31	63	33	54	27	31
63	32	63	33	54	27	29	32
63	33	63	33
63	34	63	33	54	27	29	62	58	34
63	35	63	33	54	27	29	39	49	35
63	36	63	33	54	27	45	36
63	37	63	33	54	27	29	32	37
63	38	63	33	54	27	38
63	39	63	33	54	27	29	39
63	40	63	33	54	27	30	13	40
63	41	63	33	54	27	9	41
63	42	63	33	54	27	30	0	42
63	43	63	17	43
63	44	63	33	54	27	9	46	44
63	45	63	33	54	27	45
63	46	63	33	54	27	9	46
63	47	63	33	54	23	47
63	48	63	33	54	23	25	48
63	49	63	33	54	27	29	39	49
63	50	63	33	54	50
63	51	63	33	54	51
63	52	63	33	54	27	52
63	53	63	33	54	27	45	36	53
63	54	63	33	54
63	55	63	17	43	55
63	56	63	33	54	27	29	62	58	56
63	57	63	33	54	27	29	57
63	58	63	33	54	27	29	62	58
63	59	63	33	54	27	29	62	58	59
63	60	63	33	54	23	47	60
63	61	63	33	54	27	29	39	15	61
63	62	63	33	54	27	29	62
63	64	63	33	54	27	45	64
64	0	64	45	27	30	0
64	1	64	45	27	9	1
64	2	64	45	27	2
64	3	64	45	27	29	62	58	3
64	4	64	45	27	29	62	24	4
64	5	64	45	27	29	62	5
64	6	64	45	27	29	39	6
64	7	64	45	27	9	46	44	7
64	8	64	45	27	29	8
64	9	64	45	27	9
64	10	64	45	27	29	62	58	34	10
64	11	64	45	27	29	62	58	34	11
64	12	64	45	27	29	39	12
64	13	64	45	27	30	13
64	14	64	45	27	29	62	58	14
64	15	64	45	27	29	39	15
64	16	64	45	27	29	62	26	16
64	17	64	45	27	54	33	63	17
64	18	64	45	27	9	46	44	18
64	19	64	45	27	29	57	19
64	20	64	45	27	29	8	20
64	21	64	45	27	52	21
64	22	64	45	27	29	39	12	22
64	23	64	45	27	54	23
64	24	64	45	27	29	62	24
64	25	64	45	27	54	23	25
64	26	64	45	27	29	62	26
64	27	64	45	27
64	28	64	45	27	28
64	29	64	45	27	29
64	30	64	45	27	30
64	31	64	45	27	31
64	32	64	45	27	29	32
64	33	64	45	27	54	33
64	34	64	45	27	29	62	58	34
64	35	64	45	27	29	39	49	35
64	36	64	45	36
64	37	64	45	27	29	32	37
64	38	64	45	27	38
64	39	64	45	27	29	39
64	40	64	45	27	30	13	40
64	41	64	45	27	9	41
64	42	64	45	27	30	0	42
64	43	64	45	27	54	55	43
64	44	64	45	27	9	46	44
64	45	64	45
64	46	64	45	27	9	46
64	47	64	45	27	54	23	47
64	48	64	45	27	54	23	25	48
64	49	64	45	27	29	39	49
64	50	64	45	27	54	50
64	51	64	45	27	54	51
64	52	64	45	27	52
64	53	64	45	36	53
64	54	64	45	27	54
64	55	64	45	27	54	55
64	56	64	45	27	29	62	58	56
64	57	64	45	27	29	57
64	58	64	45	27	29	62	58
64	59	64	45	27	29	62	58	59
64	60	64	45	27	54	23	47	60
64	61	64	45	27	29	39	15	61
64	62	64	45	27	29	62
64	63	64	45	27	54	33	63
271
6	15	49
6	61	49
7	2	46
7	3	46
7	4	46
7	5	46
7	6	46
7	8	46
7	10	46
7	11	46
7	12	46
7	14	46
7	15	46
7	17	46
7	19	46
7	20	46
7	22	46
7	23	46
7	24	46
7	25	46
7	26	46
7	28	46
7	29	46
7	32	46
7	33	46
7	34	46
7	37	46
7	39	46
7	42	46
7	43	46
7	47	46
7	48	46
7	49	46
7	50	46
7	51	46
7	54	46
7	55	46
7	56	46
7	57	46
7	58	46
7	59	46
7	60	46
7	61	46
7	62	46
7	63	46
11	56	58
11	59	58
18	2	58
18	4	58
18	5	58
18	6	58
18	8	58
18	12	58
18	15	58
18	16	58
18	19	58
18	20	58
18	22	58
18	24	58
18	25	58
18	26	58
18	28	58
18	29	58
18	32	58
18	37	58
18	39	58
18	42	58
18	48	58
18	49	58
18	51	58
18	57	58
18	60	58
18	61	58
18	62	58
19	1	29
19	3	29
19	4	29
19	5	29
19	7	29
19	8	29
19	9	29
19	10	29
19	11	29
19	14	29
19	16	29
19	18	29
19	23	29
19	24	29
19	25	29
19	26	29
19	32	29
19	34	29
19	37	29
19	41	29
19	44	29
19	46	29
19	47	29
19	48	29
19	50	29
19	53	29
19	56	29
19	58	29
19	59	29
19	60	29
19	62	29
20	19	29
20	57	29
22	13	39
22	21	39
22	30	39
22	31	39
22	40	39
22	52	39
28	1	38
28	2	31
28	3	45
28	4	38
28	5	31
28	6	45
28	7	45
28	8	31
28	9	31
28	10	45
28	11	45
28	12	45
28	14	45
28	15	45
28	16	31
28	18	45
28	19	31
28	20	31
28	22	45
28	24	38
28	26	38
28	29	31
28	32	38
28	34	45
28	37	38
28	39	45
28	41	38
28	42	30
28	44	45
28	46	45
28	48	54
28	49	45
28	51	38
28	53	45
28	56	45
28	57	38
28	58	45
28	59	45
28	60	54
28	61	45
28	62	38
31	0	2
31	1	9
31	12	29
31	13	2
31	21	52
31	22	29
31	30	2
31	38	2
31	40	52
31	42	2
31	53	45
31	61	29
35	0	39
35	1	39
35	2	39
35	4	39
35	7	39
35	9	39
35	13	39
35	14	39
35	17	39
35	18	39
35	21	39
35	23	39
35	25	39
35	27	39
35	28	39
35	30	39
35	31	39
35	33	39
35	36	39
35	38	39
35	40	39
35	41	39
35	43	39
35	44	39
35	45	39
35	46	39
35	47	39
35	50	39
35	52	39
35	53	39
35	54	39
35	55	39
35	63	39
53	0	45
53	1	45
53	2	45
53	3	45
53	4	45
53	5	45
53	6	45
53	7	45
53	8	45
53	9	45
53	10	45
53	11	45
53	13	45
53	14	45
53	15	45
53	16	45
53	17	45
53	18	45
53	19	45
53	20	45
53	21	45
53	23	45
53	24	45
53	25	45
53	26	45
53	27	45
53	28	45
53	29	45
53	30	45
53	31	45
53	32	45
53	33	45
53	34	45
53	35	45
53	37	45
53	38	45
53	39	45
53	40	45
53	41	45
53	43	45
53	44	45
53	46	45
53	47	45
53	48	45
53	49	45
53	50	45
53	51	45
53	52	45
53	54	45
53	55	45
53	56	45
53	57	45
53	58	45
53	59	45
53	60	45
53	62	45
53	63	45
56	11	34
56	59	44
61	0	39
61	12	39
61	13	39
61	21	39
61	22	39
61	30	39
61	36	39
61	38	39
61	40	39
61	42	39
61	45	39
61	53	39
61	64	39
