33398.6
-1
1.38893
7	9	12	13	19	20	21	22	24	25	26	31	35	39	40	46	49	51
116
0	22	107
0	45	55
1	43	75
1	49	145
2	44	82
3	51	101
4	35	53
5	39	189
6	17	43
6	25	101
7	22	546
7	32	96
7	37	286
7	41	157
8	31	54
9	35	262
10	26	192
10	36	130
11	49	253
12	35	79
13	21	112
14	38	53
14	52	4
15	39	122
16	33	58
16	48	39
17	6	50
17	48	3
18	36	74
19	42	124
19	46	384
20	33	33
20	51	130
21	13	109
21	51	220
22	0	106
22	7	546
22	23	60
22	25	1908
22	26	424
22	27	126
22	34	68
22	40	317
22	46	834
23	22	60
24	25	60
25	6	94
25	22	1869
25	24	59
25	28	53
25	35	475
25	48	147
25	51	989
26	10	187
26	22	439
27	22	126
28	25	53
29	51	86
30	46	100
30	52	76
31	8	54
31	39	321
31	49	289
32	7	96
33	16	19
33	20	72
34	22	70
35	4	53
35	9	247
35	12	77
35	25	456
36	10	132
36	18	74
37	7	253
37	39	282
37	41	74
38	14	29
38	47	101
39	5	182
39	15	121
39	31	298
39	37	320
40	22	334
40	53	94
41	7	190
41	37	2
42	19	125
42	50	73
43	1	77
44	2	82
44	46	152
45	0	56
46	19	367
46	22	917
46	30	124
46	44	150
46	47	125
47	38	77
47	46	149
48	16	78
48	17	10
48	25	101
49	1	140
49	11	288
49	31	300
49	51	660
50	42	74
51	3	99
51	20	91
51	21	214
51	25	1044
51	29	86
51	49	672
52	14	28
52	30	52
53	40	95
2862
0	1	0	22	25	51	49	1
0	2	0	22	46	44	2
0	3	0	22	25	51	3
0	4	0	22	25	35	4
0	5	0	22	7	37	39	5
0	6	0	22	25	6
0	7	0	22	7
0	8	0	22	7	37	39	31	8
0	9	0	22	25	35	9
0	10	0	22	26	10
0	11	0	22	25	51	49	11
0	12	0	22	25	35	12
0	13	0	22	25	51	21	13
0	14	0	22	46	47	38	14
0	15	0	22	7	37	39	15
0	16	0	22	25	48	16
0	17	0	22	25	48	17
0	18	0	22	26	10	36	18
0	19	0	22	46	19
0	20	0	22	25	51	20
0	21	0	22	25	51	21
0	22	0	22
0	23	0	22	23
0	24	0	22	25	24
0	25	0	22	25
0	26	0	22	26
0	27	0	22	27
0	28	0	22	25	28
0	29	0	22	25	51	29
0	30	0	22	46	30
0	31	0	22	25	51	49	31
0	32	0	22	7	32
0	33	0	22	25	51	20	33
0	34	0	22	34
0	35	0	22	25	35
0	36	0	22	26	10	36
0	37	0	22	7	37
0	38	0	22	46	47	38
0	39	0	22	7	37	39
0	40	0	22	40
0	41	0	22	7	41
0	42	0	22	46	19	42
0	43	0	22	25	51	49	1	43
0	44	0	22	46	44
0	45	0	45
0	46	0	22	46
0	47	0	22	46	47
0	48	0	22	25	48
0	49	0	22	25	51	49
0	50	0	22	46	19	42	50
0	51	0	22	25	51
0	52	0	22	46	30	52
0	53	0	22	40	53
1	0	1	49	51	25	22	0
1	2	1	49	51	25	22	46	44	2
1	3	1	49	51	3
1	4	1	49	51	25	35	4
1	5	1	49	31	39	5
1	6	1	49	51	25	6
1	7	1	49	31	39	37	7
1	8	1	49	31	8
1	9	1	49	51	25	35	9
1	10	1	49	51	25	22	26	10
1	11	1	49	11
1	12	1	49	51	25	35	12
1	13	1	43	1	49	51	21	13
1	14	1	49	51	25	22	46	30	52	14
1	15	1	43	1	49	31	39	15
1	16	1	49	51	20	33	16
1	17	1	49	51	25	6	17
1	18	1	49	51	25	22	26	10	36	18
1	19	1	49	51	25	22	46	19
1	20	1	49	51	20
1	21	1	43	1	49	51	21
1	22	1	49	51	25	22
1	23	1	49	51	25	22	23
1	24	1	49	51	25	24
1	25	1	49	51	25
1	26	1	49	51	25	22	26
1	27	1	49	51	25	22	27
1	28	1	49	51	25	28
1	29	1	49	51	29
1	30	1	49	51	25	22	46	30
1	31	1	49	31
1	32	1	49	31	39	37	7	32
1	33	1	49	51	20	33
1	34	1	49	51	25	22	34
1	35	1	49	51	25	35
1	36	1	49	51	25	22	26	10	36
1	37	1	49	31	39	37
1	38	1	49	51	25	22	46	47	38
1	39	1	49	31	39
1	40	1	49	51	25	22	40
1	41	1	49	31	39	37	41
1	42	1	49	51	25	22	46	19	42
1	43	1	43
1	44	1	49	51	25	22	46	44
1	45	1	49	51	25	22	0	45
1	46	1	49	51	25	22	46
1	47	1	49	51	25	22	46	47
1	48	1	49	51	25	48
1	49	1	49
1	50	1	49	51	25	22	46	19	42	50
1	51	1	49	51
1	52	1	49	51	25	22	46	30	52
1	53	1	49	51	25	22	40	53
2	0	2	44	46	22	0
2	1	2	44	46	22	25	51	49	1
2	3	2	44	46	22	25	51	3
2	4	2	44	46	22	25	35	4
2	5	2	44	46	22	7	37	39	5
2	6	2	44	46	22	25	6
2	7	2	44	46	22	7
2	8	2	44	46	22	25	51	49	31	8
2	9	2	44	46	22	25	35	9
2	10	2	44	46	22	26	10
2	11	2	44	46	22	25	51	49	11
2	12	2	44	46	22	25	35	12
2	13	2	44	46	22	25	51	21	13
2	14	2	44	46	30	52	14
2	15	2	44	46	22	7	37	39	15
2	16	2	44	46	22	25	48	16
2	17	2	44	46	22	25	6	17
2	18	2	44	46	22	26	10	36	18
2	19	2	44	46	19
2	20	2	44	46	22	25	51	20
2	21	2	44	46	22	25	51	21
2	22	2	44	46	22
2	23	2	44	46	22	23
2	24	2	44	46	22	25	24
2	25	2	44	46	22	25
2	26	2	44	46	22	26
2	27	2	44	46	22	27
2	28	2	44	46	22	25	28
2	29	2	44	46	22	25	51	29
2	30	2	44	46	30
2	31	2	44	46	22	25	51	49	31
2	32	2	44	46	22	7	32
2	33	2	44	46	22	25	48	16	33
2	34	2	44	46	22	34
2	35	2	44	46	22	25	35
2	36	2	44	46	22	26	10	36
2	37	2	44	46	22	7	37
2	38	2	44	46	47	38
2	39	2	44	46	22	7	37	39
2	40	2	44	46	22	40
2	41	2	44	46	22	7	41
2	42	2	44	46	19	42
2	43	2	44	46	22	25	51	49	1	43
2	44	2	44
2	45	2	44	46	22	0	45
2	46	2	44	46
2	47	2	44	46	47
2	48	2	44	46	22	25	48
2	49	2	44	46	22	25	51	49
2	50	2	44	46	19	42	50
2	51	2	44	46	22	25	51
2	52	2	44	46	30	52
2	53	2	44	46	22	40	53
3	0	3	51	25	22	0
3	1	3	51	49	1
3	2	3	51	25	22	46	44	2
3	4	3	51	25	35	4
3	5	3	51	49	31	39	5
3	6	3	51	25	6
3	7	3	51	25	22	7
3	8	3	51	49	31	8
3	9	3	51	25	35	9
3	10	3	51	25	22	26	10
3	11	3	51	49	11
3	12	3	51	25	35	12
3	13	3	51	21	13
3	14	3	51	25	22	46	47	38	14
3	15	3	51	49	31	39	15
3	16	3	51	25	48	16
3	17	3	51	25	6	17
3	18	3	51	25	22	26	10	36	18
3	19	3	51	25	22	46	19
3	20	3	51	20
3	21	3	51	21
3	22	3	51	25	22
3	23	3	51	25	22	23
3	24	3	51	25	24
3	25	3	51	25
3	26	3	51	25	22	26
3	27	3	51	25	22	27
3	28	3	51	25	28
3	29	3	51	29
3	30	3	51	25	22	46	30
3	31	3	51	49	31
3	32	3	51	25	22	7	32
3	33	3	51	20	33
3	34	3	51	25	22	34
3	35	3	51	25	35
3	36	3	51	25	22	26	10	36
3	37	3	51	49	31	39	37
3	38	3	51	25	22	46	47	38
3	39	3	51	49	31	39
3	40	3	51	25	22	40
3	41	3	51	25	22	7	41
3	42	3	51	25	22	46	19	42
3	43	3	51	49	1	43
3	44	3	51	25	22	46	44
3	45	3	51	25	22	0	45
3	46	3	51	25	22	46
3	47	3	51	25	22	46	47
3	48	3	51	25	48
3	49	3	51	49
3	50	3	51	25	22	46	19	42	50
3	51	3	51
3	52	3	51	25	22	46	30	52
3	53	3	51	25	22	40	53
4	0	4	35	25	22	0
4	1	4	35	25	51	49	1
4	2	4	35	25	22	46	44	2
4	3	4	35	25	51	3
4	5	4	35	25	51	49	31	39	5
4	6	4	35	25	6
4	7	4	35	25	22	7
4	8	4	35	25	51	49	31	8
4	9	4	35	9
4	10	4	35	25	22	26	10
4	11	4	35	25	51	49	11
4	12	4	35	9	35	12
4	13	4	35	25	51	21	13
4	14	4	35	25	22	46	30	52	14
4	15	4	35	25	22	7	37	39	15
4	16	4	35	25	48	16
4	17	4	35	25	48	17
4	18	4	35	25	22	26	10	36	18
4	19	4	35	25	22	46	19
4	20	4	35	25	51	20
4	21	4	35	25	51	21
4	22	4	35	25	22
4	23	4	35	25	22	23
4	24	4	35	25	24
4	25	4	35	25
4	26	4	35	25	22	26
4	27	4	35	25	22	27
4	28	4	35	25	28
4	29	4	35	25	51	29
4	30	4	35	25	22	46	30
4	31	4	35	25	51	49	31
4	32	4	35	25	22	7	32
4	33	4	35	25	48	16	33
4	34	4	35	25	22	34
4	35	4	35
4	36	4	35	25	22	26	10	36
4	37	4	35	25	22	7	37
4	38	4	35	25	22	46	47	38
4	39	4	35	25	51	49	31	39
4	40	4	35	25	22	40
4	41	4	35	25	22	7	41
4	42	4	35	25	22	46	19	42
4	43	4	35	25	51	49	1	43
4	44	4	35	25	22	46	44
4	45	4	35	25	22	0	45
4	46	4	35	25	22	46
4	47	4	35	25	22	46	47
4	48	4	35	25	48
4	49	4	35	25	51	49
4	50	4	35	25	22	46	19	42	50
4	51	4	35	25	51
4	52	4	35	25	22	46	30	52
4	53	4	35	25	22	40	53
5	0	5	39	37	7	22	0
5	1	5	39	37	39	31	49	1
5	2	5	39	37	7	22	46	44	2
5	3	5	39	37	39	31	49	51	3
5	4	5	39	37	7	22	25	35	4
5	6	5	39	37	7	22	25	6
5	7	5	39	37	7
5	8	5	39	15	39	31	8
5	9	5	39	37	7	22	25	35	9
5	10	5	39	37	7	22	26	10
5	11	5	39	15	39	31	49	11
5	12	5	39	37	7	22	25	35	12
5	13	5	39	31	49	51	21	13
5	14	5	39	37	7	22	46	47	38	14
5	15	5	39	15
5	16	5	39	37	7	22	25	48	16
5	17	5	39	37	7	22	25	6	17
5	18	5	39	37	7	22	26	10	36	18
5	19	5	39	37	7	22	46	19
5	20	5	39	37	39	31	49	51	20
5	21	5	39	37	39	31	49	51	21
5	22	5	39	37	7	22
5	23	5	39	37	7	22	23
5	24	5	39	37	7	22	25	24
5	25	5	39	37	7	22	25
5	26	5	39	37	7	22	26
5	27	5	39	37	7	22	27
5	28	5	39	37	7	22	25	28
5	29	5	39	37	7	22	25	51	29
5	30	5	39	37	7	22	46	30
5	31	5	39	15	39	31
5	32	5	39	37	7	32
5	33	5	39	37	39	31	49	51	20	33
5	34	5	39	37	7	22	34
5	35	5	39	37	7	22	25	35
5	36	5	39	37	7	22	26	10	36
5	37	5	39	37
5	38	5	39	37	7	22	46	47	38
5	39	5	39
5	40	5	39	37	7	22	40
5	41	5	39	37	41
5	42	5	39	37	7	22	46	19	42
5	43	5	39	37	39	31	49	1	43
5	44	5	39	37	7	22	46	44
5	45	5	39	37	7	22	0	45
5	46	5	39	37	7	22	46
5	47	5	39	37	7	22	46	47
5	48	5	39	37	7	22	25	48
5	49	5	39	15	39	31	49
5	50	5	39	37	7	22	46	19	42	50
5	51	5	39	37	39	31	49	51
5	52	5	39	37	7	22	46	30	52
5	53	5	39	37	7	22	40	53
6	0	6	25	22	0
6	1	6	25	51	49	1
6	2	6	25	22	46	44	2
6	3	6	25	51	3
6	4	6	25	35	4
6	5	6	25	51	49	31	39	5
6	7	6	25	22	7
6	8	6	25	51	49	31	8
6	9	6	25	35	9
6	10	6	25	22	26	10
6	11	6	25	51	49	11
6	12	6	25	35	12
6	13	6	25	51	21	13
6	14	6	25	22	46	30	52	14
6	15	6	25	22	7	37	39	15
6	16	6	25	48	16
6	17	6	17
6	18	6	25	22	26	10	36	18
6	19	6	25	22	46	19
6	20	6	25	51	20
6	21	6	25	51	21
6	22	6	25	22
6	23	6	25	22	23
6	24	6	25	24
6	25	6	25
6	26	6	25	22	26
6	27	6	25	22	27
6	28	6	25	28
6	29	6	25	51	29
6	30	6	25	22	46	30
6	31	6	25	51	49	31
6	32	6	25	22	7	32
6	33	6	25	48	16	33
6	34	6	25	22	34
6	35	6	25	35
6	36	6	25	22	26	10	36
6	37	6	25	22	7	37
6	38	6	25	22	46	47	38
6	39	6	25	22	7	37	39
6	40	6	25	22	40
6	41	6	25	22	7	41
6	42	6	25	22	46	19	42
6	43	6	25	51	49	1	43
6	44	6	25	22	46	44
6	45	6	25	22	0	45
6	46	6	25	22	46
6	47	6	25	22	46	47
6	48	6	25	48
6	49	6	25	51	49
6	50	6	25	22	46	19	42	50
6	51	6	25	51
6	52	6	25	22	46	30	52
6	53	6	25	22	40	53
7	0	7	22	0
7	1	7	22	25	51	49	1
7	2	7	22	46	44	2
7	3	7	22	25	51	3
7	4	7	22	25	35	4
7	5	7	37	39	5
7	6	7	22	25	6
7	8	7	37	39	31	8
7	9	7	22	25	35	9
7	10	7	22	26	10
7	11	7	37	39	31	49	11
7	12	7	22	25	35	12
7	13	7	22	25	51	21	13
7	14	7	22	46	47	38	14
7	15	7	37	39	15
7	16	7	22	25	48	16
7	17	7	22	25	6	17
7	18	7	22	26	10	36	18
7	19	7	22	46	19
7	20	7	22	25	51	20
7	21	7	22	25	51	21
7	22	7	22
7	23	7	22	23
7	24	7	22	25	24
7	25	7	22	25
7	26	7	22	26
7	27	7	22	27
7	28	7	22	25	28
7	29	7	22	25	51	29
7	30	7	22	46	30
7	31	7	37	39	31
7	32	7	32
7	33	7	22	25	48	16	33
7	34	7	22	34
7	35	7	22	25	35
7	36	7	22	26	10	36
7	37	7	37
7	38	7	22	46	47	38
7	39	7	37	39
7	40	7	22	40
7	41	7	41
7	42	7	22	46	19	42
7	43	7	37	39	31	49	1	43
7	44	7	22	46	44
7	45	7	22	0	45
7	46	7	22	46
7	47	7	22	46	47
7	48	7	22	25	48
7	49	7	37	39	31	49
7	50	7	22	46	19	42	50
7	51	7	22	25	51
7	52	7	22	46	30	52
7	53	7	22	40	53
8	0	8	31	39	37	7	22	0
8	1	8	31	49	1
8	2	8	31	39	37	7	22	46	44	2
8	3	8	31	49	51	3
8	4	8	31	49	51	25	35	4
8	5	8	31	39	5
8	6	8	31	49	51	25	6
8	7	8	31	39	37	7
8	9	8	31	49	51	25	35	9
8	10	8	31	49	51	25	22	26	10
8	11	8	31	49	11
8	12	8	31	49	51	25	35	12
8	13	8	31	49	51	21	13
8	14	8	31	49	51	25	22	46	47	38	14
8	15	8	31	39	15
8	16	8	31	49	51	20	33	16
8	17	8	31	49	51	25	6	17
8	18	8	31	49	51	25	22	26	10	36	18
8	19	8	31	49	51	25	22	46	19
8	20	8	31	49	51	20
8	21	8	31	49	51	21
8	22	8	31	39	37	7	22
8	23	8	31	39	37	7	22	23
8	24	8	31	49	51	25	24
8	25	8	31	49	51	25
8	26	8	31	49	51	25	22	26
8	27	8	31	39	37	7	22	27
8	28	8	31	49	51	25	28
8	29	8	31	49	51	29
8	30	8	31	49	51	25	22	46	30
8	31	8	31
8	32	8	31	39	37	7	32
8	33	8	31	49	51	20	33
8	34	8	31	39	37	7	22	34
8	35	8	31	49	51	25	35
8	36	8	31	49	51	25	22	26	10	36
8	37	8	31	39	37
8	38	8	31	49	51	25	22	46	47	38
8	39	8	31	39
8	40	8	31	39	37	7	22	40
8	41	8	31	39	37	41
8	42	8	31	49	51	25	22	46	19	42
8	43	8	31	49	1	43
8	44	8	31	49	51	25	22	46	44
8	45	8	31	39	37	7	22	0	45
8	46	8	31	49	51	25	22	46
8	47	8	31	49	51	25	22	46	47
8	48	8	31	49	51	25	48
8	49	8	31	49
8	50	8	31	49	51	25	22	46	19	42	50
8	51	8	31	49	51
8	52	8	31	49	51	25	22	46	30	52
8	53	8	31	39	37	7	22	40	53
9	0	9	35	25	22	0
9	1	9	35	25	51	49	1
9	2	9	35	25	22	46	44	2
9	3	9	35	25	51	3
9	4	9	35	4
9	5	9	35	25	51	49	31	39	5
9	6	9	35	25	6
9	7	9	35	25	22	7
9	8	9	35	25	51	49	31	8
9	10	9	35	25	22	26	10
9	11	9	35	25	51	49	11
9	12	9	35	12
9	13	9	35	25	51	21	13
9	14	9	35	25	22	46	47	38	14
9	15	9	35	25	22	7	37	39	15
9	16	9	35	25	48	16
9	17	9	35	25	6	17
9	18	9	35	25	22	26	10	36	18
9	19	9	35	25	22	46	19
9	20	9	35	25	51	20
9	21	9	35	25	51	21
9	22	9	35	25	22
9	23	9	35	25	22	23
9	24	9	35	25	24
9	25	9	35	25
9	26	9	35	25	22	26
9	27	9	35	25	22	27
9	28	9	35	25	28
9	29	9	35	25	51	29
9	30	9	35	25	22	46	30
9	31	9	35	25	51	49	31
9	32	9	35	25	22	7	32
9	33	9	35	25	48	16	33
9	34	9	35	25	22	34
9	35	9	35
9	36	9	35	25	22	26	10	36
9	37	9	35	25	22	7	37
9	38	9	35	25	22	46	47	38
9	39	9	35	25	51	49	31	39
9	40	9	35	25	22	40
9	41	9	35	25	22	7	41
9	42	9	35	25	22	46	19	42
9	43	9	35	25	51	49	1	43
9	44	9	35	25	22	46	44
9	45	9	35	25	22	0	45
9	46	9	35	25	22	46
9	47	9	35	25	22	46	47
9	48	9	35	25	48
9	49	9	35	25	51	49
9	50	9	35	25	22	46	19	42	50
9	51	9	35	25	51
9	52	9	35	25	22	46	30	52
9	53	9	35	25	22	40	53
10	0	10	26	22	0
10	1	10	26	22	25	51	49	1
10	2	10	26	22	46	44	2
10	3	10	26	22	25	51	3
10	4	10	26	22	25	35	4
10	5	10	26	22	7	37	39	5
10	6	10	26	22	25	6
10	7	10	26	22	7
10	8	10	26	22	25	51	49	31	8
10	9	10	36	18	36	10	26	22	25	35	9
10	11	10	26	22	25	51	49	11
10	12	10	36	18	36	10	26	22	25	35	12
10	13	10	26	22	25	51	21	13
10	14	10	26	22	46	47	38	14
10	15	10	26	22	7	37	39	15
10	16	10	26	22	25	48	16
10	17	10	26	22	25	6	17
10	18	10	36	18
10	19	10	26	22	46	19
10	20	10	26	22	25	51	20
10	21	10	26	22	25	51	21
10	22	10	26	22
10	23	10	26	22	23
10	24	10	26	22	25	24
10	25	10	26	22	25
10	26	10	26
10	27	10	26	22	27
10	28	10	26	22	25	28
10	29	10	26	22	25	51	29
10	30	10	26	22	46	30
10	31	10	26	22	25	51	49	31
10	32	10	26	22	7	32
10	33	10	26	22	25	48	16	33
10	34	10	26	22	34
10	35	10	26	22	25	35
10	36	10	36
10	37	10	26	22	7	37
10	38	10	26	22	46	47	38
10	39	10	26	22	7	37	39
10	40	10	26	22	40
10	41	10	26	22	7	41
10	42	10	26	22	46	19	42
10	43	10	26	22	25	51	49	1	43
10	44	10	26	22	46	44
10	45	10	26	22	0	45
10	46	10	26	22	46
10	47	10	26	22	46	47
10	48	10	26	22	25	48
10	49	10	26	22	25	51	49
10	50	10	26	22	46	19	42	50
10	51	10	26	22	25	51
10	52	10	26	22	46	30	52
10	53	10	26	22	40	53
11	0	11	49	51	25	22	0
11	1	11	49	1
11	2	11	49	51	25	22	46	44	2
11	3	11	49	51	3
11	4	11	49	51	25	35	4
11	5	11	49	31	39	5
11	6	11	49	51	25	6
11	7	11	49	51	25	22	7
11	8	11	49	31	8
11	9	11	49	51	25	35	9
11	10	11	49	51	25	22	26	10
11	12	11	49	51	25	35	12
11	13	11	49	51	21	13
11	14	11	49	51	25	22	46	30	52	14
11	15	11	49	31	39	15
11	16	11	49	51	20	33	16
11	17	11	49	51	25	6	17
11	18	11	49	51	25	22	26	10	36	18
11	19	11	49	51	25	22	46	19
11	20	11	49	51	20
11	21	11	49	51	21
11	22	11	49	51	25	22
11	23	11	49	51	25	22	23
11	24	11	49	51	25	24
11	25	11	49	51	25
11	26	11	49	51	25	22	26
11	27	11	49	51	25	22	27
11	28	11	49	51	25	28
11	29	11	49	51	29
11	30	11	49	51	25	22	46	30
11	31	11	49	31
11	32	11	49	51	25	22	7	32
11	33	11	49	51	20	33
11	34	11	49	51	25	22	34
11	35	11	49	51	25	35
11	36	11	49	51	25	22	26	10	36
11	37	11	49	31	39	37
11	38	11	49	51	25	22	46	47	38
11	39	11	49	31	39
11	40	11	49	51	25	22	40
11	41	11	49	31	39	37	41
11	42	11	49	51	25	22	46	19	42
11	43	11	49	1	43
11	44	11	49	51	25	22	46	44
11	45	11	49	51	25	22	0	45
11	46	11	49	51	25	22	46
11	47	11	49	51	25	22	46	47
11	48	11	49	51	25	48
11	49	11	49
11	50	11	49	51	25	22	46	19	42	50
11	51	11	49	51
11	52	11	49	51	25	22	46	30	52
11	53	11	49	51	25	22	40	53
12	0	12	35	25	22	0
12	1	12	35	25	51	49	1
12	2	12	35	25	22	46	44	2
12	3	12	35	25	51	3
12	4	12	35	4
12	5	12	35	25	51	49	31	39	5
12	6	12	35	25	6
12	7	12	35	25	22	7
12	8	12	35	25	51	49	31	8
12	9	12	35	9
12	10	12	35	25	22	26	10
12	11	12	35	25	51	49	11
12	13	12	35	25	51	21	13
12	14	12	35	25	22	46	30	52	14
12	15	12	35	25	22	7	37	39	15
12	16	12	35	25	48	16
12	17	12	35	25	6	17
12	18	12	35	25	22	26	10	36	18
12	19	12	35	25	22	46	19
12	20	12	35	25	51	20
12	21	12	35	25	51	21
12	22	12	35	25	22
12	23	12	35	25	22	23
12	24	12	35	25	24
12	25	12	35	25
12	26	12	35	25	22	26
12	27	12	35	25	22	27
12	28	12	35	25	28
12	29	12	35	25	51	29
12	30	12	35	25	22	46	30
12	31	12	35	25	51	49	31
12	32	12	35	25	22	7	32
12	33	12	35	25	48	16	33
12	34	12	35	25	22	34
12	35	12	35
12	36	12	35	25	22	26	10	36
12	37	12	35	25	22	7	37
12	38	12	35	25	22	46	47	38
12	39	12	35	25	22	7	37	39
12	40	12	35	25	22	40
12	41	12	35	25	22	7	41
12	42	12	35	25	22	46	19	42
12	43	12	35	25	51	49	1	43
12	44	12	35	25	22	46	44
12	45	12	35	25	22	0	45
12	46	12	35	25	22	46
12	47	12	35	25	22	46	47
12	48	12	35	25	48
12	49	12	35	25	51	49
12	50	12	35	25	22	46	19	42	50
12	51	12	35	25	51
12	52	12	35	25	22	46	30	52
12	53	12	35	25	22	40	53
13	0	13	21	51	25	22	0
13	1	13	21	51	49	1
13	2	13	21	51	25	22	46	44	2
13	3	13	21	51	3
13	4	13	21	51	25	35	4
13	5	13	21	51	49	31	39	5
13	6	13	21	51	25	6
13	7	13	21	51	25	22	7
13	8	13	21	51	49	31	8
13	9	13	21	51	25	35	9
13	10	13	21	51	25	22	26	10
13	11	13	21	51	49	11
13	12	13	21	51	25	35	12
13	14	13	21	51	25	22	46	47	38	14
13	15	13	21	51	49	31	39	15
13	16	13	21	51	20	33	16
13	17	13	21	51	25	48	17
13	18	13	21	51	25	22	26	10	36	18
13	19	13	21	51	25	22	46	19
13	20	13	21	51	20
13	21	13	21
13	22	13	21	51	25	22
13	23	13	21	51	25	22	23
13	24	13	21	51	25	24
13	25	13	21	51	25
13	26	13	21	51	25	22	26
13	27	13	21	51	25	22	27
13	28	13	21	51	25	28
13	29	13	21	51	29
13	30	13	21	51	25	22	46	30
13	31	13	21	51	49	31
13	32	13	21	51	25	22	7	32
13	33	13	21	51	20	33
13	34	13	21	51	25	22	34
13	35	13	21	51	25	35
13	36	13	21	51	25	22	26	10	36
13	37	13	21	51	49	31	39	37
13	38	13	21	51	25	22	46	47	38
13	39	13	21	51	49	31	39
13	40	13	21	51	25	22	40
13	41	13	21	51	25	22	7	41
13	42	13	21	51	25	22	46	19	42
13	43	13	21	51	49	1	43
13	44	13	21	51	25	22	46	44
13	45	13	21	51	25	22	0	45
13	46	13	21	51	25	22	46
13	47	13	21	51	25	22	46	47
13	48	13	21	51	25	48
13	49	13	21	51	49
13	50	13	21	51	25	22	46	19	42	50
13	51	13	21	51
13	52	13	21	51	25	22	46	30	52
13	53	13	21	51	25	22	40	53
14	0	14	38	47	46	22	0
14	1	14	38	47	46	22	25	51	49	1
14	2	14	38	47	46	44	2
14	3	14	38	47	46	22	25	51	3
14	4	14	38	47	46	22	25	35	4
14	5	14	38	47	46	22	7	37	39	5
14	6	14	38	47	46	22	25	6
14	7	14	38	47	46	22	7
14	8	14	38	47	46	22	25	51	49	31	8
14	9	14	38	47	46	22	25	35	9
14	10	14	38	47	46	22	26	10
14	11	14	38	47	46	22	25	51	49	11
14	12	14	38	47	46	22	25	35	12
14	13	14	38	47	46	22	25	51	21	13
14	15	14	38	47	46	22	7	37	39	15
14	16	14	38	47	46	22	25	48	16
14	17	14	38	47	46	22	25	6	17
14	18	14	38	47	46	22	26	10	36	18
14	19	14	38	47	46	19
14	20	14	38	47	46	22	25	51	20
14	21	14	38	47	46	22	25	51	21
14	22	14	38	47	46	22
14	23	14	38	47	46	22	23
14	24	14	38	47	46	22	25	24
14	25	14	38	47	46	22	25
14	26	14	38	47	46	22	26
14	27	14	38	47	46	22	27
14	28	14	38	47	46	22	25	28
14	29	14	38	47	46	22	25	51	29
14	30	14	52	30
14	31	14	38	47	46	22	25	51	49	31
14	32	14	38	47	46	22	7	32
14	33	14	38	47	46	22	25	48	16	33
14	34	14	38	47	46	22	34
14	35	14	38	47	46	22	25	35
14	36	14	38	47	46	22	26	10	36
14	37	14	38	47	46	22	7	37
14	38	14	38
14	39	14	38	47	46	22	7	37	39
14	40	14	38	47	46	22	40
14	41	14	38	47	46	22	7	41
14	42	14	38	47	46	19	42
14	43	14	38	47	46	22	25	51	49	1	43
14	44	14	38	47	46	44
14	45	14	38	47	46	22	0	45
14	46	14	38	47	46
14	47	14	38	47
14	48	14	38	47	46	22	25	48
14	49	14	38	47	46	22	25	51	49
14	50	14	38	47	46	19	42	50
14	51	14	38	47	46	22	25	51
14	52	14	52
14	53	14	38	47	46	22	40	53
15	0	15	39	37	7	22	0
15	1	15	39	31	49	1
15	2	15	39	37	7	22	46	44	2
15	3	15	39	31	49	51	3
15	4	15	39	37	7	22	25	35	4
15	5	15	39	5
15	6	15	39	37	7	22	25	6
15	7	15	39	37	7
15	8	15	39	31	8
15	9	15	39	31	49	51	25	35	9
15	10	15	39	37	7	22	26	10
15	11	15	39	31	49	11
15	12	15	39	37	7	22	25	35	12
15	13	15	39	31	49	51	21	13
15	14	15	39	37	7	22	46	30	52	14
15	16	15	39	37	7	22	25	48	16
15	17	15	39	37	7	22	25	6	17
15	18	15	39	37	7	22	26	10	36	18
15	19	15	39	37	7	22	46	19
15	20	15	39	31	49	51	20
15	21	15	39	31	49	51	21
15	22	15	39	37	7	22
15	23	15	39	37	7	22	23
15	24	15	39	37	7	22	25	24
15	25	15	39	37	7	22	25
15	26	15	39	37	7	22	26
15	27	15	39	37	7	22	27
15	28	15	39	37	7	22	25	28
15	29	15	39	31	49	51	29
15	30	15	39	37	7	22	46	30
15	31	15	39	31
15	32	15	39	37	7	32
15	33	15	39	31	49	51	20	33
15	34	15	39	37	7	22	34
15	35	15	39	37	7	22	25	35
15	36	15	39	37	7	22	26	10	36
15	37	15	39	37
15	38	15	39	37	7	22	46	47	38
15	39	15	39
15	40	15	39	37	7	22	40
15	41	15	39	37	41
15	42	15	39	37	7	22	46	19	42
15	43	15	39	31	49	1	43
15	44	15	39	37	7	22	46	44
15	45	15	39	37	7	22	0	45
15	46	15	39	37	7	22	46
15	47	15	39	37	7	22	46	47
15	48	15	39	37	7	22	25	48
15	49	15	39	31	49
15	50	15	39	37	7	22	46	19	42	50
15	51	15	39	31	49	51
15	52	15	39	37	7	22	46	30	52
15	53	15	39	37	7	22	40	53
16	0	16	48	25	22	0
16	1	16	33	20	51	49	1
16	2	16	33	20	51	25	22	46	44	2
16	3	16	33	20	51	3
16	4	16	48	25	35	4
16	5	16	33	20	51	49	31	39	5
16	6	16	48	25	6
16	7	16	48	25	22	7
16	8	16	33	20	51	49	31	8
16	9	16	48	25	35	9
16	10	16	48	25	22	26	10
16	11	16	33	20	51	49	11
16	12	16	48	25	35	12
16	13	16	33	20	51	21	13
16	14	16	48	25	22	46	47	38	14
16	15	16	33	20	51	49	31	39	15
16	17	16	48	17
16	18	16	48	25	22	26	10	36	18
16	19	16	33	20	51	25	22	46	19
16	20	16	33	20
16	21	16	33	20	51	21
16	22	16	48	25	22
16	23	16	48	25	22	23
16	24	16	48	25	24
16	25	16	48	25
16	26	16	48	25	22	26
16	27	16	48	25	22	27
16	28	16	48	25	28
16	29	16	48	25	51	29
16	30	16	48	25	22	46	30
16	31	16	33	20	51	49	31
16	32	16	48	25	22	7	32
16	33	16	33
16	34	16	48	25	22	34
16	35	16	48	25	35
16	36	16	48	25	22	26	10	36
16	37	16	48	25	22	7	37
16	38	16	48	25	22	46	47	38
16	39	16	33	20	51	49	31	39
16	40	16	48	25	22	40
16	41	16	48	25	22	7	41
16	42	16	33	20	51	25	22	46	19	42
16	43	16	33	20	51	49	1	43
16	44	16	33	20	51	25	22	46	44
16	45	16	48	25	22	0	45
16	46	16	48	25	22	46
16	47	16	48	25	22	46	47
16	48	16	48
16	49	16	33	20	51	49
16	50	16	33	20	51	25	22	46	19	42	50
16	51	16	33	20	51
16	52	16	48	25	22	46	30	52
16	53	16	48	25	22	40	53
17	0	17	6	25	22	0
17	1	17	6	25	51	49	1
17	2	17	6	25	22	46	44	2
17	3	17	6	25	51	3
17	4	17	6	25	35	4
17	5	17	6	25	51	49	31	39	5
17	6	17	6
17	7	17	6	25	22	7
17	8	17	6	25	51	49	31	8
17	9	17	6	25	35	9
17	10	17	6	25	22	26	10
17	11	17	6	25	51	49	11
17	12	17	6	25	35	12
17	13	17	6	25	51	21	13
17	14	17	6	25	22	46	30	52	14
17	15	17	6	25	22	7	37	39	15
17	16	17	48	16
17	18	17	6	25	22	26	10	36	18
17	19	17	6	25	22	46	19
17	20	17	6	25	51	20
17	21	17	6	25	51	21
17	22	17	6	25	22
17	23	17	6	25	22	23
17	24	17	6	25	24
17	25	17	6	25
17	26	17	6	25	22	26
17	27	17	6	25	22	27
17	28	17	6	25	28
17	29	17	6	25	51	29
17	30	17	6	25	22	46	30
17	31	17	6	25	51	49	31
17	32	17	6	25	22	7	32
17	33	17	48	16	33
17	34	17	6	25	22	34
17	35	17	6	25	35
17	36	17	6	25	22	26	10	36
17	37	17	6	25	22	7	37
17	38	17	6	25	22	46	47	38
17	39	17	6	25	51	49	31	39
17	40	17	6	25	22	40
17	41	17	6	25	22	7	41
17	42	17	6	25	22	46	19	42
17	43	17	6	25	51	49	1	43
17	44	17	6	25	22	46	44
17	45	17	6	25	22	0	45
17	46	17	6	25	22	46
17	47	17	6	25	22	46	47
17	48	17	48
17	49	17	6	25	51	49
17	50	17	6	25	22	46	19	42	50
17	51	17	6	25	51
17	52	17	6	25	22	46	30	52
17	53	17	6	25	22	40	53
18	0	18	36	10	26	22	0
18	1	18	36	10	26	22	25	51	49	1
18	2	18	36	10	26	22	46	44	2
18	3	18	36	10	26	22	25	51	3
18	4	18	36	10	26	22	25	35	4
18	5	18	36	10	26	22	7	37	39	5
18	6	18	36	10	26	22	25	6
18	7	18	36	10	26	22	7
18	8	18	36	10	26	22	25	51	49	31	8
18	9	18	36	10	26	22	25	35	9
18	10	18	36	10
18	11	18	36	10	26	22	25	51	49	11
18	12	18	36	10	26	22	25	35	12
18	13	18	36	10	26	22	25	51	21	13
18	14	18	36	10	26	22	46	47	38	14
18	15	18	36	10	26	22	7	37	39	15
18	16	18	36	10	26	22	25	48	16
18	17	18	36	10	26	22	25	6	17
18	19	18	36	10	26	22	46	19
18	20	18	36	10	26	22	25	51	20
18	21	18	36	10	26	22	25	51	21
18	22	18	36	10	26	22
18	23	18	36	10	26	22	23
18	24	18	36	10	26	22	25	24
18	25	18	36	10	26	22	25
18	26	18	36	10	26
18	27	18	36	10	26	22	27
18	28	18	36	10	26	22	25	28
18	29	18	36	10	26	22	25	51	29
18	30	18	36	10	26	22	46	30
18	31	18	36	10	26	22	25	51	49	31
18	32	18	36	10	26	22	7	32
18	33	18	36	10	26	22	25	48	16	33
18	34	18	36	10	26	22	34
18	35	18	36	10	26	22	25	35
18	36	18	36
18	37	18	36	10	26	22	7	37
18	38	18	36	10	26	22	46	47	38
18	39	18	36	10	26	22	7	37	39
18	40	18	36	10	26	22	40
18	41	18	36	10	26	22	7	41
18	42	18	36	10	26	22	46	19	42
18	43	18	36	10	26	22	25	51	49	1	43
18	44	18	36	10	26	22	46	44
18	45	18	36	10	26	22	0	45
18	46	18	36	10	26	22	46
18	47	18	36	10	26	22	46	47
18	48	18	36	10	26	22	25	48
18	49	18	36	10	26	22	25	51	49
18	50	18	36	10	26	22	46	19	42	50
18	51	18	36	10	26	22	25	51
18	52	18	36	10	26	22	46	30	52
18	53	18	36	10	26	22	40	53
19	0	19	46	22	0
19	1	19	46	22	25	51	49	1
19	2	19	46	44	2
19	3	19	46	22	25	51	3
19	4	19	46	22	25	35	4
19	5	19	46	22	7	37	39	5
19	6	19	46	22	25	6
19	7	19	46	22	7
19	8	19	46	22	25	51	49	31	8
19	9	19	46	22	25	35	9
19	10	19	46	22	26	10
19	11	19	46	22	25	51	49	11
19	12	19	46	22	25	35	12
19	13	19	46	22	25	51	21	13
19	14	19	46	30	52	14
19	15	19	46	22	7	37	39	15
19	16	19	46	22	25	48	16
19	17	19	46	22	25	6	17
19	18	19	46	22	26	10	36	18
19	20	19	46	22	25	51	20
19	21	19	46	22	25	51	21
19	22	19	46	22
19	23	19	46	22	23
19	24	19	46	22	25	24
19	25	19	46	22	25
19	26	19	46	22	26
19	27	19	46	22	27
19	28	19	46	22	25	28
19	29	19	46	22	25	51	29
19	30	19	46	30
19	31	19	46	22	25	51	49	31
19	32	19	46	22	7	32
19	33	19	46	22	25	48	16	33
19	34	19	46	22	34
19	35	19	46	22	25	35
19	36	19	46	22	26	10	36
19	37	19	46	22	7	37
19	38	19	46	47	38
19	39	19	46	22	7	37	39
19	40	19	46	22	40
19	41	19	46	22	7	41
19	42	19	42
19	43	19	46	22	25	51	49	1	43
19	44	19	46	44
19	45	19	46	22	0	45
19	46	19	46
19	47	19	46	47
19	48	19	46	22	25	48
19	49	19	46	22	25	51	49
19	50	19	42	50
19	51	19	46	22	25	51
19	52	19	46	30	52
19	53	19	46	22	40	53
20	0	20	51	25	22	0
20	1	20	51	49	1
20	2	20	51	25	22	46	44	2
20	3	20	51	3
20	4	20	51	25	35	4
20	5	20	51	49	31	39	5
20	6	20	51	25	6
20	7	20	51	25	22	7
20	8	20	51	49	31	8
20	9	20	51	25	35	9
20	10	20	51	25	22	26	10
20	11	20	51	49	11
20	12	20	51	25	35	12
20	13	20	51	21	13
20	14	20	51	25	22	46	47	38	14
20	15	20	51	49	31	39	15
20	16	20	33	16
20	17	20	33	16	48	17
20	18	20	51	25	22	26	10	36	18
20	19	20	51	25	22	46	19
20	21	20	51	21
20	22	20	51	25	22
20	23	20	51	25	22	23
20	24	20	51	25	24
20	25	20	51	25
20	26	20	51	25	22	26
20	27	20	51	25	22	27
20	28	20	51	25	28
20	29	20	51	29
20	30	20	51	25	22	46	30
20	31	20	51	49	31
20	32	20	51	25	22	7	32
20	33	20	33
20	34	20	51	25	22	34
20	35	20	51	25	35
20	36	20	51	25	22	26	10	36
20	37	20	51	49	31	39	37
20	38	20	51	25	22	46	47	38
20	39	20	51	49	31	39
20	40	20	51	25	22	40
20	41	20	51	25	22	7	41
20	42	20	51	25	22	46	19	42
20	43	20	51	49	1	43
20	44	20	51	25	22	46	44
20	45	20	51	25	22	0	45
20	46	20	51	25	22	46
20	47	20	51	25	22	46	47
20	48	20	33	16	48
20	49	20	51	49
20	50	20	51	25	22	46	19	42	50
20	51	20	51
20	52	20	51	25	22	46	30	52
20	53	20	51	25	22	40	53
21	0	21	51	25	22	0
21	1	21	51	49	1
21	2	21	51	25	22	46	44	2
21	3	21	51	3
21	4	21	51	25	35	4
21	5	21	51	49	31	39	5
21	6	21	51	25	6
21	7	21	51	25	22	7
21	8	21	51	49	31	8
21	9	21	51	25	35	9
21	10	21	51	25	22	26	10
21	11	21	51	49	11
21	12	21	51	25	35	12
21	13	21	13
21	14	21	51	25	22	46	47	38	14
21	15	21	51	49	31	39	15
21	16	21	51	20	33	16
21	17	21	51	25	6	17
21	18	21	51	25	22	26	10	36	18
21	19	21	51	25	22	46	19
21	20	21	51	20
21	22	21	51	25	22
21	23	21	51	25	22	23
21	24	21	51	25	24
21	25	21	51	25
21	26	21	51	25	22	26
21	27	21	51	25	22	27
21	28	21	51	25	28
21	29	21	51	29
21	30	21	51	25	22	46	30
21	31	21	51	49	31
21	32	21	51	25	22	7	32
21	33	21	51	20	33
21	34	21	51	25	22	34
21	35	21	51	25	35
21	36	21	51	25	22	26	10	36
21	37	21	51	49	31	39	37
21	38	21	51	25	22	46	47	38
21	39	21	51	49	31	39
21	40	21	51	25	22	40
21	41	21	51	25	22	7	41
21	42	21	51	25	22	46	19	42
21	43	21	51	49	1	43
21	44	21	51	25	22	46	44
21	45	21	51	25	22	0	45
21	46	21	51	25	22	46
21	47	21	51	25	22	46	47
21	48	21	51	25	48
21	49	21	51	49
21	50	21	51	25	22	46	19	42	50
21	51	21	51
21	52	21	51	25	22	46	30	52
21	53	21	51	25	22	40	53
22	0	22	0
22	1	22	25	51	49	1
22	2	22	46	44	2
22	3	22	25	51	3
22	4	22	25	35	4
22	5	22	7	37	39	5
22	6	22	25	6
22	7	22	7
22	8	22	7	37	39	31	8
22	9	22	25	35	9
22	10	22	26	10
22	11	22	25	51	49	11
22	12	22	25	35	12
22	13	22	25	51	21	13
22	14	22	46	30	52	14
22	15	22	7	37	39	15
22	16	22	25	48	16
22	17	22	25	48	17
22	18	22	26	10	36	18
22	19	22	46	19
22	20	22	25	51	20
22	21	22	25	51	21
22	23	22	23
22	24	22	25	24
22	25	22	25
22	26	22	26
22	27	22	27
22	28	22	25	28
22	29	22	25	51	29
22	30	22	46	30
22	31	22	7	37	39	31
22	32	22	7	32
22	33	22	25	48	16	33
22	34	22	34
22	35	22	25	35
22	36	22	26	10	36
22	37	22	7	37
22	38	22	46	47	38
22	39	22	7	37	39
22	40	22	40
22	41	22	7	41
22	42	22	46	19	42
22	43	22	25	51	49	1	43
22	44	22	46	44
22	45	22	0	45
22	46	22	46
22	47	22	46	47
22	48	22	25	48
22	49	22	25	51	49
22	50	22	46	19	42	50
22	51	22	25	51
22	52	22	46	30	52
22	53	22	40	53
23	0	23	22	0
23	1	23	22	25	51	49	1
23	2	23	22	46	44	2
23	3	23	22	25	51	3
23	4	23	22	25	35	4
23	5	23	22	7	37	39	5
23	6	23	22	25	6
23	7	23	22	7
23	8	23	22	7	37	39	31	8
23	9	23	22	25	35	9
23	10	23	22	26	10
23	11	23	22	25	51	49	11
23	12	23	22	25	35	12
23	13	23	22	25	51	21	13
23	14	23	22	46	47	38	14
23	15	23	22	7	37	39	15
23	16	23	22	25	48	16
23	17	23	22	25	6	17
23	18	23	22	26	10	36	18
23	19	23	22	46	19
23	20	23	22	25	51	20
23	21	23	22	25	51	21
23	22	23	22
23	24	23	22	25	24
23	25	23	22	25
23	26	23	22	26
23	27	23	22	27
23	28	23	22	25	28
23	29	23	22	25	51	29
23	30	23	22	46	30
23	31	23	22	7	37	39	31
23	32	23	22	7	32
23	33	23	22	25	48	16	33
23	34	23	22	34
23	35	23	22	25	35
23	36	23	22	26	10	36
23	37	23	22	7	37
23	38	23	22	46	47	38
23	39	23	22	7	37	39
23	40	23	22	40
23	41	23	22	7	41
23	42	23	22	46	19	42
23	43	23	22	25	51	49	1	43
23	44	23	22	46	44
23	45	23	22	0	45
23	46	23	22	46
23	47	23	22	46	47
23	48	23	22	25	48
23	49	23	22	25	51	49
23	50	23	22	46	19	42	50
23	51	23	22	25	51
23	52	23	22	46	30	52
23	53	23	22	40	53
24	0	24	25	22	0
24	1	24	25	51	49	1
24	2	24	25	22	46	44	2
24	3	24	25	51	3
24	4	24	25	35	4
24	5	24	25	51	49	31	39	5
24	6	24	25	6
24	7	24	25	22	7
24	8	24	25	51	49	31	8
24	9	24	25	35	9
24	10	24	25	22	26	10
24	11	24	25	51	49	11
24	12	24	25	35	12
24	13	24	25	51	21	13
24	14	24	25	22	46	47	38	14
24	15	24	25	22	7	37	39	15
24	16	24	25	48	16
24	17	24	25	6	17
24	18	24	25	22	26	10	36	18
24	19	24	25	22	46	19
24	20	24	25	51	20
24	21	24	25	51	21
24	22	24	25	22
24	23	24	25	22	23
24	25	24	25
24	26	24	25	22	26
24	27	24	25	22	27
24	28	24	25	28
24	29	24	25	51	29
24	30	24	25	22	46	30
24	31	24	25	51	49	31
24	32	24	25	22	7	32
24	33	24	25	48	16	33
24	34	24	25	22	34
24	35	24	25	35
24	36	24	25	22	26	10	36
24	37	24	25	22	7	37
24	38	24	25	22	46	47	38
24	39	24	25	22	7	37	39
24	40	24	25	22	40
24	41	24	25	22	7	41
24	42	24	25	22	46	19	42
24	43	24	25	51	49	1	43
24	44	24	25	22	46	44
24	45	24	25	22	0	45
24	46	24	25	22	46
24	47	24	25	22	46	47
24	48	24	25	48
24	49	24	25	51	49
24	50	24	25	22	46	19	42	50
24	51	24	25	51
24	52	24	25	22	46	30	52
24	53	24	25	22	40	53
25	0	25	22	0
25	1	25	51	49	1
25	2	25	22	46	44	2
25	3	25	51	3
25	4	25	35	4
25	5	25	51	49	31	39	5
25	6	25	6
25	7	25	22	7
25	8	25	51	49	31	8
25	9	25	35	9
25	10	25	22	26	10
25	11	25	51	49	11
25	12	25	35	12
25	13	25	51	21	13
25	14	25	22	46	30	52	14
25	15	25	22	7	37	39	15
25	16	25	48	16
25	17	25	6	17
25	18	25	22	26	10	36	18
25	19	25	22	46	19
25	20	25	51	20
25	21	25	51	21
25	22	25	22
25	23	25	22	23
25	24	25	24
25	26	25	22	26
25	27	25	22	27
25	28	25	28
25	29	25	51	29
25	30	25	22	46	30
25	31	25	51	49	31
25	32	25	22	7	32
25	33	25	48	16	33
25	34	25	22	34
25	35	25	35
25	36	25	22	26	10	36
25	37	25	22	7	37
25	38	25	22	46	47	38
25	39	25	22	7	37	39
25	40	25	22	40
25	41	25	22	7	41
25	42	25	22	46	19	42
25	43	25	51	49	1	43
25	44	25	22	46	44
25	45	25	22	0	45
25	46	25	22	46
25	47	25	22	46	47
25	48	25	48
25	49	25	51	49
25	50	25	22	46	19	42	50
25	51	25	51
25	52	25	22	46	30	52
25	53	25	22	40	53
26	0	26	22	0
26	1	26	22	25	51	49	1
26	2	26	22	46	44	2
26	3	26	22	25	51	3
26	4	26	22	25	35	4
26	5	26	22	7	37	39	5
26	6	26	22	25	6
26	7	26	22	7
26	8	26	22	25	51	49	31	8
26	9	26	22	25	35	9
26	10	26	10
26	11	26	22	25	51	49	11
26	12	26	22	25	35	12
26	13	26	22	25	51	21	13
26	14	26	22	46	47	38	14
26	15	26	22	7	37	39	15
26	16	26	22	25	48	16
26	17	26	22	25	6	17
26	18	26	10	36	18
26	19	26	22	46	19
26	20	26	22	25	51	20
26	21	26	22	25	51	21
26	22	26	22
26	23	26	22	23
26	24	26	22	25	24
26	25	26	22	25
26	27	26	22	27
26	28	26	22	25	28
26	29	26	22	25	51	29
26	30	26	22	46	30
26	31	26	22	25	51	49	31
26	32	26	22	7	32
26	33	26	22	25	48	16	33
26	34	26	22	34
26	35	26	22	25	35
26	36	26	10	36
26	37	26	22	7	37
26	38	26	22	46	47	38
26	39	26	22	7	37	39
26	40	26	22	40
26	41	26	22	7	41
26	42	26	22	46	19	42
26	43	26	22	25	51	49	1	43
26	44	26	22	46	44
26	45	26	22	0	45
26	46	26	22	46
26	47	26	22	46	47
26	48	26	22	25	48
26	49	26	22	25	51	49
26	50	26	22	46	19	42	50
26	51	26	22	25	51
26	52	26	22	46	30	52
26	53	26	22	40	53
27	0	27	22	0
27	1	27	22	25	51	49	1
27	2	27	22	46	44	2
27	3	27	22	25	51	3
27	4	27	22	25	35	4
27	5	27	22	7	37	39	5
27	6	27	22	25	6
27	7	27	22	7
27	8	27	22	7	37	39	31	8
27	9	27	22	25	35	9
27	10	27	22	23	22	26	10
27	11	27	22	25	51	49	11
27	12	27	22	25	35	12
27	13	27	22	25	51	21	13
27	14	27	22	46	30	52	14
27	15	27	22	7	37	39	15
27	16	27	22	25	48	16
27	17	27	22	25	6	17
27	18	27	22	23	22	26	10	36	18
27	19	27	22	46	19
27	20	27	22	25	51	20
27	21	27	22	25	51	21
27	22	27	22
27	23	27	22	23
27	24	27	22	25	24
27	25	27	22	25
27	26	27	22	23	22	26
27	28	27	22	25	28
27	29	27	22	25	51	29
27	30	27	22	46	30
27	31	27	22	7	37	39	31
27	32	27	22	7	32
27	33	27	22	25	48	16	33
27	34	27	22	34
27	35	27	22	25	35
27	36	27	22	23	22	26	10	36
27	37	27	22	7	37
27	38	27	22	46	47	38
27	39	27	22	7	37	39
27	40	27	22	40
27	41	27	22	7	41
27	42	27	22	46	19	42
27	43	27	22	25	51	49	1	43
27	44	27	22	46	44
27	45	27	22	0	45
27	46	27	22	46
27	47	27	22	46	47
27	48	27	22	25	48
27	49	27	22	25	51	49
27	50	27	22	46	19	42	50
27	51	27	22	25	51
27	52	27	22	46	30	52
27	53	27	22	40	53
28	0	28	25	48	25	22	0
28	1	28	25	51	49	1
28	2	28	25	22	46	44	2
28	3	28	25	51	3
28	4	28	25	35	4
28	5	28	25	51	49	31	39	5
28	6	28	25	6
28	7	28	25	48	25	22	7
28	8	28	25	51	49	31	8
28	9	28	25	35	9
28	10	28	25	22	26	10
28	11	28	25	51	49	11
28	12	28	25	35	12
28	13	28	25	51	21	13
28	14	28	25	48	25	22	46	30	52	14
28	15	28	25	22	7	37	39	15
28	16	28	25	48	16
28	17	28	25	6	17
28	18	28	25	22	26	10	36	18
28	19	28	25	48	25	22	46	19
28	20	28	25	51	20
28	21	28	25	51	21
28	22	28	25	48	25	22
28	23	28	25	48	25	22	23
28	24	28	25	48	25	24
28	25	28	25
28	26	28	25	22	26
28	27	28	25	48	25	22	27
28	29	28	25	51	29
28	30	28	25	48	25	22	46	30
28	31	28	25	51	49	31
28	32	28	25	48	25	22	7	32
28	33	28	25	48	16	33
28	34	28	25	48	25	22	34
28	35	28	25	35
28	36	28	25	22	26	10	36
28	37	28	25	48	25	22	7	37
28	38	28	25	48	25	22	46	47	38
28	39	28	25	51	49	31	39
28	40	28	25	48	25	22	40
28	41	28	25	48	25	22	7	41
28	42	28	25	48	25	22	46	19	42
28	43	28	25	51	49	1	43
28	44	28	25	48	25	22	46	44
28	45	28	25	22	0	45
28	46	28	25	48	25	22	46
28	47	28	25	48	25	22	46	47
28	48	28	25	48
28	49	28	25	51	49
28	50	28	25	22	46	19	42	50
28	51	28	25	51
28	52	28	25	48	25	22	46	30	52
28	53	28	25	22	40	53
29	0	29	51	21	51	25	22	0
29	1	29	51	49	1
29	2	29	51	25	22	46	44	2
29	3	29	51	3
29	4	29	51	21	51	25	35	4
29	5	29	51	49	31	39	5
29	6	29	51	21	51	25	6
29	7	29	51	49	31	39	37	7
29	8	29	51	49	31	8
29	9	29	51	21	51	25	35	9
29	10	29	51	3	51	25	22	26	10
29	11	29	51	49	11
29	12	29	51	21	51	25	35	12
29	13	29	51	21	13
29	14	29	51	3	51	25	22	46	30	52	14
29	15	29	51	49	31	39	15
29	16	29	51	20	33	16
29	17	29	51	20	33	16	48	17
29	18	29	51	3	51	25	22	26	10	36	18
29	19	29	51	25	22	46	19
29	20	29	51	20
29	21	29	51	21
29	22	29	51	21	51	25	22
29	23	29	51	21	51	25	22	23
29	24	29	51	21	51	25	24
29	25	29	51	21	51	25
29	26	29	51	3	51	25	22	26
29	27	29	51	21	51	25	22	27
29	28	29	51	21	51	25	28
29	30	29	51	3	51	25	22	46	30
29	31	29	51	49	31
29	32	29	51	49	31	39	37	7	32
29	33	29	51	20	33
29	34	29	51	21	51	25	22	34
29	35	29	51	21	51	25	35
29	36	29	51	3	51	25	22	26	10	36
29	37	29	51	49	31	39	37
29	38	29	51	3	51	25	22	46	47	38
29	39	29	51	49	31	39
29	40	29	51	21	51	25	22	40
29	41	29	51	49	31	39	37	41
29	42	29	51	25	22	46	19	42
29	43	29	51	49	1	43
29	44	29	51	25	22	46	44
29	45	29	51	21	51	25	22	0	45
29	46	29	51	3	51	25	22	46
29	47	29	51	3	51	25	22	46	47
29	48	29	51	20	33	16	48
29	49	29	51	49
29	50	29	51	25	22	46	19	42	50
29	51	29	51
29	52	29	51	3	51	25	22	46	30	52
29	53	29	51	3	51	25	22	40	53
30	0	30	46	22	0
30	1	30	46	22	25	51	49	1
30	2	30	46	44	2
30	3	30	46	22	25	51	3
30	4	30	46	22	25	35	4
30	5	30	46	22	7	37	39	5
30	6	30	46	22	25	6
30	7	30	46	22	7
30	8	30	46	22	7	37	39	31	8
30	9	30	46	22	25	35	9
30	10	30	46	22	26	10
30	11	30	46	22	25	51	49	11
30	12	30	46	22	25	35	12
30	13	30	46	22	25	51	21	13
30	14	30	52	14
30	15	30	46	22	7	37	39	15
30	16	30	46	22	25	48	16
30	17	30	46	22	25	6	17
30	18	30	46	22	26	10	36	18
30	19	30	46	19
30	20	30	46	22	25	51	20
30	21	30	46	22	25	51	21
30	22	30	46	22
30	23	30	46	22	23
30	24	30	46	22	25	24
30	25	30	46	22	25
30	26	30	46	22	26
30	27	30	46	22	27
30	28	30	46	22	25	28
30	29	30	46	22	25	51	29
30	31	30	46	22	7	37	39	31
30	32	30	46	22	7	32
30	33	30	46	22	25	48	16	33
30	34	30	46	22	34
30	35	30	46	22	25	35
30	36	30	46	22	26	10	36
30	37	30	46	22	7	37
30	38	30	52	14	38
30	39	30	46	22	7	37	39
30	40	30	46	22	40
30	41	30	46	22	7	41
30	42	30	46	19	42
30	43	30	46	22	25	51	49	1	43
30	44	30	46	44
30	45	30	46	22	0	45
30	46	30	46
30	47	30	46	47
30	48	30	46	22	25	48
30	49	30	46	22	25	51	49
30	50	30	46	19	42	50
30	51	30	46	22	25	51
30	52	30	52
30	53	30	46	22	40	53
31	0	31	39	37	7	22	0
31	1	31	49	1
31	2	31	39	37	7	22	46	44	2
31	3	31	49	51	3
31	4	31	49	51	25	35	4
31	5	31	39	5
31	6	31	49	51	25	6
31	7	31	39	37	7
31	8	31	8
31	9	31	49	51	25	35	9
31	10	31	49	51	25	22	26	10
31	11	31	49	11
31	12	31	49	51	25	35	12
31	13	31	49	51	21	13
31	14	31	49	51	25	22	46	47	38	14
31	15	31	39	15
31	16	31	49	51	20	33	16
31	17	31	49	51	25	6	17
31	18	31	49	51	25	22	26	10	36	18
31	19	31	49	51	25	22	46	19
31	20	31	49	51	20
31	21	31	49	51	21
31	22	31	39	37	7	22
31	23	31	39	37	7	22	23
31	24	31	49	51	25	24
31	25	31	49	51	25
31	26	31	49	51	25	22	26
31	27	31	39	37	7	22	27
31	28	31	49	51	25	28
31	29	31	49	51	29
31	30	31	49	51	25	22	46	30
31	32	31	39	37	7	32
31	33	31	49	51	20	33
31	34	31	39	37	7	22	34
31	35	31	49	51	25	35
31	36	31	49	51	25	22	26	10	36
31	37	31	39	37
31	38	31	49	51	25	22	46	47	38
31	39	31	39
31	40	31	39	37	7	22	40
31	41	31	39	37	41
31	42	31	49	51	25	22	46	19	42
31	43	31	49	1	43
31	44	31	49	51	25	22	46	44
31	45	31	39	37	7	22	0	45
31	46	31	49	51	25	22	46
31	47	31	49	51	25	22	46	47
31	48	31	49	51	25	48
31	49	31	49
31	50	31	49	51	25	22	46	19	42	50
31	51	31	49	51
31	52	31	49	51	25	22	46	30	52
31	53	31	39	37	7	22	40	53
32	0	32	7	22	0
32	1	32	7	37	39	31	49	1
32	2	32	7	22	46	44	2
32	3	32	7	22	25	51	3
32	4	32	7	22	25	35	4
32	5	32	7	37	39	5
32	6	32	7	22	25	6
32	7	32	7
32	8	32	7	37	39	31	8
32	9	32	7	22	25	35	9
32	10	32	7	22	26	10
32	11	32	7	37	39	31	49	11
32	12	32	7	22	25	35	12
32	13	32	7	22	25	51	21	13
32	14	32	7	22	46	30	52	14
32	15	32	7	37	39	15
32	16	32	7	22	25	48	16
32	17	32	7	22	25	6	17
32	18	32	7	22	26	10	36	18
32	19	32	7	22	46	19
32	20	32	7	22	25	51	20
32	21	32	7	22	25	51	21
32	22	32	7	22
32	23	32	7	22	23
32	24	32	7	22	25	24
32	25	32	7	22	25
32	26	32	7	22	26
32	27	32	7	22	27
32	28	32	7	22	25	28
32	29	32	7	22	25	51	29
32	30	32	7	22	46	30
32	31	32	7	37	39	31
32	33	32	7	22	25	48	16	33
32	34	32	7	22	34
32	35	32	7	22	25	35
32	36	32	7	22	26	10	36
32	37	32	7	37
32	38	32	7	22	46	47	38
32	39	32	7	37	39
32	40	32	7	22	40
32	41	32	7	41
32	42	32	7	22	46	19	42
32	43	32	7	37	39	31	49	1	43
32	44	32	7	22	46	44
32	45	32	7	22	0	45
32	46	32	7	22	46
32	47	32	7	22	46	47
32	48	32	7	22	25	48
32	49	32	7	37	39	31	49
32	50	32	7	22	46	19	42	50
32	51	32	7	22	25	51
32	52	32	7	22	46	30	52
32	53	32	7	22	40	53
33	0	33	20	51	25	22	0
33	1	33	20	51	49	1
33	2	33	20	51	25	22	46	44	2
33	3	33	20	51	3
33	4	33	20	51	25	35	4
33	5	33	20	51	49	31	39	5
33	6	33	20	51	25	6
33	7	33	20	51	25	22	7
33	8	33	20	51	49	31	8
33	9	33	20	51	25	35	9
33	10	33	20	51	25	22	26	10
33	11	33	20	51	49	11
33	12	33	20	51	25	35	12
33	13	33	20	51	21	13
33	14	33	20	51	25	22	46	30	52	14
33	15	33	20	51	49	31	39	15
33	16	33	16
33	17	33	16	48	17
33	18	33	20	51	25	22	26	10	36	18
33	19	33	20	51	25	22	46	19
33	20	33	20
33	21	33	20	51	21
33	22	33	20	51	25	22
33	23	33	20	51	25	22	23
33	24	33	20	51	25	24
33	25	33	20	51	25
33	26	33	20	51	25	22	26
33	27	33	20	51	25	22	27
33	28	33	20	51	25	28
33	29	33	20	51	29
33	30	33	20	51	25	22	46	30
33	31	33	20	51	49	31
33	32	33	20	51	25	22	7	32
33	34	33	20	51	25	22	34
33	35	33	20	51	25	35
33	36	33	20	51	25	22	26	10	36
33	37	33	20	51	49	31	39	37
33	38	33	20	51	25	22	46	47	38
33	39	33	20	51	49	31	39
33	40	33	20	51	25	22	40
33	41	33	20	51	25	22	7	41
33	42	33	20	51	25	22	46	19	42
33	43	33	20	51	49	1	43
33	44	33	20	51	25	22	46	44
33	45	33	20	51	25	22	0	45
33	46	33	20	51	25	22	46
33	47	33	20	51	25	22	46	47
33	48	33	16	48
33	49	33	20	51	49
33	50	33	20	51	25	22	46	19	42	50
33	51	33	20	51
33	52	33	20	51	25	22	46	30	52
33	53	33	20	51	25	22	40	53
34	0	34	22	0
34	1	34	22	25	51	49	1
34	2	34	22	46	44	2
34	3	34	22	25	51	3
34	4	34	22	25	35	4
34	5	34	22	7	37	39	5
34	6	34	22	25	6
34	7	34	22	7
34	8	34	22	7	37	39	31	8
34	9	34	22	25	35	9
34	10	34	22	26	10
34	11	34	22	25	51	49	11
34	12	34	22	25	35	12
34	13	34	22	25	51	21	13
34	14	34	22	46	30	52	14
34	15	34	22	7	37	39	15
34	16	34	22	25	48	16
34	17	34	22	25	6	17
34	18	34	22	26	10	36	18
34	19	34	22	46	19
34	20	34	22	25	51	20
34	21	34	22	25	51	21
34	22	34	22
34	23	34	22	23
34	24	34	22	25	24
34	25	34	22	25
34	26	34	22	26
34	27	34	22	27
34	28	34	22	25	28
34	29	34	22	25	51	29
34	30	34	22	46	30
34	31	34	22	7	37	39	31
34	32	34	22	7	32
34	33	34	22	25	48	16	33
34	35	34	22	25	35
34	36	34	22	26	10	36
34	37	34	22	7	37
34	38	34	22	46	47	38
34	39	34	22	7	37	39
34	40	34	22	23	22	40
34	41	34	22	7	41
34	42	34	22	46	19	42
34	43	34	22	25	51	49	1	43
34	44	34	22	46	44
34	45	34	22	0	45
34	46	34	22	46
34	47	34	22	46	47
34	48	34	22	25	48
34	49	34	22	25	51	49
34	50	34	22	46	19	42	50
34	51	34	22	25	51
34	52	34	22	46	30	52
34	53	34	22	23	22	40	53
35	0	35	25	22	0
35	1	35	25	51	49	1
35	2	35	25	22	46	44	2
35	3	35	25	51	3
35	4	35	4
35	5	35	25	51	49	31	39	5
35	6	35	25	6
35	7	35	25	22	7
35	8	35	25	51	49	31	8
35	9	35	9
35	10	35	25	22	26	10
35	11	35	25	51	49	11
35	12	35	12
35	13	35	25	51	21	13
35	14	35	25	22	46	47	38	14
35	15	35	25	22	7	37	39	15
35	16	35	25	48	16
35	17	35	25	6	17
35	18	35	25	22	26	10	36	18
35	19	35	25	22	46	19
35	20	35	25	51	20
35	21	35	25	51	21
35	22	35	25	22
35	23	35	25	22	23
35	24	35	25	24
35	25	35	25
35	26	35	25	22	26
35	27	35	25	22	27
35	28	35	25	28
35	29	35	25	51	29
35	30	35	25	22	46	30
35	31	35	25	51	49	31
35	32	35	25	22	7	32
35	33	35	25	48	16	33
35	34	35	25	22	34
35	36	35	25	22	26	10	36
35	37	35	25	22	7	37
35	38	35	25	22	46	47	38
35	39	35	25	51	49	31	39
35	40	35	25	22	40
35	41	35	25	22	7	41
35	42	35	25	22	46	19	42
35	43	35	25	51	49	1	43
35	44	35	25	22	46	44
35	45	35	25	22	0	45
35	46	35	25	22	46
35	47	35	25	22	46	47
35	48	35	25	48
35	49	35	25	51	49
35	50	35	25	22	46	19	42	50
35	51	35	25	51
35	52	35	25	22	46	30	52
35	53	35	25	22	40	53
36	0	36	10	26	22	0
36	1	36	10	26	22	25	51	49	1
36	2	36	10	26	22	46	44	2
36	3	36	10	26	22	25	51	3
36	4	36	18	36	10	26	22	25	35	4
36	5	36	10	26	22	7	37	39	5
36	6	36	10	26	22	25	6
36	7	36	10	26	22	7
36	8	36	10	26	22	25	51	49	31	8
36	9	36	18	36	10	26	22	25	35	9
36	10	36	10
36	11	36	10	26	22	25	51	49	11
36	12	36	18	36	10	26	22	25	35	12
36	13	36	10	26	22	25	51	21	13
36	14	36	10	26	22	46	30	52	14
36	15	36	10	26	22	7	37	39	15
36	16	36	10	26	22	25	48	16
36	17	36	10	26	22	25	6	17
36	18	36	18
36	19	36	10	26	22	46	19
36	20	36	10	26	22	25	51	20
36	21	36	10	26	22	25	51	21
36	22	36	10	26	22
36	23	36	10	26	22	23
36	24	36	10	26	22	25	24
36	25	36	10	26	22	25
36	26	36	10	26
36	27	36	10	26	22	27
36	28	36	10	26	22	25	28
36	29	36	10	26	22	25	51	29
36	30	36	10	26	22	46	30
36	31	36	10	26	22	25	51	49	31
36	32	36	18	36	10	26	22	7	32
36	33	36	10	26	22	25	48	16	33
36	34	36	10	26	22	34
36	35	36	18	36	10	26	22	25	35
36	37	36	10	26	22	7	37
36	38	36	10	26	22	46	47	38
36	39	36	10	26	22	7	37	39
36	40	36	18	36	10	26	22	40
36	41	36	10	26	22	7	41
36	42	36	10	26	22	46	19	42
36	43	36	10	26	22	25	51	49	1	43
36	44	36	10	26	22	46	44
36	45	36	10	26	22	0	45
36	46	36	10	26	22	46
36	47	36	10	26	22	46	47
36	48	36	10	26	22	25	48
36	49	36	10	26	22	25	51	49
36	50	36	10	26	22	46	19	42	50
36	51	36	10	26	22	25	51
36	52	36	10	26	22	46	30	52
36	53	36	18	36	10	26	22	40	53
37	0	37	7	22	0
37	1	37	39	31	49	1
37	2	37	7	22	46	44	2
37	3	37	39	31	49	51	3
37	4	37	7	22	25	35	4
37	5	37	39	5
37	6	37	7	22	25	6
37	7	37	7
37	8	37	39	31	8
37	9	37	7	22	25	35	9
37	10	37	7	22	26	10
37	11	37	39	31	49	11
37	12	37	7	22	25	35	12
37	13	37	39	31	49	51	21	13
37	14	37	7	22	46	47	38	14
37	15	37	39	15
37	16	37	7	22	25	48	16
37	17	37	7	22	25	6	17
37	18	37	7	22	26	10	36	18
37	19	37	7	22	46	19
37	20	37	39	31	49	51	20
37	21	37	39	31	49	51	21
37	22	37	7	22
37	23	37	7	22	23
37	24	37	7	22	25	24
37	25	37	7	22	25
37	26	37	7	22	26
37	27	37	7	22	27
37	28	37	7	22	25	28
37	29	37	7	22	25	51	29
37	30	37	7	22	46	30
37	31	37	39	31
37	32	37	7	32
37	33	37	39	31	49	51	20	33
37	34	37	7	22	34
37	35	37	7	22	25	35
37	36	37	7	22	26	10	36
37	38	37	7	22	46	47	38
37	39	37	39
37	40	37	7	22	40
37	41	37	41
37	42	37	7	22	46	19	42
37	43	37	39	31	49	1	43
37	44	37	7	22	46	44
37	45	37	7	22	0	45
37	46	37	7	22	46
37	47	37	7	22	46	47
37	48	37	7	22	25	48
37	49	37	39	31	49
37	50	37	39	31	49	51	25	22	46	19	42	50
37	51	37	39	31	49	51
37	52	37	7	22	46	30	52
37	53	37	7	22	40	53
38	0	38	47	46	22	0
38	1	38	47	46	22	25	51	49	1
38	2	38	47	46	44	2
38	3	38	47	46	22	25	51	3
38	4	38	47	46	22	25	35	4
38	5	38	47	46	22	7	37	39	5
38	6	38	47	46	22	25	6
38	7	38	47	46	22	7
38	8	38	47	46	22	7	37	39	31	8
38	9	38	47	46	22	25	35	9
38	10	38	47	46	22	26	10
38	11	38	47	46	22	25	51	49	11
38	12	38	47	46	22	25	35	12
38	13	38	47	46	22	25	51	21	13
38	14	38	14
38	15	38	47	46	22	7	37	39	15
38	16	38	47	46	22	25	48	16
38	17	38	47	46	22	25	6	17
38	18	38	47	46	22	26	10	36	18
38	19	38	47	46	19
38	20	38	47	46	22	25	51	20
38	21	38	47	46	22	25	51	21
38	22	38	47	46	22
38	23	38	47	46	22	23
38	24	38	47	46	22	25	24
38	25	38	47	46	22	25
38	26	38	47	46	22	26
38	27	38	47	46	22	27
38	28	38	47	46	22	25	28
38	29	38	47	46	22	25	51	29
38	30	38	47	46	30
38	31	38	47	46	22	7	37	39	31
38	32	38	47	46	22	7	32
38	33	38	47	46	22	25	48	16	33
38	34	38	47	46	22	34
38	35	38	47	46	22	25	35
38	36	38	47	46	22	26	10	36
38	37	38	47	46	22	7	37
38	39	38	47	46	22	7	37	39
38	40	38	47	46	22	40
38	41	38	47	46	22	7	41
38	42	38	47	46	19	42
38	43	38	47	46	22	25	51	49	1	43
38	44	38	47	46	44
38	45	38	47	46	22	0	45
38	46	38	47	46
38	47	38	47
38	48	38	47	46	22	25	48
38	49	38	47	46	22	25	51	49
38	50	38	47	46	19	42	50
38	51	38	47	46	22	25	51
38	52	38	14	52
38	53	38	47	46	22	40	53
39	0	39	37	7	22	0
39	1	39	31	49	1
39	2	39	37	7	22	46	44	2
39	3	39	31	49	51	3
39	4	39	31	49	51	25	35	4
39	5	39	5
39	6	39	31	49	51	25	6
39	7	39	37	7
39	8	39	31	8
39	9	39	31	49	51	25	35	9
39	10	39	37	7	22	26	10
39	11	39	31	49	11
39	12	39	31	49	51	25	35	12
39	13	39	31	49	51	21	13
39	14	39	37	7	22	46	30	52	14
39	15	39	15
39	16	39	31	49	51	20	33	16
39	17	39	31	49	51	25	6	17
39	18	39	37	7	22	26	10	36	18
39	19	39	37	7	22	46	19
39	20	39	31	49	51	20
39	21	39	31	49	51	21
39	22	39	37	7	22
39	23	39	37	7	22	23
39	24	39	37	7	22	25	24
39	25	39	31	49	51	25
39	26	39	37	7	22	26
39	27	39	37	7	22	27
39	28	39	37	7	22	25	28
39	29	39	31	49	51	29
39	30	39	37	7	22	46	30
39	31	39	31
39	32	39	37	7	32
39	33	39	31	49	51	20	33
39	34	39	37	7	22	34
39	35	39	31	49	51	25	35
39	36	39	37	7	22	26	10	36
39	37	39	37
39	38	39	37	7	22	46	47	38
39	40	39	37	7	22	40
39	41	39	37	41
39	42	39	37	7	22	46	19	42
39	43	39	31	49	1	43
39	44	39	37	7	22	46	44
39	45	39	37	7	22	0	45
39	46	39	37	7	22	46
39	47	39	37	7	22	46	47
39	48	39	31	49	51	25	48
39	49	39	31	49
39	50	39	31	49	51	25	22	46	19	42	50
39	51	39	31	49	51
39	52	39	37	7	22	46	30	52
39	53	39	37	7	22	40	53
40	0	40	22	0
40	1	40	22	25	51	49	1
40	2	40	22	46	44	2
40	3	40	22	25	51	3
40	4	40	22	25	35	4
40	5	40	22	7	37	39	5
40	6	40	22	25	6
40	7	40	22	7
40	8	40	22	7	37	39	31	8
40	9	40	22	25	35	9
40	10	40	22	26	10
40	11	40	22	25	51	49	11
40	12	40	22	25	35	12
40	13	40	22	25	51	21	13
40	14	40	22	46	47	38	14
40	15	40	22	7	37	39	15
40	16	40	22	25	48	16
40	17	40	22	25	6	17
40	18	40	22	26	10	36	18
40	19	40	22	46	19
40	20	40	22	25	51	20
40	21	40	22	25	51	21
40	22	40	22
40	23	40	22	23
40	24	40	22	25	24
40	25	40	22	25
40	26	40	22	26
40	27	40	22	27
40	28	40	22	25	28
40	29	40	22	25	51	29
40	30	40	22	46	30
40	31	40	22	7	37	39	31
40	32	40	22	7	32
40	33	40	22	25	48	16	33
40	34	40	22	34
40	35	40	22	25	35
40	36	40	22	26	10	36
40	37	40	22	7	37
40	38	40	22	46	47	38
40	39	40	22	7	37	39
40	41	40	22	7	41
40	42	40	22	46	19	42
40	43	40	22	25	51	49	1	43
40	44	40	22	46	44
40	45	40	22	0	45
40	46	40	22	46
40	47	40	22	46	47
40	48	40	22	25	48
40	49	40	22	25	51	49
40	50	40	22	46	19	42	50
40	51	40	22	25	51
40	52	40	22	46	30	52
40	53	40	53
41	0	41	7	22	0
41	1	41	7	22	25	51	49	1
41	2	41	7	22	46	44	2
41	3	41	7	22	25	51	3
41	4	41	7	22	25	35	4
41	5	41	7	32	7	37	39	5
41	6	41	7	22	25	6
41	7	41	7
41	8	41	7	32	7	37	39	31	8
41	9	41	7	22	25	35	9
41	10	41	7	22	26	10
41	11	41	7	22	25	51	49	11
41	12	41	7	22	25	35	12
41	13	41	7	22	25	51	21	13
41	14	41	7	22	46	30	52	14
41	15	41	7	32	7	37	39	15
41	16	41	7	22	25	48	16
41	17	41	7	22	25	6	17
41	18	41	7	22	26	10	36	18
41	19	41	7	22	46	19
41	20	41	7	22	25	51	20
41	21	41	7	22	25	51	21
41	22	41	7	22
41	23	41	7	22	23
41	24	41	7	22	25	24
41	25	41	7	22	25
41	26	41	7	22	26
41	27	41	7	22	27
41	28	41	7	22	25	28
41	29	41	7	22	25	51	29
41	30	41	7	22	46	30
41	31	41	7	32	7	37	39	31
41	32	41	7	32
41	33	41	7	22	25	48	16	33
41	34	41	7	22	34
41	35	41	7	22	25	35
41	36	41	7	22	26	10	36
41	37	41	37
41	38	41	7	22	46	47	38
41	39	41	7	32	7	37	39
41	40	41	7	22	40
41	42	41	7	22	46	19	42
41	43	41	7	22	25	51	49	1	43
41	44	41	7	22	46	44
41	45	41	7	22	0	45
41	46	41	7	22	46
41	47	41	7	22	46	47
41	48	41	7	22	25	48
41	49	41	7	22	25	51	49
41	50	41	7	22	46	19	42	50
41	51	41	7	22	25	51
41	52	41	7	22	46	30	52
41	53	41	7	22	40	53
42	0	42	19	46	22	0
42	1	42	19	46	22	25	51	49	1
42	2	42	50	42	19	46	44	2
42	3	42	50	42	19	46	22	25	51	3
42	4	42	19	46	22	25	35	4
42	5	42	19	46	22	7	37	39	5
42	6	42	19	46	22	25	6
42	7	42	19	46	22	7
42	8	42	19	46	22	7	37	39	31	8
42	9	42	19	46	22	25	35	9
42	10	42	19	46	22	26	10
42	11	42	19	46	22	25	51	49	11
42	12	42	19	46	22	25	35	12
42	13	42	50	42	19	46	22	25	51	21	13
42	14	42	19	46	47	38	14
42	15	42	19	46	22	7	37	39	15
42	16	42	50	42	19	46	22	25	48	16
42	17	42	19	46	22	25	6	17
42	18	42	19	46	22	26	10	36	18
42	19	42	19
42	20	42	50	42	19	46	22	25	51	20
42	21	42	50	42	19	46	22	25	51	21
42	22	42	19	46	22
42	23	42	19	46	22	23
42	24	42	19	46	22	25	24
42	25	42	19	46	22	25
42	26	42	19	46	22	26
42	27	42	19	46	22	27
42	28	42	19	46	22	25	28
42	29	42	50	42	19	46	22	25	51	29
42	30	42	19	46	30
42	31	42	19	46	22	7	37	39	31
42	32	42	19	46	22	7	32
42	33	42	50	42	19	46	22	25	48	16	33
42	34	42	19	46	22	34
42	35	42	19	46	22	25	35
42	36	42	19	46	22	26	10	36
42	37	42	19	46	22	7	37
42	38	42	19	46	47	38
42	39	42	19	46	22	7	37	39
42	40	42	19	46	22	40
42	41	42	19	46	22	7	41
42	43	42	19	46	22	25	51	49	1	43
42	44	42	19	46	44
42	45	42	19	46	22	0	45
42	46	42	19	46
42	47	42	19	46	47
42	48	42	19	46	22	25	48
42	49	42	19	46	22	25	51	49
42	50	42	50
42	51	42	50	42	19	46	22	25	51
42	52	42	19	46	30	52
42	53	42	19	46	22	40	53
43	0	43	1	49	51	25	22	0
43	1	43	1
43	2	43	1	49	51	25	22	46	44	2
43	3	43	1	49	51	3
43	4	43	1	49	51	25	35	4
43	5	43	1	49	31	39	5
43	6	43	1	49	51	25	6
43	7	43	1	49	31	39	37	7
43	8	43	1	49	31	8
43	9	43	1	49	51	25	35	9
43	10	43	1	49	51	25	22	26	10
43	11	43	1	49	11
43	12	43	1	49	51	25	35	12
43	13	43	1	49	51	21	13
43	14	43	1	49	51	25	22	46	30	52	14
43	15	43	1	49	31	39	15
43	16	43	1	49	51	20	33	16
43	17	43	1	49	51	25	6	17
43	18	43	1	49	51	25	22	26	10	36	18
43	19	43	1	49	51	25	22	46	19
43	20	43	1	49	51	20
43	21	43	1	49	51	21
43	22	43	1	49	51	25	22
43	23	43	1	49	51	25	22	23
43	24	43	1	49	51	25	24
43	25	43	1	49	51	25
43	26	43	1	49	51	25	22	26
43	27	43	1	49	51	25	22	27
43	28	43	1	49	51	25	28
43	29	43	1	49	51	29
43	30	43	1	49	51	25	22	46	30
43	31	43	1	49	31
43	32	43	1	49	31	39	37	7	32
43	33	43	1	49	51	20	33
43	34	43	1	49	51	25	22	34
43	35	43	1	49	51	25	35
43	36	43	1	49	51	25	22	26	10	36
43	37	43	1	49	31	39	37
43	38	43	1	49	51	25	22	46	47	38
43	39	43	1	49	31	39
43	40	43	1	49	51	25	22	40
43	41	43	1	49	31	39	37	41
43	42	43	1	49	51	25	22	46	19	42
43	44	43	1	49	51	25	22	46	44
43	45	43	1	49	51	25	22	0	45
43	46	43	1	49	51	25	22	46
43	47	43	1	49	51	25	22	46	47
43	48	43	1	49	51	25	48
43	49	43	1	49
43	50	43	1	49	51	25	22	46	19	42	50
43	51	43	1	49	51
43	52	43	1	49	51	25	22	46	30	52
43	53	43	1	49	51	25	22	40	53
44	0	44	46	22	0
44	1	44	2	44	46	22	25	51	49	1
44	2	44	2
44	3	44	2	44	46	22	25	51	3
44	4	44	46	22	25	35	4
44	5	44	2	44	46	22	7	37	39	5
44	6	44	46	22	25	6
44	7	44	46	22	7
44	8	44	2	44	46	22	7	37	39	31	8
44	9	44	46	22	25	35	9
44	10	44	46	22	26	10
44	11	44	46	22	25	51	49	11
44	12	44	46	22	25	35	12
44	13	44	2	44	46	22	25	51	21	13
44	14	44	46	47	38	14
44	15	44	2	44	46	22	7	37	39	15
44	16	44	2	44	46	22	25	48	16
44	17	44	46	22	25	6	17
44	18	44	46	22	26	10	36	18
44	19	44	46	19
44	20	44	2	44	46	22	25	51	20
44	21	44	2	44	46	22	25	51	21
44	22	44	46	22
44	23	44	46	22	23
44	24	44	46	22	25	24
44	25	44	46	22	25
44	26	44	46	22	26
44	27	44	46	22	27
44	28	44	46	22	25	28
44	29	44	2	44	46	22	25	51	29
44	30	44	46	30
44	31	44	2	44	46	22	7	37	39	31
44	32	44	46	22	7	32
44	33	44	2	44	46	22	25	48	16	33
44	34	44	46	22	34
44	35	44	46	22	25	35
44	36	44	46	22	26	10	36
44	37	44	46	22	7	37
44	38	44	46	47	38
44	39	44	46	22	7	37	39
44	40	44	46	22	40
44	41	44	46	22	7	41
44	42	44	46	19	42
44	43	44	2	44	46	22	25	51	49	1	43
44	45	44	46	22	0	45
44	46	44	46
44	47	44	46	47
44	48	44	46	22	25	48
44	49	44	2	44	46	22	25	51	49
44	50	44	2	44	46	19	42	50
44	51	44	2	44	46	22	25	51
44	52	44	46	30	52
44	53	44	46	22	40	53
45	0	45	0
45	1	45	0	22	25	51	49	1
45	2	45	0	22	46	44	2
45	3	45	0	22	25	51	3
45	4	45	0	22	25	35	4
45	5	45	0	22	7	37	39	5
45	6	45	0	22	25	6
45	7	45	0	22	7
45	8	45	0	22	7	37	39	31	8
45	9	45	0	22	25	35	9
45	10	45	0	22	26	10
45	11	45	0	22	25	51	49	11
45	12	45	0	22	25	35	12
45	13	45	0	22	25	51	21	13
45	14	45	0	22	46	30	52	14
45	15	45	0	22	7	37	39	15
45	16	45	0	22	25	48	16
45	17	45	0	22	25	6	17
45	18	45	0	22	26	10	36	18
45	19	45	0	22	46	19
45	20	45	0	22	25	51	20
45	21	45	0	22	25	51	21
45	22	45	0	22
45	23	45	0	22	23
45	24	45	0	22	25	24
45	25	45	0	22	25
45	26	45	0	22	26
45	27	45	0	22	27
45	28	45	0	22	25	28
45	29	45	0	22	25	51	29
45	30	45	0	22	46	30
45	31	45	0	22	7	37	39	31
45	32	45	0	22	7	32
45	33	45	0	22	25	48	16	33
45	34	45	0	22	34
45	35	45	0	22	25	35
45	36	45	0	22	26	10	36
45	37	45	0	22	7	37
45	38	45	0	22	46	47	38
45	39	45	0	22	7	37	39
45	40	45	0	22	40
45	41	45	0	22	7	41
45	42	45	0	22	46	19	42
45	43	45	0	22	25	51	49	1	43
45	44	45	0	22	46	44
45	46	45	0	22	46
45	47	45	0	22	46	47
45	48	45	0	22	25	48
45	49	45	0	22	25	51	49
45	50	45	0	22	46	19	42	50
45	51	45	0	22	25	51
45	52	45	0	22	46	30	52
45	53	45	0	22	40	53
46	0	46	22	0
46	1	46	22	25	51	49	1
46	2	46	44	2
46	3	46	22	25	51	3
46	4	46	22	25	35	4
46	5	46	22	7	37	39	5
46	6	46	22	25	6
46	7	46	22	7
46	8	46	22	7	37	39	31	8
46	9	46	22	25	35	9
46	10	46	22	26	10
46	11	46	22	25	51	49	11
46	12	46	22	25	35	12
46	13	46	22	25	51	21	13
46	14	46	47	38	14
46	15	46	22	7	37	39	15
46	16	46	22	25	48	16
46	17	46	22	25	6	17
46	18	46	22	26	10	36	18
46	19	46	19
46	20	46	22	25	51	20
46	21	46	22	25	51	21
46	22	46	22
46	23	46	22	23
46	24	46	22	25	24
46	25	46	22	25
46	26	46	22	26
46	27	46	22	27
46	28	46	22	25	28
46	29	46	22	25	51	29
46	30	46	30
46	31	46	22	7	37	39	31
46	32	46	22	7	32
46	33	46	22	25	48	16	33
46	34	46	22	34
46	35	46	22	25	35
46	36	46	22	26	10	36
46	37	46	22	7	37
46	38	46	47	38
46	39	46	22	7	37	39
46	40	46	22	40
46	41	46	22	7	41
46	42	46	19	42
46	43	46	22	25	51	49	1	43
46	44	46	44
46	45	46	22	0	45
46	47	46	47
46	48	46	22	25	48
46	49	46	22	25	51	49
46	50	46	19	42	50
46	51	46	22	25	51
46	52	46	30	52
46	53	46	22	40	53
47	0	47	46	22	0
47	1	47	46	22	25	51	49	1
47	2	47	46	44	2
47	3	47	46	22	25	51	3
47	4	47	46	22	25	35	4
47	5	47	46	22	7	37	39	5
47	6	47	46	22	25	6
47	7	47	46	22	7
47	8	47	46	22	7	37	39	31	8
47	9	47	46	22	25	35	9
47	10	47	46	22	26	10
47	11	47	46	22	25	51	49	11
47	12	47	46	22	25	35	12
47	13	47	46	22	25	51	21	13
47	14	47	38	14
47	15	47	46	22	7	37	39	15
47	16	47	46	22	25	48	16
47	17	47	46	22	25	6	17
47	18	47	46	22	26	10	36	18
47	19	47	46	19
47	20	47	46	22	25	51	20
47	21	47	46	22	25	51	21
47	22	47	46	22
47	23	47	46	22	23
47	24	47	46	22	25	24
47	25	47	46	22	25
47	26	47	46	22	26
47	27	47	46	22	27
47	28	47	46	22	25	28
47	29	47	46	22	25	51	29
47	30	47	46	30
47	31	47	46	22	7	37	39	31
47	32	47	46	22	7	32
47	33	47	46	22	25	48	16	33
47	34	47	46	22	34
47	35	47	46	22	25	35
47	36	47	46	22	26	10	36
47	37	47	46	22	7	37
47	38	47	38
47	39	47	46	22	7	37	39
47	40	47	46	22	40
47	41	47	46	22	7	41
47	42	47	46	19	42
47	43	47	46	22	25	51	49	1	43
47	44	47	46	44
47	45	47	46	22	0	45
47	46	47	46
47	48	47	46	22	25	48
47	49	47	46	22	25	51	49
47	50	47	46	19	42	50
47	51	47	46	22	25	51
47	52	47	38	14	52
47	53	47	46	22	40	53
48	0	48	25	22	0
48	1	48	25	51	49	1
48	2	48	25	22	46	44	2
48	3	48	25	51	3
48	4	48	25	35	4
48	5	48	25	51	49	31	39	5
48	6	48	25	6
48	7	48	25	22	7
48	8	48	25	51	49	31	8
48	9	48	25	35	9
48	10	48	25	22	26	10
48	11	48	25	51	49	11
48	12	48	25	35	12
48	13	48	25	51	21	13
48	14	48	25	22	46	30	52	14
48	15	48	25	51	49	31	39	15
48	16	48	16
48	17	48	17
48	18	48	25	22	26	10	36	18
48	19	48	25	22	46	19
48	20	48	25	51	20
48	21	48	25	51	21
48	22	48	25	22
48	23	48	25	22	23
48	24	48	25	24
48	25	48	25
48	26	48	25	22	26
48	27	48	25	22	27
48	28	48	25	28
48	29	48	25	51	29
48	30	48	25	22	46	30
48	31	48	25	51	49	31
48	32	48	25	22	7	32
48	33	48	16	33
48	34	48	25	22	34
48	35	48	25	35
48	36	48	25	22	26	10	36
48	37	48	25	22	7	37
48	38	48	25	22	46	47	38
48	39	48	25	51	49	31	39
48	40	48	25	22	40
48	41	48	25	22	7	41
48	42	48	25	22	46	19	42
48	43	48	25	51	49	1	43
48	44	48	25	22	46	44
48	45	48	25	22	0	45
48	46	48	25	22	46
48	47	48	25	22	46	47
48	49	48	25	51	49
48	50	48	25	22	46	19	42	50
48	51	48	25	51
48	52	48	25	22	46	30	52
48	53	48	25	22	40	53
49	0	49	51	25	22	0
49	1	49	1
49	2	49	51	25	22	46	44	2
49	3	49	51	3
49	4	49	51	25	35	4
49	5	49	31	39	5
49	6	49	51	25	6
49	7	49	31	39	37	7
49	8	49	31	8
49	9	49	51	25	35	9
49	10	49	51	25	22	26	10
49	11	49	11
49	12	49	51	25	35	12
49	13	49	51	21	13
49	14	49	51	25	22	46	47	38	14
49	15	49	31	39	15
49	16	49	51	20	33	16
49	17	49	51	25	6	17
49	18	49	51	25	22	26	10	36	18
49	19	49	51	25	22	46	19
49	20	49	51	20
49	21	49	51	21
49	22	49	51	25	22
49	23	49	51	25	22	23
49	24	49	51	25	24
49	25	49	51	25
49	26	49	51	25	22	26
49	27	49	51	25	22	27
49	28	49	51	25	28
49	29	49	51	29
49	30	49	51	25	22	46	30
49	31	49	31
49	32	49	31	39	37	7	32
49	33	49	51	20	33
49	34	49	51	25	22	34
49	35	49	51	25	35
49	36	49	51	25	22	26	10	36
49	37	49	31	39	37
49	38	49	51	25	22	46	47	38
49	39	49	31	39
49	40	49	51	25	22	40
49	41	49	31	39	37	41
49	42	49	51	25	22	46	19	42
49	43	49	1	43
49	44	49	51	25	22	46	44
49	45	49	51	25	22	0	45
49	46	49	51	25	22	46
49	47	49	51	25	22	46	47
49	48	49	51	25	48
49	50	49	51	25	22	46	19	42	50
49	51	49	51
49	52	49	51	25	22	46	30	52
49	53	49	51	25	22	40	53
50	0	50	42	19	46	22	0
50	1	50	42	19	46	22	25	51	49	1
50	2	50	42	19	46	44	2
50	3	50	42	19	46	22	25	51	3
50	4	50	42	19	46	22	25	35	4
50	5	50	42	19	46	22	7	37	39	5
50	6	50	42	19	46	22	25	6
50	7	50	42	19	46	22	7
50	8	50	42	19	46	22	7	37	39	31	8
50	9	50	42	19	46	22	25	35	9
50	10	50	42	19	46	22	26	10
50	11	50	42	19	46	22	25	51	49	11
50	12	50	42	19	46	22	25	35	12
50	13	50	42	19	46	22	25	51	21	13
50	14	50	42	19	46	30	52	14
50	15	50	42	19	46	22	7	37	39	15
50	16	50	42	19	46	22	25	48	16
50	17	50	42	19	46	22	25	6	17
50	18	50	42	19	46	22	26	10	36	18
50	19	50	42	19
50	20	50	42	19	46	22	25	51	20
50	21	50	42	19	46	22	25	51	21
50	22	50	42	19	46	22
50	23	50	42	19	46	22	23
50	24	50	42	19	46	22	25	24
50	25	50	42	19	46	22	25
50	26	50	42	19	46	22	26
50	27	50	42	19	46	22	27
50	28	50	42	19	46	22	25	28
50	29	50	42	19	46	22	25	51	29
50	30	50	42	19	46	30
50	31	50	42	19	46	22	7	37	39	31
50	32	50	42	19	46	22	7	32
50	33	50	42	19	46	22	25	48	16	33
50	34	50	42	19	46	22	34
50	35	50	42	19	46	22	25	35
50	36	50	42	19	46	22	26	10	36
50	37	50	42	19	46	22	7	37
50	38	50	42	19	46	47	38
50	39	50	42	19	46	22	7	37	39
50	40	50	42	19	46	22	40
50	41	50	42	19	46	22	7	41
50	42	50	42
50	43	50	42	19	46	22	25	51	49	1	43
50	44	50	42	19	46	44
50	45	50	42	19	46	22	0	45
50	46	50	42	19	46
50	47	50	42	19	46	47
50	48	50	42	19	46	22	25	48
50	49	50	42	19	46	22	25	51	49
50	51	50	42	19	46	22	25	51
50	52	50	42	19	46	30	52
50	53	50	42	19	46	22	40	53
51	0	51	25	22	0
51	1	51	49	1
51	2	51	25	22	46	44	2
51	3	51	3
51	4	51	25	35	4
51	5	51	49	31	39	5
51	6	51	25	6
51	7	51	25	22	7
51	8	51	49	31	8
51	9	51	25	35	9
51	10	51	25	22	26	10
51	11	51	49	11
51	12	51	25	35	12
51	13	51	21	13
51	14	51	25	22	46	47	38	14
51	15	51	49	31	39	15
51	16	51	20	33	16
51	17	51	25	48	17
51	18	51	25	22	26	10	36	18
51	19	51	25	22	46	19
51	20	51	20
51	21	51	21
51	22	51	25	22
51	23	51	25	22	23
51	24	51	25	24
51	25	51	25
51	26	51	25	22	26
51	27	51	25	22	27
51	28	51	25	28
51	29	51	29
51	30	51	25	22	46	30
51	31	51	49	31
51	32	51	25	22	7	32
51	33	51	20	33
51	34	51	25	22	34
51	35	51	25	35
51	36	51	25	22	26	10	36
51	37	51	49	31	39	37
51	38	51	25	22	46	47	38
51	39	51	49	31	39
51	40	51	25	22	40
51	41	51	25	22	7	41
51	42	51	25	22	46	19	42
51	43	51	49	1	43
51	44	51	25	22	46	44
51	45	51	25	22	0	45
51	46	51	25	22	46
51	47	51	25	22	46	47
51	48	51	25	48
51	49	51	49
51	50	51	25	22	46	19	42	50
51	52	51	25	22	46	30	52
51	53	51	25	22	40	53
52	0	52	30	46	22	0
52	1	52	30	46	22	25	51	49	1
52	2	52	30	46	44	2
52	3	52	30	46	22	25	51	3
52	4	52	30	46	22	25	35	4
52	5	52	30	46	22	7	37	39	5
52	6	52	30	46	22	25	6
52	7	52	30	46	22	7
52	8	52	30	46	22	7	37	39	31	8
52	9	52	30	46	22	25	35	9
52	10	52	30	46	22	26	10
52	11	52	30	46	22	25	51	49	11
52	12	52	30	46	22	25	35	12
52	13	52	30	46	22	25	51	21	13
52	14	52	14
52	15	52	30	46	22	7	37	39	15
52	16	52	30	46	22	25	48	16
52	17	52	30	46	22	25	6	17
52	18	52	30	46	22	26	10	36	18
52	19	52	30	46	19
52	20	52	30	46	22	25	51	20
52	21	52	30	46	22	25	51	21
52	22	52	30	46	22
52	23	52	30	46	22	23
52	24	52	30	46	22	25	24
52	25	52	30	46	22	25
52	26	52	30	46	22	26
52	27	52	30	46	22	27
52	28	52	30	46	22	25	28
52	29	52	30	46	22	25	51	29
52	30	52	30
52	31	52	30	46	22	7	37	39	31
52	32	52	30	46	22	7	32
52	33	52	30	46	22	25	48	16	33
52	34	52	30	46	22	34
52	35	52	30	46	22	25	35
52	36	52	30	46	22	26	10	36
52	37	52	30	46	22	7	37
52	38	52	14	38
52	39	52	30	46	22	7	37	39
52	40	52	30	46	22	40
52	41	52	30	46	22	7	41
52	42	52	30	46	19	42
52	43	52	30	46	22	25	51	49	1	43
52	44	52	30	46	44
52	45	52	30	46	22	0	45
52	46	52	30	46
52	47	52	30	46	47
52	48	52	30	46	22	25	48
52	49	52	30	46	22	25	51	49
52	50	52	30	46	19	42	50
52	51	52	30	46	22	25	51
52	53	52	30	46	22	40	53
53	0	53	40	22	0
53	1	53	40	22	25	51	49	1
53	2	53	40	22	46	44	2
53	3	53	40	22	25	51	3
53	4	53	40	22	25	35	4
53	5	53	40	22	7	37	39	5
53	6	53	40	22	25	6
53	7	53	40	22	7
53	8	53	40	22	25	51	49	31	8
53	9	53	40	22	25	35	9
53	10	53	40	22	26	10
53	11	53	40	22	25	51	49	11
53	12	53	40	22	25	35	12
53	13	53	40	22	25	51	21	13
53	14	53	40	22	46	47	38	14
53	15	53	40	22	7	37	39	15
53	16	53	40	22	25	48	16
53	17	53	40	22	25	6	17
53	18	53	40	22	26	10	36	18
53	19	53	40	22	46	19
53	20	53	40	22	25	51	20
53	21	53	40	22	25	51	21
53	22	53	40	22
53	23	53	40	22	23
53	24	53	40	22	25	24
53	25	53	40	22	25
53	26	53	40	22	26
53	27	53	40	22	27
53	28	53	40	22	25	28
53	29	53	40	22	25	51	29
53	30	53	40	22	46	30
53	31	53	40	22	25	51	49	31
53	32	53	40	22	7	32
53	33	53	40	22	25	48	16	33
53	34	53	40	22	34
53	35	53	40	22	25	35
53	36	53	40	22	26	10	36
53	37	53	40	22	7	37
53	38	53	40	22	46	47	38
53	39	53	40	22	7	37	39
53	40	53	40
53	41	53	40	22	7	41
53	42	53	40	22	46	19	42
53	43	53	40	22	25	51	49	1	43
53	44	53	40	22	46	44
53	45	53	40	22	0	45
53	46	53	40	22	46
53	47	53	40	22	46	47
53	48	53	40	22	25	48
53	49	53	40	22	25	51	49
53	50	53	40	22	46	19	42	50
53	51	53	40	22	25	51
53	52	53	40	22	46	30	52
403
2	1	46
2	3	46
2	4	46
2	5	46
2	6	46
2	8	46
2	9	46
2	10	46
2	11	46
2	12	46
2	13	46
2	15	46
2	16	46
2	17	46
2	18	46
2	20	46
2	21	46
2	24	46
2	25	46
2	26	46
2	28	46
2	29	46
2	31	46
2	33	46
2	35	46
2	36	46
2	39	46
2	42	46
2	43	46
2	45	46
2	48	46
2	49	46
2	50	46
2	51	46
2	53	46
3	13	21
3	15	49
3	37	49
3	39	49
3	41	25
4	12	9
5	1	37
5	2	37
5	3	37
5	4	37
5	6	37
5	8	15
5	9	37
5	10	37
5	11	15
5	12	37
5	14	37
5	16	37
5	17	37
5	18	37
5	19	37
5	20	37
5	21	37
5	24	37
5	25	37
5	26	37
5	28	37
5	29	37
5	30	37
5	31	15
5	33	37
5	35	37
5	36	37
5	38	37
5	42	37
5	43	37
5	44	37
5	45	37
5	46	37
5	47	37
5	48	37
5	49	15
5	50	7
5	51	37
5	52	37
5	53	37
11	0	51
11	7	51
11	14	51
11	19	51
11	22	51
11	23	51
11	27	51
11	30	51
11	32	51
11	34	51
11	38	51
11	40	51
11	42	51
11	44	51
11	46	51
11	47	51
11	50	51
11	52	51
15	1	31
15	2	37
15	3	31
15	4	37
15	6	37
15	9	31
15	10	37
15	12	37
15	13	31
15	16	37
15	17	37
15	18	37
15	20	31
15	21	31
15	24	37
15	25	37
15	26	37
15	28	37
15	29	31
15	33	31
15	35	37
15	36	37
15	42	37
15	43	31
15	44	37
15	45	37
15	48	37
15	50	7
15	51	31
15	53	37
18	1	10
18	2	10
18	3	10
18	4	10
18	5	10
18	6	10
18	8	10
18	9	26
18	11	10
18	12	26
18	13	10
18	15	10
18	16	10
18	17	10
18	20	10
18	21	10
18	24	10
18	25	10
18	28	10
18	29	10
18	31	10
18	32	10
18	33	10
18	34	10
18	35	10
18	40	10
18	43	10
18	45	10
18	48	10
18	49	10
18	50	10
18	51	10
18	53	10
23	24	25
23	28	25
27	9	25
27	10	23
27	18	23
27	26	23
27	36	23
27	53	40
28	0	48
28	7	48
28	14	48
28	19	48
28	22	48
28	23	48
28	24	48
28	27	48
28	30	48
28	32	48
28	34	48
28	37	48
28	38	48
28	39	51
28	40	48
28	41	48
28	42	48
28	44	48
28	46	48
28	47	48
28	52	48
29	0	21
29	4	21
29	6	21
29	7	49
29	9	21
29	10	3
29	12	21
29	14	3
29	16	20
29	17	20
29	18	3
29	22	21
29	23	21
29	24	21
29	25	21
29	26	3
29	27	21
29	28	21
29	30	3
29	32	49
29	34	21
29	35	21
29	36	3
29	37	49
29	38	3
29	40	21
29	41	49
29	45	21
29	46	3
29	47	3
29	48	20
29	52	3
29	53	3
32	9	22
32	12	22
32	18	22
32	34	22
32	40	22
32	53	22
34	9	25
34	18	26
34	32	7
34	40	23
34	53	23
41	1	22
41	3	22
41	5	32
41	8	32
41	11	22
41	13	22
41	15	32
41	20	22
41	21	22
41	31	32
41	33	22
41	39	32
41	43	22
41	49	22
41	50	22
41	51	22
43	0	49
43	2	49
43	3	49
43	4	49
43	6	49
43	7	49
43	9	49
43	10	49
43	12	49
43	13	49
43	14	49
43	15	49
43	16	49
43	17	49
43	18	49
43	20	49
43	21	49
43	22	49
43	23	49
43	24	49
43	25	49
43	26	49
43	27	49
43	28	49
43	29	49
43	30	49
43	32	49
43	33	49
43	34	49
43	35	49
43	36	49
43	37	49
43	38	49
43	39	49
43	40	49
43	41	49
43	42	49
43	44	49
43	45	49
43	46	49
43	47	49
43	48	49
43	50	49
43	51	49
43	52	49
43	53	49
45	1	22
45	2	22
45	3	22
45	4	22
45	5	22
45	6	22
45	8	22
45	9	22
45	10	22
45	11	22
45	12	22
45	13	22
45	15	22
45	16	22
45	17	22
45	18	22
45	20	22
45	21	22
45	24	22
45	25	22
45	26	22
45	28	22
45	29	22
45	31	22
45	33	22
45	35	22
45	36	22
45	43	22
45	48	22
45	49	22
45	50	22
45	51	22
45	53	22
50	0	19
50	1	19
50	2	19
50	3	19
50	4	19
50	5	19
50	6	19
50	7	19
50	8	19
50	9	19
50	10	19
50	12	19
50	13	19
50	15	19
50	16	19
50	17	19
50	18	19
50	20	19
50	21	19
50	22	19
50	23	19
50	24	19
50	25	19
50	26	19
50	27	19
50	28	19
50	29	19
50	31	19
50	32	19
50	33	19
50	34	19
50	35	19
50	36	19
50	37	19
50	39	19
50	40	19
50	41	19
50	43	19
50	44	19
50	45	19
50	48	19
50	49	19
50	51	19
50	53	19
53	1	22
53	3	22
53	4	22
53	6	22
53	8	22
53	9	22
53	10	22
53	12	22
53	13	22
53	16	22
53	17	22
53	18	22
53	20	22
53	21	22
53	25	22
53	26	22
53	27	22
53	28	22
53	29	22
53	31	22
53	33	22
53	35	22
53	36	22
53	43	22
53	45	22
53	48	22
53	49	22
53	50	22
53	51	22
